TITLE:	this is an example of an exploratory 
	factor analysis with categorical factor
        indicators
DATA:	FILE IS DATA.txt;
       
VARIABLE:	NAMES ARE mt1-mt45,cn1-cn45,ch1-ch45,l1-l45;
        	CATEGORICAL ARE mt1-mt45 cn1-cn45 ch1-ch45 l1-l45;
       
    
ANALYSIS:	TYPE = EFA 1  6;


            


