TITLE:	ENEM 2011
DATA:	FILE IS DATA.txt;
VARIABLE:	NAMES ARE mt1-mt45,cn1-cn45,ch1-ch45,l1-l45;
        	CATEGORICAL ARE mt1 mt2 mt6 mt10 mt20-mt22 mt27 mt29
             mt34 mt38 mt40-mt44 l1-l8 l10-l12 l14-l16 l19 l25 
            l26 l28 l29 l31 l35-l37 l40 l41 l45 cn2 cn3 cn6-cn8 
            cn10 cn16 cn18-cn20 cn24-cn27 cn29-cn30 cn32-cn35 cn37 
            cn41 cn42 cn45 ch1-ch6 ch9 ch10 ch13 ch16-ch20 
            ch25-ch29 ch32 ch34 ch35 ch37-ch40 ch43-ch45;
            USEVARIABLES ARE mt1 mt2 mt6 mt10 mt20-mt22 mt27 mt29
             mt34 mt38 mt40-mt44 l1-l8 l10-l12 l14-l16 l19 l25 
            l26 l28 l29 l31 l35-l37 l40 l41 l45 cn2 cn3 cn6-cn8
             cn10 cn16 cn18-cn20 cn24-cn27 cn29-cn30 cn32-cn35 
             cn37 cn41 cn42 cn45 ch1-ch6 ch9 ch10 ch13 ch16-ch20 
            ch25-ch29 ch32 ch34 ch35 ch37-ch40 ch43-ch45;
MODEL:
          MT BY mt1 mt2 mt6 mt10 mt20-mt22 mt27 mt29 mt34 mt38 mt40-mt44;
          L BY l1-l8 l10-l12 l14-l16 l19 l25 
            l26 l28 l29 l31 l35-l37 l40 l41 l45;
          CN BY cn2 cn3 cn6-cn8 cn10 cn16 cn18-cn20 
            cn24-cn27 cn29-cn30 cn32-cn35 cn37 cn41 cn42 cn45;
          CH BY ch1-ch6 ch9 ch10 ch13 ch16-ch20 
            ch25-ch29 ch32 ch34 ch35 ch37-ch40 ch43-ch45;
            GERAL BY mt1 mt2 mt6 mt10 mt20-mt22 mt27 mt29
             mt34 mt38 mt40-mt44 l1-l8 l10-l12 l14-l16 l19 l25 
            l26 l28 l29 l31 l35-l37 l40 l41 l45 cn2 cn3 cn6-cn8 
            cn10 cn16 cn18-cn20 cn24-cn27 cn29-cn30 cn32-cn35 cn37 
            cn41 cn42 cn45 ch1-ch6 ch9 ch10 ch13 ch16-ch20 
            ch25-ch29 ch32 ch34 ch35 ch37-ch40 ch43-ch45;
            GERAL WITH MT@0;
            GERAL WITH L@0;
            GERAL WITH CN@0;
            GERAL WITH CH@0;
            MT WITH L@0;
            MT WITH CN@0;
            MT WITH CH@0;
            L WITH CN@0;
            L WITH CH@0;
            CN WITH CH@0;

OUTPUT: STANDARDIZED;







