Mplus VERSION 5.2
MUTHEN & MUTHEN
06/10/2013  11:14 AM

INPUT INSTRUCTIONS

  TITLE:        ENEM 2011
  DATA:        FILE IS DATA.txt;
  VARIABLE:        NAMES ARE mt1-mt45,cn1-cn45,ch1-ch45,l1-l45;
                  CATEGORICAL ARE mt1 mt2 mt6 mt10 mt20-mt22 mt27 mt29
               mt34 mt38 mt40-mt44 l1-l8 l10-l12 l14-l16 l19 l25
              l26 l28 l29 l31 l35-l37 l40 l41 l45 cn2 cn3 cn6-cn8
              cn10 cn16 cn18-cn20 cn24-cn27 cn29-cn30 cn32-cn35 cn37
              cn41 cn42 cn45 ch1-ch6 ch9 ch10 ch13 ch16-ch20
              ch25-ch29 ch32 ch34 ch35 ch37-ch40 ch43-ch45;
              USEVARIABLES ARE mt1 mt2 mt6 mt10 mt20-mt22 mt27 mt29
               mt34 mt38 mt40-mt44 l1-l8 l10-l12 l14-l16 l19 l25
              l26 l28 l29 l31 l35-l37 l40 l41 l45 cn2 cn3 cn6-cn8
               cn10 cn16 cn18-cn20 cn24-cn27 cn29-cn30 cn32-cn35
               cn37 cn41 cn42 cn45 ch1-ch6 ch9 ch10 ch13 ch16-ch20
              ch25-ch29 ch32 ch34 ch35 ch37-ch40 ch43-ch45;
  MODEL:
            MT BY mt29 mt38 mt40 mt44;
            L BY l1-l8 l10-l12 l14-l16 l19 l25
              l26 l28 l29 l31 l35-l37 l40 l41 l45 mt1
              mt2 mt6 mt20 mt21 mt22 mt27 mt34 mt40 mt41 mt42 mt43 cn42 cn45;
            CN BY cn2 cn6 cn16 cn20 cn42;
            CH BY ch4-ch6 ch9 ch10 ch13 ch16-ch19
              ch25 ch27-ch29 ch32 ch34 ch37-ch40 ch43
              ch44 cn6 l4 l8 cn30;
              GERAL BY mt1 mt2 mt6 mt10 mt20-mt22 mt27 mt29
               mt34 mt38 mt40-mt44 l1-l8 l10-l12 l14-l16 l19 l25
              l26 l28 l29 l31 l35-l37 l40 l41 l45 cn2 cn3 cn6-cn8
              cn10 cn16 cn18-cn20 cn24-cn27 cn29-cn30 cn32-cn35 cn37
              cn41 cn42 cn45 ch1-ch6 ch9 ch10 ch13 ch16-ch20
              ch25-ch29 ch32 ch34 ch35 ch37-ch40 ch43-ch45;
              GERAL WITH MT@0;
              GERAL WITH L@0;
              GERAL WITH CN@0;
              GERAL WITH CH@0;
              MT WITH L@0;
              MT WITH CN@0;
              MT WITH CH@0;
              L WITH CN@0;
              L WITH CH@0;
              CN WITH CH@0;


  OUTPUT: STANDARDIZED;
          MODINDICES (2000);











INPUT READING TERMINATED NORMALLY



ENEM 2011

SUMMARY OF ANALYSIS

Number of groups                                                 1
Number of observations                                      169803

Number of dependent variables                                   95
Number of independent variables                                  0
Number of continuous latent variables                            5

Observed dependent variables

  Binary and ordered categorical (ordinal)
   MT1         MT2         MT6         MT10        MT20        MT21
   MT22        MT27        MT29        MT34        MT38        MT40
   MT41        MT42        MT43        MT44        L1          L2
   L3          L4          L5          L6          L7          L8
   L10         L11         L12         L14         L15         L16
   L19         L25         L26         L28         L29         L31
   L35         L36         L37         L40         L41         L45
   CN2         CN3         CN6         CN7         CN8         CN10
   CN16        CN18        CN19        CN20        CN24        CN25
   CN26        CN27        CN29        CN30        CN32        CN33
   CN34        CN35        CN37        CN41        CN42        CN45
   CH1         CH2         CH3         CH4         CH5         CH6
   CH9         CH10        CH13        CH16        CH17        CH18
   CH19        CH20        CH25        CH26        CH27        CH28
   CH29        CH32        CH34        CH35        CH37        CH38
   CH39        CH40        CH43        CH44        CH45

Continuous latent variables
   MT          L           CN          CH          GERAL


Estimator                                                    WLSMV
Maximum number of iterations                                  1000
Convergence criterion                                    0.500D-04
Maximum number of steepest descent iterations                   20
Parameterization                                             DELTA

Input data file(s)
  DATA.txt

Input data format  FREE


SUMMARY OF CATEGORICAL DATA PROPORTIONS

    MT1
      Category 1    0.518
      Category 2    0.482
    MT2
      Category 1    0.693
      Category 2    0.307
    MT6
      Category 1    0.570
      Category 2    0.430
    MT10
      Category 1    0.511
      Category 2    0.489
    MT20
      Category 1    0.618
      Category 2    0.382
    MT21
      Category 1    0.731
      Category 2    0.269
    MT22
      Category 1    0.679
      Category 2    0.321
    MT27
      Category 1    0.481
      Category 2    0.519
    MT29
      Category 1    0.475
      Category 2    0.525
    MT34
      Category 1    0.599
      Category 2    0.401
    MT38
      Category 1    0.322
      Category 2    0.678
    MT40
      Category 1    0.384
      Category 2    0.616
    MT41
      Category 1    0.570
      Category 2    0.430
    MT42
      Category 1    0.723
      Category 2    0.277
    MT43
      Category 1    0.532
      Category 2    0.468
    MT44
      Category 1    0.119
      Category 2    0.881
    L1
      Category 1    0.424
      Category 2    0.576
    L2
      Category 1    0.530
      Category 2    0.470
    L3
      Category 1    0.361
      Category 2    0.639
    L4
      Category 1    0.872
      Category 2    0.128
    L5
      Category 1    0.510
      Category 2    0.490
    L6
      Category 1    0.662
      Category 2    0.338
    L7
      Category 1    0.644
      Category 2    0.356
    L8
      Category 1    0.874
      Category 2    0.126
    L10
      Category 1    0.762
      Category 2    0.238
    L11
      Category 1    0.550
      Category 2    0.450
    L12
      Category 1    0.702
      Category 2    0.298
    L14
      Category 1    0.518
      Category 2    0.482
    L15
      Category 1    0.590
      Category 2    0.410
    L16
      Category 1    0.518
      Category 2    0.482
    L19
      Category 1    0.767
      Category 2    0.233
    L25
      Category 1    0.708
      Category 2    0.292
    L26
      Category 1    0.538
      Category 2    0.462
    L28
      Category 1    0.644
      Category 2    0.356
    L29
      Category 1    0.675
      Category 2    0.325
    L31
      Category 1    0.709
      Category 2    0.291
    L35
      Category 1    0.646
      Category 2    0.354
    L36
      Category 1    0.570
      Category 2    0.430
    L37
      Category 1    0.500
      Category 2    0.500
    L40
      Category 1    0.439
      Category 2    0.561
    L41
      Category 1    0.432
      Category 2    0.568
    L45
      Category 1    0.650
      Category 2    0.350
    CN2
      Category 1    0.477
      Category 2    0.523
    CN3
      Category 1    0.221
      Category 2    0.779
    CN6
      Category 1    0.756
      Category 2    0.244
    CN7
      Category 1    0.326
      Category 2    0.674
    CN8
      Category 1    0.102
      Category 2    0.898
    CN10
      Category 1    0.435
      Category 2    0.565
    CN16
      Category 1    0.453
      Category 2    0.547
    CN18
      Category 1    0.667
      Category 2    0.333
    CN19
      Category 1    0.372
      Category 2    0.628
    CN20
      Category 1    0.643
      Category 2    0.357
    CN24
      Category 1    0.506
      Category 2    0.494
    CN25
      Category 1    0.465
      Category 2    0.535
    CN26
      Category 1    0.576
      Category 2    0.424
    CN27
      Category 1    0.441
      Category 2    0.559
    CN29
      Category 1    0.596
      Category 2    0.404
    CN30
      Category 1    0.304
      Category 2    0.696
    CN32
      Category 1    0.271
      Category 2    0.729
    CN33
      Category 1    0.631
      Category 2    0.369
    CN34
      Category 1    0.666
      Category 2    0.334
    CN35
      Category 1    0.581
      Category 2    0.419
    CN37
      Category 1    0.489
      Category 2    0.511
    CN41
      Category 1    0.548
      Category 2    0.452
    CN42
      Category 1    0.798
      Category 2    0.202
    CN45
      Category 1    0.484
      Category 2    0.516
    CH1
      Category 1    0.500
      Category 2    0.500
    CH2
      Category 1    0.512
      Category 2    0.488
    CH3
      Category 1    0.500
      Category 2    0.500
    CH4
      Category 1    0.422
      Category 2    0.578
    CH5
      Category 1    0.409
      Category 2    0.591
    CH6
      Category 1    0.509
      Category 2    0.491
    CH9
      Category 1    0.233
      Category 2    0.767
    CH10
      Category 1    0.254
      Category 2    0.746
    CH13
      Category 1    0.433
      Category 2    0.567
    CH16
      Category 1    0.228
      Category 2    0.772
    CH17
      Category 1    0.380
      Category 2    0.620
    CH18
      Category 1    0.404
      Category 2    0.596
    CH19
      Category 1    0.460
      Category 2    0.540
    CH20
      Category 1    0.396
      Category 2    0.604
    CH25
      Category 1    0.378
      Category 2    0.622
    CH26
      Category 1    0.610
      Category 2    0.390
    CH27
      Category 1    0.350
      Category 2    0.650
    CH28
      Category 1    0.527
      Category 2    0.473
    CH29
      Category 1    0.526
      Category 2    0.474
    CH32
      Category 1    0.486
      Category 2    0.514
    CH34
      Category 1    0.367
      Category 2    0.633
    CH35
      Category 1    0.646
      Category 2    0.354
    CH37
      Category 1    0.374
      Category 2    0.626
    CH38
      Category 1    0.479
      Category 2    0.521
    CH39
      Category 1    0.568
      Category 2    0.432
    CH40
      Category 1    0.350
      Category 2    0.650
    CH43
      Category 1    0.542
      Category 2    0.458
    CH44
      Category 1    0.413
      Category 2    0.587
    CH45
      Category 1    0.492
      Category 2    0.508



THE MODEL ESTIMATION TERMINATED NORMALLY



TESTS OF MODEL FIT

Chi-Square Test of Model Fit

          Value                         166893.898*
          Degrees of Freedom                  3823**
          P-Value                           0.0000

*   The chi-square value for MLM, MLMV, MLR, ULSMV, WLSM and WLSMV cannot be used
    for chi-square difference tests.  MLM, MLR and WLSM chi-square difference
    testing is described in the Mplus Technical Appendices at www.statmodel.com.
    See chi-square difference testing in the index of the Mplus User's Guide.

**  The degrees of freedom for MLMV, ULSMV and WLSMV are estimated according to
    a formula given in the Mplus Technical Appendices at www.statmodel.com.
    See degrees of freedom in the index of the Mplus User's Guide.

Chi-Square Test of Model Fit for the Baseline Model

          Value                         **********
          Degrees of Freedom                   594
          P-Value                           0.0000

CFI/TLI

          CFI                                0.930
          TLI                                0.989

Number of Free Parameters                      265

RMSEA (Root Mean Square Error Of Approximation)

          Estimate                           0.016

WRMR (Weighted Root Mean Square Residual)

          Value                              5.560



MODEL RESULTS

                                                    Two-Tailed
                    Estimate       S.E.  Est./S.E.    P-Value

 MT       BY
    MT29               1.000      0.000    999.000    999.000
    MT38               2.173      0.073     29.706      0.000
    MT40               1.804      0.062     29.256      0.000
    MT44               3.057      0.104     29.373      0.000

 L        BY
    L1                 1.000      0.000    999.000    999.000
    L2                 1.172      0.015     80.658      0.000
    L3                 0.990      0.013     76.149      0.000
    L4                 0.842      0.017     49.827      0.000
    L5                 0.691      0.012     57.121      0.000
    L6                 1.148      0.015     75.270      0.000
    L7                 0.923      0.014     65.001      0.000
    L8                 0.808      0.017     47.889      0.000
    L10                1.275      0.017     74.329      0.000
    L11                1.166      0.015     78.483      0.000
    L12                0.943      0.015     63.150      0.000
    L14                1.281      0.015     84.183      0.000
    L15                1.303      0.016     82.665      0.000
    L16                1.162      0.015     77.881      0.000
    L19                0.969      0.016     61.002      0.000
    L25                0.998      0.015     64.498      0.000
    L26                1.144      0.015     76.307      0.000
    L28                1.165      0.016     73.952      0.000
    L29                0.996      0.015     66.284      0.000
    L31                1.164      0.016     71.977      0.000
    L35                1.139      0.016     73.227      0.000
    L36                0.912      0.014     65.104      0.000
    L37                1.256      0.015     81.239      0.000
    L40                1.181      0.015     77.757      0.000
    L41                1.119      0.015     76.539      0.000
    L45                1.096      0.015     71.578      0.000
    MT1                0.491      0.011     43.173      0.000
    MT2                0.671      0.013     50.349      0.000
    MT6                0.415      0.012     35.558      0.000
    MT20               0.342      0.012     28.671      0.000
    MT21               0.657      0.013     49.553      0.000
    MT22               0.457      0.012     36.850      0.000
    MT27               0.369      0.011     32.704      0.000
    MT34               0.501      0.012     41.251      0.000
    MT40               0.389      0.011     36.070      0.000
    MT41               0.583      0.012     46.886      0.000
    MT42               0.562      0.013     42.447      0.000
    MT43               0.493      0.012     42.343      0.000
    CN42               0.467      0.014     33.786      0.000
    CN45               0.321      0.011     29.901      0.000

 CN       BY
    CN2                1.000      0.000    999.000    999.000
    CN6                1.496      0.098     15.280      0.000
    CN16               1.093      0.077     14.270      0.000
    CN20               1.219      0.082     14.912      0.000
    CN42               2.037      0.138     14.731      0.000

 CH       BY
    CH4                1.000      0.000    999.000    999.000
    CH5                0.789      0.033     23.889      0.000
    CH6                1.252      0.046     27.456      0.000
    CH9                2.436      0.075     32.576      0.000
    CH10               1.665      0.055     30.090      0.000
    CH13               1.730      0.056     30.981      0.000
    CH16               2.012      0.066     30.359      0.000
    CH17               1.066      0.042     25.553      0.000
    CH18               0.939      0.040     23.600      0.000
    CH19               1.409      0.049     28.791      0.000
    CH25               1.613      0.055     29.492      0.000
    CH27               2.666      0.082     32.612      0.000
    CH28               1.835      0.060     30.662      0.000
    CH29               1.654      0.055     30.065      0.000
    CH32               1.712      0.056     30.325      0.000
    CH34               2.028      0.064     31.554      0.000
    CH37               1.653      0.056     29.765      0.000
    CH38               1.424      0.049     29.124      0.000
    CH39               1.265      0.046     27.342      0.000
    CH40               2.014      0.064     31.474      0.000
    CH43               0.819      0.038     21.832      0.000
    CH44               1.700      0.056     30.247      0.000
    CN6               -1.595      0.057    -27.798      0.000
    L4                -0.961      0.046    -21.011      0.000
    L8                -1.044      0.048    -21.932      0.000
    CN30               0.880      0.039     22.794      0.000

 GERAL    BY
    MT1                1.000      0.000    999.000    999.000
    MT2                0.795      0.007    117.023      0.000
    MT6                0.849      0.006    133.100      0.000
    MT10               1.039      0.007    153.543      0.000
    MT20               0.749      0.006    116.275      0.000
    MT21               0.968      0.007    135.207      0.000
    MT22               0.855      0.007    124.323      0.000
    MT27               0.882      0.006    140.304      0.000
    MT29               0.789      0.006    122.098      0.000
    MT34               0.816      0.006    126.600      0.000
    MT38               0.824      0.006    130.202      0.000
    MT40               1.075      0.007    162.742      0.000
    MT41               0.718      0.006    114.974      0.000
    MT42               0.813      0.007    117.896      0.000
    MT43               0.887      0.006    139.467      0.000
    MT44               0.896      0.007    128.227      0.000
    L1                 0.844      0.006    136.321      0.000
    L2                 0.882      0.006    139.406      0.000
    L3                 0.913      0.006    145.653      0.000
    L4                 0.601      0.009     68.557      0.000
    L5                 0.943      0.006    146.208      0.000
    L6                 0.827      0.007    124.511      0.000
    L7                 0.653      0.006    101.734      0.000
    L8                 0.604      0.009     69.404      0.000
    L10                0.752      0.007    104.492      0.000
    L11                0.777      0.006    123.777      0.000
    L12                0.556      0.007     83.662      0.000
    L14                0.940      0.006    146.201      0.000
    L15                0.896      0.006    139.264      0.000
    L16                0.758      0.006    122.466      0.000
    L19                0.519      0.007     74.153      0.000
    L25                0.509      0.007     76.812      0.000
    L26                0.770      0.006    122.574      0.000
    L28                0.615      0.006     96.290      0.000
    L29                0.534      0.006     82.546      0.000
    L31                0.647      0.007     96.512      0.000
    L35                0.646      0.006    101.114      0.000
    L36                0.631      0.006    101.500      0.000
    L37                0.784      0.006    126.362      0.000
    L40                0.681      0.006    111.960      0.000
    L41                0.782      0.006    126.504      0.000
    L45                0.696      0.006    108.064      0.000
    CN2                0.808      0.006    126.619      0.000
    CN3                1.183      0.007    173.290      0.000
    CN6                0.793      0.007    106.342      0.000
    CN7                0.930      0.006    145.097      0.000
    CN8                0.843      0.008    111.479      0.000
    CN10               0.922      0.006    144.268      0.000
    CN16               0.913      0.006    144.215      0.000
    CN18               0.788      0.007    116.303      0.000
    CN19               0.899      0.006    139.211      0.000
    CN20               1.055      0.007    149.700      0.000
    CN24               0.862      0.006    136.030      0.000
    CN25               1.006      0.007    153.405      0.000
    CN26               0.876      0.007    133.227      0.000
    CN27               1.238      0.007    177.968      0.000
    CN29               1.064      0.007    154.984      0.000
    CN30               0.845      0.006    133.158      0.000
    CN32               0.730      0.006    116.704      0.000
    CN33               1.339      0.008    177.706      0.000
    CN34               0.830      0.007    122.261      0.000
    CN35               0.865      0.007    131.006      0.000
    CN37               1.093      0.007    163.985      0.000
    CN41               1.075      0.007    158.478      0.000
    CN42               0.912      0.008    116.504      0.000
    CN45               1.069      0.007    163.666      0.000
    CH1                0.908      0.006    142.182      0.000
    CH2                0.982      0.007    150.947      0.000
    CH3                1.044      0.007    159.398      0.000
    CH4                0.822      0.006    127.473      0.000
    CH5                0.925      0.006    146.008      0.000
    CH6                0.751      0.006    117.385      0.000
    CH9                1.113      0.007    165.997      0.000
    CH10               1.061      0.007    157.938      0.000
    CH13               1.078      0.007    163.555      0.000
    CH16               0.687      0.006    106.847      0.000
    CH17               0.892      0.006    141.845      0.000
    CH18               0.747      0.006    118.515      0.000
    CH19               0.944      0.006    145.232      0.000
    CH20               0.815      0.006    130.375      0.000
    CH25               0.694      0.006    111.526      0.000
    CH26               1.052      0.007    153.545      0.000
    CH27               0.894      0.006    142.274      0.000
    CH28               0.834      0.007    127.551      0.000
    CH29               0.894      0.007    137.425      0.000
    CH32               0.898      0.006    139.074      0.000
    CH34               0.969      0.006    149.831      0.000
    CH35               0.907      0.007    133.094      0.000
    CH37               0.823      0.006    131.816      0.000
    CH38               1.045      0.007    156.825      0.000
    CH39               0.869      0.007    132.509      0.000
    CH40               1.052      0.007    159.684      0.000
    CH43               0.731      0.007    111.820      0.000
    CH44               0.824      0.006    129.733      0.000
    CH45               0.732      0.006    117.601      0.000

 GERAL    WITH
    MT                 0.000      0.000    999.000    999.000
    L                  0.000      0.000    999.000    999.000
    CN                 0.000      0.000    999.000    999.000
    CH                 0.000      0.000    999.000    999.000

 MT       WITH
    L                  0.000      0.000    999.000    999.000
    CN                 0.000      0.000    999.000    999.000
    CH                 0.000      0.000    999.000    999.000

 L        WITH
    CN                 0.000      0.000    999.000    999.000
    CH                 0.000      0.000    999.000    999.000

 CN       WITH
    CH                 0.000      0.000    999.000    999.000

 Thresholds
    MT1$1              0.044      0.003     14.514      0.000
    MT2$1              0.505      0.003    158.381      0.000
    MT6$1              0.176      0.003     57.640      0.000
    MT10$1             0.029      0.003      9.423      0.000
    MT20$1             0.301      0.003     97.330      0.000
    MT21$1             0.616      0.003    188.991      0.000
    MT22$1             0.464      0.003    146.589      0.000
    MT27$1            -0.049      0.003    -16.062      0.000
    MT29$1            -0.062      0.003    -20.459      0.000
    MT34$1             0.252      0.003     81.876      0.000
    MT38$1            -0.462      0.003   -146.197      0.000
    MT40$1            -0.296      0.003    -95.741      0.000
    MT41$1             0.177      0.003     57.868      0.000
    MT42$1             0.593      0.003    182.663      0.000
    MT43$1             0.080      0.003     26.364      0.000
    MT44$1            -1.179      0.004   -298.479      0.000
    L1$1              -0.192      0.003    -62.616      0.000
    L2$1               0.074      0.003     24.336      0.000
    L3$1              -0.356      0.003   -114.357      0.000
    L4$1               1.137      0.004    293.361      0.000
    L5$1               0.025      0.003      8.190      0.000
    L6$1               0.418      0.003    132.985      0.000
    L7$1               0.369      0.003    118.487      0.000
    L8$1               1.148      0.004    294.740      0.000
    L10$1              0.713      0.003    213.387      0.000
    L11$1              0.127      0.003     41.548      0.000
    L12$1              0.529      0.003    165.282      0.000
    L14$1              0.045      0.003     14.878      0.000
    L15$1              0.228      0.003     74.220      0.000
    L16$1              0.046      0.003     15.038      0.000
    L19$1              0.730      0.003    217.571      0.000
    L25$1              0.546      0.003    170.023      0.000
    L26$1              0.095      0.003     31.133      0.000
    L28$1              0.370      0.003    118.735      0.000
    L29$1              0.453      0.003    143.359      0.000
    L31$1              0.552      0.003    171.604      0.000
    L35$1              0.374      0.003    119.920      0.000
    L36$1              0.177      0.003     57.863      0.000
    L37$1              0.001      0.003      0.332      0.740
    L40$1             -0.154      0.003    -50.504      0.000
    L41$1             -0.172      0.003    -56.127      0.000
    L45$1              0.384      0.003    122.908      0.000
    CN2$1             -0.058      0.003    -19.163      0.000
    CN3$1             -0.768      0.003   -226.462      0.000
    CN6$1              0.694      0.003    208.805      0.000
    CN7$1             -0.451      0.003   -142.917      0.000
    CN8$1             -1.268      0.004   -307.758      0.000
    CN10$1            -0.164      0.003    -53.801      0.000
    CN16$1            -0.118      0.003    -38.555      0.000
    CN18$1             0.432      0.003    137.404      0.000
    CN19$1            -0.327      0.003   -105.286      0.000
    CN20$1             0.366      0.003    117.373      0.000
    CN24$1             0.016      0.003      5.302      0.000
    CN25$1            -0.088      0.003    -28.882      0.000
    CN26$1             0.192      0.003     62.548      0.000
    CN27$1            -0.149      0.003    -48.720      0.000
    CN29$1             0.242      0.003     78.697      0.000
    CN30$1            -0.514      0.003   -160.958      0.000
    CN32$1            -0.610      0.003   -187.326      0.000
    CN33$1             0.335      0.003    107.912      0.000
    CN34$1             0.430      0.003    136.599      0.000
    CN35$1             0.205      0.003     66.782      0.000
    CN37$1            -0.027      0.003     -8.831      0.000
    CN41$1             0.119      0.003     39.176      0.000
    CN42$1             0.834      0.003    241.192      0.000
    CN45$1            -0.039      0.003    -12.893      0.000
    CH1$1             -0.001      0.003     -0.396      0.692
    CH2$1              0.030      0.003      9.894      0.000
    CH3$1             -0.001      0.003     -0.386      0.700
    CH4$1             -0.196      0.003    -64.147      0.000
    CH5$1             -0.231      0.003    -75.299      0.000
    CH6$1              0.022      0.003      7.317      0.000
    CH9$1             -0.727      0.003   -216.970      0.000
    CH10$1            -0.662      0.003   -200.940      0.000
    CH13$1            -0.169      0.003    -55.226      0.000
    CH16$1            -0.746      0.003   -221.333      0.000
    CH17$1            -0.307      0.003    -99.089      0.000
    CH18$1            -0.243      0.003    -78.919      0.000
    CH19$1            -0.100      0.003    -32.812      0.000
    CH20$1            -0.265      0.003    -86.011      0.000
    CH25$1            -0.310      0.003   -100.122      0.000
    CH26$1             0.280      0.003     90.623      0.000
    CH27$1            -0.384      0.003   -122.943      0.000
    CH28$1             0.067      0.003     21.851      0.000
    CH29$1             0.065      0.003     21.284      0.000
    CH32$1            -0.035      0.003    -11.588      0.000
    CH34$1            -0.339      0.003   -109.098      0.000
    CH35$1             0.373      0.003    119.714      0.000
    CH37$1            -0.322      0.003   -103.945      0.000
    CH38$1            -0.052      0.003    -16.984      0.000
    CH39$1             0.171      0.003     55.773      0.000
    CH40$1            -0.386      0.003   -123.631      0.000
    CH43$1             0.105      0.003     34.524      0.000
    CH44$1            -0.221      0.003    -72.022      0.000
    CH45$1            -0.019      0.003     -6.404      0.000

 Variances
    MT                 0.036      0.002     17.084      0.000
    L                  0.105      0.002     50.048      0.000
    CN                 0.025      0.003      9.690      0.000
    CH                 0.023      0.001     17.395      0.000
    GERAL              0.290      0.003    103.505      0.000


STANDARDIZED MODEL RESULTS


STDYX Standardization

                                                    Two-Tailed
                    Estimate       S.E.  Est./S.E.    P-Value

 MT       BY
    MT29               0.189      0.006     34.168      0.000
    MT38               0.410      0.006     63.518      0.000
    MT40               0.340      0.006     59.289      0.000
    MT44               0.577      0.009     65.472      0.000

 L        BY
    L1                 0.323      0.003    100.096      0.000
    L2                 0.379      0.003    118.566      0.000
    L3                 0.320      0.003     99.604      0.000
    L4                 0.272      0.005     57.968      0.000
    L5                 0.223      0.003     65.858      0.000
    L6                 0.371      0.003    107.208      0.000
    L7                 0.299      0.004     82.122      0.000
    L8                 0.261      0.005     54.411      0.000
    L10                0.412      0.004    108.828      0.000
    L11                0.377      0.003    114.131      0.000
    L12                0.305      0.004     80.440      0.000
    L14                0.414      0.003    133.357      0.000
    L15                0.421      0.003    131.446      0.000
    L16                0.376      0.003    115.811      0.000
    L19                0.313      0.004     75.961      0.000
    L25                0.323      0.004     84.446      0.000
    L26                0.370      0.003    111.184      0.000
    L28                0.377      0.004    106.178      0.000
    L29                0.322      0.004     86.712      0.000
    L31                0.376      0.004    102.745      0.000
    L35                0.368      0.004    103.343      0.000
    L36                0.295      0.004     84.091      0.000
    L37                0.406      0.003    127.679      0.000
    L40                0.382      0.003    117.000      0.000
    L41                0.362      0.003    111.436      0.000
    L45                0.355      0.004    100.322      0.000
    MT1                0.159      0.003     47.046      0.000
    MT2                0.217      0.004     57.939      0.000
    MT6                0.134      0.004     37.729      0.000
    MT20               0.111      0.004     29.841      0.000
    MT21               0.213      0.004     56.408      0.000
    MT22               0.148      0.004     39.353      0.000
    MT27               0.119      0.003     34.256      0.000
    MT34               0.162      0.004     44.751      0.000
    MT40               0.126      0.003     37.945      0.000
    MT41               0.188      0.004     52.482      0.000
    MT42               0.182      0.004     46.425      0.000
    MT43               0.160      0.003     45.852      0.000
    CN42               0.151      0.004     36.033      0.000
    CN45               0.104      0.003     30.951      0.000

 CN       BY
    CN2                0.159      0.008     19.381      0.000
    CN6                0.239      0.009     25.195      0.000
    CN16               0.174      0.008     21.392      0.000
    CN20               0.194      0.008     23.752      0.000
    CN42               0.325      0.012     27.463      0.000

 CH       BY
    CH4                0.152      0.004     34.790      0.000
    CH5                0.120      0.004     27.990      0.000
    CH6                0.191      0.004     43.213      0.000
    CH9                0.371      0.004     86.820      0.000
    CH10               0.254      0.004     57.344      0.000
    CH13               0.264      0.004     65.776      0.000
    CH16               0.307      0.005     62.219      0.000
    CH17               0.162      0.004     37.057      0.000
    CH18               0.143      0.004     31.942      0.000
    CH19               0.215      0.004     51.088      0.000
    CH25               0.246      0.004     55.032      0.000
    CH27               0.406      0.004     97.064      0.000
    CH28               0.280      0.004     65.485      0.000
    CH29               0.252      0.004     58.910      0.000
    CH32               0.261      0.004     61.638      0.000
    CH34               0.309      0.004     73.903      0.000
    CH37               0.252      0.004     57.501      0.000
    CH38               0.217      0.004     52.038      0.000
    CH39               0.193      0.004     43.911      0.000
    CH40               0.307      0.004     73.595      0.000
    CH43               0.125      0.004     27.790      0.000
    CH44               0.259      0.004     60.207      0.000
    CN6               -0.243      0.005    -47.143      0.000
    L4                -0.146      0.006    -26.353      0.000
    L8                -0.159      0.006    -28.266      0.000
    CN30               0.134      0.004     29.894      0.000

 GERAL    BY
    MT1                0.539      0.003    207.010      0.000
    MT2                0.428      0.003    132.043      0.000
    MT6                0.457      0.003    161.189      0.000
    MT10               0.560      0.003    217.753      0.000
    MT20               0.404      0.003    133.558      0.000
    MT21               0.522      0.003    163.609      0.000
    MT22               0.461      0.003    147.863      0.000
    MT27               0.475      0.003    175.642      0.000
    MT29               0.425      0.003    148.690      0.000
    MT34               0.439      0.003    150.219      0.000
    MT38               0.444      0.003    159.750      0.000
    MT40               0.579      0.002    238.891      0.000
    MT41               0.387      0.003    129.901      0.000
    MT42               0.438      0.003    134.254      0.000
    MT43               0.478      0.003    173.950      0.000
    MT44               0.483      0.003    159.833      0.000
    L1                 0.455      0.003    167.291      0.000
    L2                 0.475      0.003    172.089      0.000
    L3                 0.492      0.003    186.673      0.000
    L4                 0.324      0.005     70.745      0.000
    L5                 0.508      0.003    189.957      0.000
    L6                 0.445      0.003    144.472      0.000
    L7                 0.352      0.003    111.491      0.000
    L8                 0.325      0.005     71.959      0.000
    L10                0.405      0.004    114.910      0.000
    L11                0.419      0.003    144.673      0.000
    L12                0.300      0.003     88.106      0.000
    L14                0.506      0.003    189.034      0.000
    L15                0.483      0.003    170.171      0.000
    L16                0.408      0.003    141.984      0.000
    L19                0.280      0.004     77.115      0.000
    L25                0.274      0.003     80.260      0.000
    L26                0.415      0.003    143.531      0.000
    L28                0.331      0.003    104.148      0.000
    L29                0.288      0.003     86.609      0.000
    L31                0.349      0.003    103.384      0.000
    L35                0.348      0.003    111.288      0.000
    L36                0.340      0.003    112.091      0.000
    L37                0.422      0.003    148.584      0.000
    L40                0.367      0.003    125.813      0.000
    L41                0.421      0.003    149.048      0.000
    L45                0.375      0.003    120.029      0.000
    CN2                0.435      0.003    155.055      0.000
    CN3                0.637      0.002    295.083      0.000
    CN6                0.427      0.004    119.612      0.000
    CN7                0.501      0.003    193.130      0.000
    CN8                0.454      0.003    131.043      0.000
    CN10               0.496      0.003    190.081      0.000
    CN16               0.492      0.003    188.422      0.000
    CN18               0.424      0.003    136.262      0.000
    CN19               0.484      0.003    180.262      0.000
    CN20               0.568      0.003    205.452      0.000
    CN24               0.464      0.003    170.267      0.000
    CN25               0.542      0.003    214.929      0.000
    CN26               0.472      0.003    166.599      0.000
    CN27               0.667      0.002    312.328      0.000
    CN29               0.573      0.003    217.029      0.000
    CN30               0.455      0.003    166.016      0.000
    CN32               0.393      0.003    136.740      0.000
    CN33               0.721      0.002    309.374      0.000
    CN34               0.447      0.003    145.488      0.000
    CN35               0.466      0.003    163.191      0.000
    CN37               0.589      0.002    244.623      0.000
    CN41               0.579      0.003    229.049      0.000
    CN42               0.491      0.004    133.898      0.000
    CN45               0.576      0.002    233.547      0.000
    CH1                0.489      0.003    184.313      0.000
    CH2                0.529      0.003    205.082      0.000
    CH3                0.562      0.002    227.377      0.000
    CH4                0.443      0.003    157.155      0.000
    CH5                0.498      0.003    193.820      0.000
    CH6                0.405      0.003    138.640      0.000
    CH9                0.599      0.002    260.626      0.000
    CH10               0.572      0.002    233.084      0.000
    CH13               0.581      0.002    245.618      0.000
    CH16               0.370      0.003    122.145      0.000
    CH17               0.481      0.003    184.025      0.000
    CH18               0.403      0.003    141.546      0.000
    CH19               0.508      0.003    193.579      0.000
    CH20               0.439      0.003    161.775      0.000
    CH25               0.374      0.003    128.763      0.000
    CH26               0.567      0.003    211.148      0.000
    CH27               0.482      0.003    185.864      0.000
    CH28               0.449      0.003    157.686      0.000
    CH29               0.482      0.003    174.623      0.000
    CH32               0.484      0.003    179.203      0.000
    CH34               0.522      0.003    205.155      0.000
    CH35               0.489      0.003    166.347      0.000
    CH37               0.443      0.003    163.685      0.000
    CH38               0.563      0.003    224.612      0.000
    CH39               0.468      0.003    164.697      0.000
    CH40               0.567      0.002    235.345      0.000
    CH43               0.394      0.003    131.667      0.000
    CH44               0.444      0.003    160.306      0.000
    CH45               0.395      0.003    138.735      0.000

 GERAL    WITH
    MT                 0.000      0.000    999.000    999.000
    L                  0.000      0.000    999.000    999.000
    CN                 0.000      0.000    999.000    999.000
    CH                 0.000      0.000    999.000    999.000

 MT       WITH
    L                  0.000      0.000    999.000    999.000
    CN                 0.000      0.000    999.000    999.000
    CH                 0.000      0.000    999.000    999.000

 L        WITH
    CN                 0.000      0.000    999.000    999.000
    CH                 0.000      0.000    999.000    999.000

 CN       WITH
    CH                 0.000      0.000    999.000    999.000

 Thresholds
    MT1$1              0.044      0.003     14.514      0.000
    MT2$1              0.505      0.003    158.381      0.000
    MT6$1              0.176      0.003     57.640      0.000
    MT10$1             0.029      0.003      9.423      0.000
    MT20$1             0.301      0.003     97.330      0.000
    MT21$1             0.616      0.003    188.991      0.000
    MT22$1             0.464      0.003    146.589      0.000
    MT27$1            -0.049      0.003    -16.062      0.000
    MT29$1            -0.062      0.003    -20.459      0.000
    MT34$1             0.252      0.003     81.876      0.000
    MT38$1            -0.462      0.003   -146.197      0.000
    MT40$1            -0.296      0.003    -95.741      0.000
    MT41$1             0.177      0.003     57.868      0.000
    MT42$1             0.593      0.003    182.663      0.000
    MT43$1             0.080      0.003     26.364      0.000
    MT44$1            -1.179      0.004   -298.479      0.000
    L1$1              -0.192      0.003    -62.616      0.000
    L2$1               0.074      0.003     24.336      0.000
    L3$1              -0.356      0.003   -114.357      0.000
    L4$1               1.137      0.004    293.361      0.000
    L5$1               0.025      0.003      8.190      0.000
    L6$1               0.418      0.003    132.985      0.000
    L7$1               0.369      0.003    118.487      0.000
    L8$1               1.148      0.004    294.740      0.000
    L10$1              0.713      0.003    213.387      0.000
    L11$1              0.127      0.003     41.548      0.000
    L12$1              0.529      0.003    165.282      0.000
    L14$1              0.045      0.003     14.878      0.000
    L15$1              0.228      0.003     74.220      0.000
    L16$1              0.046      0.003     15.038      0.000
    L19$1              0.730      0.003    217.571      0.000
    L25$1              0.546      0.003    170.023      0.000
    L26$1              0.095      0.003     31.133      0.000
    L28$1              0.370      0.003    118.735      0.000
    L29$1              0.453      0.003    143.359      0.000
    L31$1              0.552      0.003    171.604      0.000
    L35$1              0.374      0.003    119.920      0.000
    L36$1              0.177      0.003     57.863      0.000
    L37$1              0.001      0.003      0.332      0.740
    L40$1             -0.154      0.003    -50.504      0.000
    L41$1             -0.172      0.003    -56.127      0.000
    L45$1              0.384      0.003    122.908      0.000
    CN2$1             -0.058      0.003    -19.163      0.000
    CN3$1             -0.768      0.003   -226.462      0.000
    CN6$1              0.694      0.003    208.805      0.000
    CN7$1             -0.451      0.003   -142.917      0.000
    CN8$1             -1.268      0.004   -307.758      0.000
    CN10$1            -0.164      0.003    -53.801      0.000
    CN16$1            -0.118      0.003    -38.555      0.000
    CN18$1             0.432      0.003    137.404      0.000
    CN19$1            -0.327      0.003   -105.286      0.000
    CN20$1             0.366      0.003    117.373      0.000
    CN24$1             0.016      0.003      5.302      0.000
    CN25$1            -0.088      0.003    -28.882      0.000
    CN26$1             0.192      0.003     62.548      0.000
    CN27$1            -0.149      0.003    -48.720      0.000
    CN29$1             0.242      0.003     78.697      0.000
    CN30$1            -0.514      0.003   -160.958      0.000
    CN32$1            -0.610      0.003   -187.326      0.000
    CN33$1             0.335      0.003    107.912      0.000
    CN34$1             0.430      0.003    136.599      0.000
    CN35$1             0.205      0.003     66.782      0.000
    CN37$1            -0.027      0.003     -8.831      0.000
    CN41$1             0.119      0.003     39.176      0.000
    CN42$1             0.834      0.003    241.192      0.000
    CN45$1            -0.039      0.003    -12.893      0.000
    CH1$1             -0.001      0.003     -0.396      0.692
    CH2$1              0.030      0.003      9.894      0.000
    CH3$1             -0.001      0.003     -0.386      0.700
    CH4$1             -0.196      0.003    -64.147      0.000
    CH5$1             -0.231      0.003    -75.299      0.000
    CH6$1              0.022      0.003      7.317      0.000
    CH9$1             -0.727      0.003   -216.970      0.000
    CH10$1            -0.662      0.003   -200.940      0.000
    CH13$1            -0.169      0.003    -55.226      0.000
    CH16$1            -0.746      0.003   -221.333      0.000
    CH17$1            -0.307      0.003    -99.089      0.000
    CH18$1            -0.243      0.003    -78.919      0.000
    CH19$1            -0.100      0.003    -32.812      0.000
    CH20$1            -0.265      0.003    -86.011      0.000
    CH25$1            -0.310      0.003   -100.122      0.000
    CH26$1             0.280      0.003     90.623      0.000
    CH27$1            -0.384      0.003   -122.943      0.000
    CH28$1             0.067      0.003     21.851      0.000
    CH29$1             0.065      0.003     21.284      0.000
    CH32$1            -0.035      0.003    -11.588      0.000
    CH34$1            -0.339      0.003   -109.098      0.000
    CH35$1             0.373      0.003    119.714      0.000
    CH37$1            -0.322      0.003   -103.945      0.000
    CH38$1            -0.052      0.003    -16.984      0.000
    CH39$1             0.171      0.003     55.773      0.000
    CH40$1            -0.386      0.003   -123.631      0.000
    CH43$1             0.105      0.003     34.524      0.000
    CH44$1            -0.221      0.003    -72.022      0.000
    CH45$1            -0.019      0.003     -6.404      0.000

 Variances
    MT                 1.000      0.000    999.000    999.000
    L                  1.000      0.000    999.000    999.000
    CN                 1.000      0.000    999.000    999.000
    CH                 1.000      0.000    999.000    999.000
    GERAL              1.000      0.000    999.000    999.000


STDY Standardization

                                                    Two-Tailed
                    Estimate       S.E.  Est./S.E.    P-Value

 MT       BY
    MT29               0.189      0.006     34.168      0.000
    MT38               0.410      0.006     63.518      0.000
    MT40               0.340      0.006     59.289      0.000
    MT44               0.577      0.009     65.472      0.000

 L        BY
    L1                 0.323      0.003    100.096      0.000
    L2                 0.379      0.003    118.566      0.000
    L3                 0.320      0.003     99.604      0.000
    L4                 0.272      0.005     57.968      0.000
    L5                 0.223      0.003     65.858      0.000
    L6                 0.371      0.003    107.208      0.000
    L7                 0.299      0.004     82.122      0.000
    L8                 0.261      0.005     54.411      0.000
    L10                0.412      0.004    108.828      0.000
    L11                0.377      0.003    114.131      0.000
    L12                0.305      0.004     80.440      0.000
    L14                0.414      0.003    133.357      0.000
    L15                0.421      0.003    131.446      0.000
    L16                0.376      0.003    115.811      0.000
    L19                0.313      0.004     75.961      0.000
    L25                0.323      0.004     84.446      0.000
    L26                0.370      0.003    111.184      0.000
    L28                0.377      0.004    106.178      0.000
    L29                0.322      0.004     86.712      0.000
    L31                0.376      0.004    102.745      0.000
    L35                0.368      0.004    103.343      0.000
    L36                0.295      0.004     84.091      0.000
    L37                0.406      0.003    127.679      0.000
    L40                0.382      0.003    117.000      0.000
    L41                0.362      0.003    111.436      0.000
    L45                0.355      0.004    100.322      0.000
    MT1                0.159      0.003     47.046      0.000
    MT2                0.217      0.004     57.939      0.000
    MT6                0.134      0.004     37.729      0.000
    MT20               0.111      0.004     29.841      0.000
    MT21               0.213      0.004     56.408      0.000
    MT22               0.148      0.004     39.353      0.000
    MT27               0.119      0.003     34.256      0.000
    MT34               0.162      0.004     44.751      0.000
    MT40               0.126      0.003     37.945      0.000
    MT41               0.188      0.004     52.482      0.000
    MT42               0.182      0.004     46.425      0.000
    MT43               0.160      0.003     45.852      0.000
    CN42               0.151      0.004     36.033      0.000
    CN45               0.104      0.003     30.951      0.000

 CN       BY
    CN2                0.159      0.008     19.381      0.000
    CN6                0.239      0.009     25.195      0.000
    CN16               0.174      0.008     21.392      0.000
    CN20               0.194      0.008     23.752      0.000
    CN42               0.325      0.012     27.463      0.000

 CH       BY
    CH4                0.152      0.004     34.790      0.000
    CH5                0.120      0.004     27.990      0.000
    CH6                0.191      0.004     43.213      0.000
    CH9                0.371      0.004     86.820      0.000
    CH10               0.254      0.004     57.344      0.000
    CH13               0.264      0.004     65.776      0.000
    CH16               0.307      0.005     62.219      0.000
    CH17               0.162      0.004     37.057      0.000
    CH18               0.143      0.004     31.942      0.000
    CH19               0.215      0.004     51.088      0.000
    CH25               0.246      0.004     55.032      0.000
    CH27               0.406      0.004     97.064      0.000
    CH28               0.280      0.004     65.485      0.000
    CH29               0.252      0.004     58.910      0.000
    CH32               0.261      0.004     61.638      0.000
    CH34               0.309      0.004     73.903      0.000
    CH37               0.252      0.004     57.501      0.000
    CH38               0.217      0.004     52.038      0.000
    CH39               0.193      0.004     43.911      0.000
    CH40               0.307      0.004     73.595      0.000
    CH43               0.125      0.004     27.790      0.000
    CH44               0.259      0.004     60.207      0.000
    CN6               -0.243      0.005    -47.143      0.000
    L4                -0.146      0.006    -26.353      0.000
    L8                -0.159      0.006    -28.266      0.000
    CN30               0.134      0.004     29.894      0.000

 GERAL    BY
    MT1                0.539      0.003    207.010      0.000
    MT2                0.428      0.003    132.043      0.000
    MT6                0.457      0.003    161.189      0.000
    MT10               0.560      0.003    217.753      0.000
    MT20               0.404      0.003    133.558      0.000
    MT21               0.522      0.003    163.609      0.000
    MT22               0.461      0.003    147.863      0.000
    MT27               0.475      0.003    175.642      0.000
    MT29               0.425      0.003    148.690      0.000
    MT34               0.439      0.003    150.219      0.000
    MT38               0.444      0.003    159.750      0.000
    MT40               0.579      0.002    238.891      0.000
    MT41               0.387      0.003    129.901      0.000
    MT42               0.438      0.003    134.254      0.000
    MT43               0.478      0.003    173.950      0.000
    MT44               0.483      0.003    159.833      0.000
    L1                 0.455      0.003    167.291      0.000
    L2                 0.475      0.003    172.089      0.000
    L3                 0.492      0.003    186.673      0.000
    L4                 0.324      0.005     70.745      0.000
    L5                 0.508      0.003    189.957      0.000
    L6                 0.445      0.003    144.472      0.000
    L7                 0.352      0.003    111.491      0.000
    L8                 0.325      0.005     71.959      0.000
    L10                0.405      0.004    114.910      0.000
    L11                0.419      0.003    144.673      0.000
    L12                0.300      0.003     88.106      0.000
    L14                0.506      0.003    189.034      0.000
    L15                0.483      0.003    170.171      0.000
    L16                0.408      0.003    141.984      0.000
    L19                0.280      0.004     77.115      0.000
    L25                0.274      0.003     80.260      0.000
    L26                0.415      0.003    143.531      0.000
    L28                0.331      0.003    104.148      0.000
    L29                0.288      0.003     86.609      0.000
    L31                0.349      0.003    103.384      0.000
    L35                0.348      0.003    111.288      0.000
    L36                0.340      0.003    112.091      0.000
    L37                0.422      0.003    148.584      0.000
    L40                0.367      0.003    125.813      0.000
    L41                0.421      0.003    149.048      0.000
    L45                0.375      0.003    120.029      0.000
    CN2                0.435      0.003    155.055      0.000
    CN3                0.637      0.002    295.083      0.000
    CN6                0.427      0.004    119.612      0.000
    CN7                0.501      0.003    193.130      0.000
    CN8                0.454      0.003    131.043      0.000
    CN10               0.496      0.003    190.081      0.000
    CN16               0.492      0.003    188.422      0.000
    CN18               0.424      0.003    136.262      0.000
    CN19               0.484      0.003    180.262      0.000
    CN20               0.568      0.003    205.452      0.000
    CN24               0.464      0.003    170.267      0.000
    CN25               0.542      0.003    214.929      0.000
    CN26               0.472      0.003    166.599      0.000
    CN27               0.667      0.002    312.328      0.000
    CN29               0.573      0.003    217.029      0.000
    CN30               0.455      0.003    166.016      0.000
    CN32               0.393      0.003    136.740      0.000
    CN33               0.721      0.002    309.374      0.000
    CN34               0.447      0.003    145.488      0.000
    CN35               0.466      0.003    163.191      0.000
    CN37               0.589      0.002    244.623      0.000
    CN41               0.579      0.003    229.049      0.000
    CN42               0.491      0.004    133.898      0.000
    CN45               0.576      0.002    233.547      0.000
    CH1                0.489      0.003    184.313      0.000
    CH2                0.529      0.003    205.082      0.000
    CH3                0.562      0.002    227.377      0.000
    CH4                0.443      0.003    157.155      0.000
    CH5                0.498      0.003    193.820      0.000
    CH6                0.405      0.003    138.640      0.000
    CH9                0.599      0.002    260.626      0.000
    CH10               0.572      0.002    233.084      0.000
    CH13               0.581      0.002    245.618      0.000
    CH16               0.370      0.003    122.145      0.000
    CH17               0.481      0.003    184.025      0.000
    CH18               0.403      0.003    141.546      0.000
    CH19               0.508      0.003    193.579      0.000
    CH20               0.439      0.003    161.775      0.000
    CH25               0.374      0.003    128.763      0.000
    CH26               0.567      0.003    211.148      0.000
    CH27               0.482      0.003    185.864      0.000
    CH28               0.449      0.003    157.686      0.000
    CH29               0.482      0.003    174.623      0.000
    CH32               0.484      0.003    179.203      0.000
    CH34               0.522      0.003    205.155      0.000
    CH35               0.489      0.003    166.347      0.000
    CH37               0.443      0.003    163.685      0.000
    CH38               0.563      0.003    224.612      0.000
    CH39               0.468      0.003    164.697      0.000
    CH40               0.567      0.002    235.345      0.000
    CH43               0.394      0.003    131.667      0.000
    CH44               0.444      0.003    160.306      0.000
    CH45               0.395      0.003    138.735      0.000

 GERAL    WITH
    MT                 0.000      0.000    999.000    999.000
    L                  0.000      0.000    999.000    999.000
    CN                 0.000      0.000    999.000    999.000
    CH                 0.000      0.000    999.000    999.000

 MT       WITH
    L                  0.000      0.000    999.000    999.000
    CN                 0.000      0.000    999.000    999.000
    CH                 0.000      0.000    999.000    999.000

 L        WITH
    CN                 0.000      0.000    999.000    999.000
    CH                 0.000      0.000    999.000    999.000

 CN       WITH
    CH                 0.000      0.000    999.000    999.000

 Thresholds
    MT1$1              0.044      0.003     14.514      0.000
    MT2$1              0.505      0.003    158.381      0.000
    MT6$1              0.176      0.003     57.640      0.000
    MT10$1             0.029      0.003      9.423      0.000
    MT20$1             0.301      0.003     97.330      0.000
    MT21$1             0.616      0.003    188.991      0.000
    MT22$1             0.464      0.003    146.589      0.000
    MT27$1            -0.049      0.003    -16.062      0.000
    MT29$1            -0.062      0.003    -20.459      0.000
    MT34$1             0.252      0.003     81.876      0.000
    MT38$1            -0.462      0.003   -146.197      0.000
    MT40$1            -0.296      0.003    -95.741      0.000
    MT41$1             0.177      0.003     57.868      0.000
    MT42$1             0.593      0.003    182.663      0.000
    MT43$1             0.080      0.003     26.364      0.000
    MT44$1            -1.179      0.004   -298.479      0.000
    L1$1              -0.192      0.003    -62.616      0.000
    L2$1               0.074      0.003     24.336      0.000
    L3$1              -0.356      0.003   -114.357      0.000
    L4$1               1.137      0.004    293.361      0.000
    L5$1               0.025      0.003      8.190      0.000
    L6$1               0.418      0.003    132.985      0.000
    L7$1               0.369      0.003    118.487      0.000
    L8$1               1.148      0.004    294.740      0.000
    L10$1              0.713      0.003    213.387      0.000
    L11$1              0.127      0.003     41.548      0.000
    L12$1              0.529      0.003    165.282      0.000
    L14$1              0.045      0.003     14.878      0.000
    L15$1              0.228      0.003     74.220      0.000
    L16$1              0.046      0.003     15.038      0.000
    L19$1              0.730      0.003    217.571      0.000
    L25$1              0.546      0.003    170.023      0.000
    L26$1              0.095      0.003     31.133      0.000
    L28$1              0.370      0.003    118.735      0.000
    L29$1              0.453      0.003    143.359      0.000
    L31$1              0.552      0.003    171.604      0.000
    L35$1              0.374      0.003    119.920      0.000
    L36$1              0.177      0.003     57.863      0.000
    L37$1              0.001      0.003      0.332      0.740
    L40$1             -0.154      0.003    -50.504      0.000
    L41$1             -0.172      0.003    -56.127      0.000
    L45$1              0.384      0.003    122.908      0.000
    CN2$1             -0.058      0.003    -19.163      0.000
    CN3$1             -0.768      0.003   -226.462      0.000
    CN6$1              0.694      0.003    208.805      0.000
    CN7$1             -0.451      0.003   -142.917      0.000
    CN8$1             -1.268      0.004   -307.758      0.000
    CN10$1            -0.164      0.003    -53.801      0.000
    CN16$1            -0.118      0.003    -38.555      0.000
    CN18$1             0.432      0.003    137.404      0.000
    CN19$1            -0.327      0.003   -105.286      0.000
    CN20$1             0.366      0.003    117.373      0.000
    CN24$1             0.016      0.003      5.302      0.000
    CN25$1            -0.088      0.003    -28.882      0.000
    CN26$1             0.192      0.003     62.548      0.000
    CN27$1            -0.149      0.003    -48.720      0.000
    CN29$1             0.242      0.003     78.697      0.000
    CN30$1            -0.514      0.003   -160.958      0.000
    CN32$1            -0.610      0.003   -187.326      0.000
    CN33$1             0.335      0.003    107.912      0.000
    CN34$1             0.430      0.003    136.599      0.000
    CN35$1             0.205      0.003     66.782      0.000
    CN37$1            -0.027      0.003     -8.831      0.000
    CN41$1             0.119      0.003     39.176      0.000
    CN42$1             0.834      0.003    241.192      0.000
    CN45$1            -0.039      0.003    -12.893      0.000
    CH1$1             -0.001      0.003     -0.396      0.692
    CH2$1              0.030      0.003      9.894      0.000
    CH3$1             -0.001      0.003     -0.386      0.700
    CH4$1             -0.196      0.003    -64.147      0.000
    CH5$1             -0.231      0.003    -75.299      0.000
    CH6$1              0.022      0.003      7.317      0.000
    CH9$1             -0.727      0.003   -216.970      0.000
    CH10$1            -0.662      0.003   -200.940      0.000
    CH13$1            -0.169      0.003    -55.226      0.000
    CH16$1            -0.746      0.003   -221.333      0.000
    CH17$1            -0.307      0.003    -99.089      0.000
    CH18$1            -0.243      0.003    -78.919      0.000
    CH19$1            -0.100      0.003    -32.812      0.000
    CH20$1            -0.265      0.003    -86.011      0.000
    CH25$1            -0.310      0.003   -100.122      0.000
    CH26$1             0.280      0.003     90.623      0.000
    CH27$1            -0.384      0.003   -122.943      0.000
    CH28$1             0.067      0.003     21.851      0.000
    CH29$1             0.065      0.003     21.284      0.000
    CH32$1            -0.035      0.003    -11.588      0.000
    CH34$1            -0.339      0.003   -109.098      0.000
    CH35$1             0.373      0.003    119.714      0.000
    CH37$1            -0.322      0.003   -103.945      0.000
    CH38$1            -0.052      0.003    -16.984      0.000
    CH39$1             0.171      0.003     55.773      0.000
    CH40$1            -0.386      0.003   -123.631      0.000
    CH43$1             0.105      0.003     34.524      0.000
    CH44$1            -0.221      0.003    -72.022      0.000
    CH45$1            -0.019      0.003     -6.404      0.000

 Variances
    MT                 1.000      0.000    999.000    999.000
    L                  1.000      0.000    999.000    999.000
    CN                 1.000      0.000    999.000    999.000
    CH                 1.000      0.000    999.000    999.000
    GERAL              1.000      0.000    999.000    999.000


STD Standardization

                                                    Two-Tailed
                    Estimate       S.E.  Est./S.E.    P-Value

 MT       BY
    MT29               0.189      0.006     34.168      0.000
    MT38               0.410      0.006     63.518      0.000
    MT40               0.340      0.006     59.289      0.000
    MT44               0.577      0.009     65.472      0.000

 L        BY
    L1                 0.323      0.003    100.096      0.000
    L2                 0.379      0.003    118.566      0.000
    L3                 0.320      0.003     99.604      0.000
    L4                 0.272      0.005     57.968      0.000
    L5                 0.223      0.003     65.858      0.000
    L6                 0.371      0.003    107.208      0.000
    L7                 0.299      0.004     82.122      0.000
    L8                 0.261      0.005     54.411      0.000
    L10                0.412      0.004    108.828      0.000
    L11                0.377      0.003    114.131      0.000
    L12                0.305      0.004     80.440      0.000
    L14                0.414      0.003    133.357      0.000
    L15                0.421      0.003    131.446      0.000
    L16                0.376      0.003    115.811      0.000
    L19                0.313      0.004     75.961      0.000
    L25                0.323      0.004     84.446      0.000
    L26                0.370      0.003    111.184      0.000
    L28                0.377      0.004    106.178      0.000
    L29                0.322      0.004     86.712      0.000
    L31                0.376      0.004    102.745      0.000
    L35                0.368      0.004    103.343      0.000
    L36                0.295      0.004     84.091      0.000
    L37                0.406      0.003    127.679      0.000
    L40                0.382      0.003    117.000      0.000
    L41                0.362      0.003    111.436      0.000
    L45                0.355      0.004    100.322      0.000
    MT1                0.159      0.003     47.046      0.000
    MT2                0.217      0.004     57.939      0.000
    MT6                0.134      0.004     37.729      0.000
    MT20               0.111      0.004     29.841      0.000
    MT21               0.213      0.004     56.408      0.000
    MT22               0.148      0.004     39.353      0.000
    MT27               0.119      0.003     34.256      0.000
    MT34               0.162      0.004     44.751      0.000
    MT40               0.126      0.003     37.945      0.000
    MT41               0.188      0.004     52.482      0.000
    MT42               0.182      0.004     46.425      0.000
    MT43               0.160      0.003     45.852      0.000
    CN42               0.151      0.004     36.033      0.000
    CN45               0.104      0.003     30.951      0.000

 CN       BY
    CN2                0.159      0.008     19.381      0.000
    CN6                0.239      0.009     25.195      0.000
    CN16               0.174      0.008     21.392      0.000
    CN20               0.194      0.008     23.752      0.000
    CN42               0.325      0.012     27.463      0.000

 CH       BY
    CH4                0.152      0.004     34.790      0.000
    CH5                0.120      0.004     27.990      0.000
    CH6                0.191      0.004     43.213      0.000
    CH9                0.371      0.004     86.820      0.000
    CH10               0.254      0.004     57.344      0.000
    CH13               0.264      0.004     65.776      0.000
    CH16               0.307      0.005     62.219      0.000
    CH17               0.162      0.004     37.057      0.000
    CH18               0.143      0.004     31.942      0.000
    CH19               0.215      0.004     51.088      0.000
    CH25               0.246      0.004     55.032      0.000
    CH27               0.406      0.004     97.064      0.000
    CH28               0.280      0.004     65.485      0.000
    CH29               0.252      0.004     58.910      0.000
    CH32               0.261      0.004     61.638      0.000
    CH34               0.309      0.004     73.903      0.000
    CH37               0.252      0.004     57.501      0.000
    CH38               0.217      0.004     52.038      0.000
    CH39               0.193      0.004     43.911      0.000
    CH40               0.307      0.004     73.595      0.000
    CH43               0.125      0.004     27.790      0.000
    CH44               0.259      0.004     60.207      0.000
    CN6               -0.243      0.005    -47.143      0.000
    L4                -0.146      0.006    -26.353      0.000
    L8                -0.159      0.006    -28.266      0.000
    CN30               0.134      0.004     29.894      0.000

 GERAL    BY
    MT1                0.539      0.003    207.010      0.000
    MT2                0.428      0.003    132.043      0.000
    MT6                0.457      0.003    161.189      0.000
    MT10               0.560      0.003    217.753      0.000
    MT20               0.404      0.003    133.558      0.000
    MT21               0.522      0.003    163.609      0.000
    MT22               0.461      0.003    147.863      0.000
    MT27               0.475      0.003    175.642      0.000
    MT29               0.425      0.003    148.690      0.000
    MT34               0.439      0.003    150.219      0.000
    MT38               0.444      0.003    159.750      0.000
    MT40               0.579      0.002    238.891      0.000
    MT41               0.387      0.003    129.901      0.000
    MT42               0.438      0.003    134.254      0.000
    MT43               0.478      0.003    173.950      0.000
    MT44               0.483      0.003    159.833      0.000
    L1                 0.455      0.003    167.291      0.000
    L2                 0.475      0.003    172.089      0.000
    L3                 0.492      0.003    186.673      0.000
    L4                 0.324      0.005     70.745      0.000
    L5                 0.508      0.003    189.957      0.000
    L6                 0.445      0.003    144.472      0.000
    L7                 0.352      0.003    111.491      0.000
    L8                 0.325      0.005     71.959      0.000
    L10                0.405      0.004    114.910      0.000
    L11                0.419      0.003    144.673      0.000
    L12                0.300      0.003     88.106      0.000
    L14                0.506      0.003    189.034      0.000
    L15                0.483      0.003    170.171      0.000
    L16                0.408      0.003    141.984      0.000
    L19                0.280      0.004     77.115      0.000
    L25                0.274      0.003     80.260      0.000
    L26                0.415      0.003    143.531      0.000
    L28                0.331      0.003    104.148      0.000
    L29                0.288      0.003     86.609      0.000
    L31                0.349      0.003    103.384      0.000
    L35                0.348      0.003    111.288      0.000
    L36                0.340      0.003    112.091      0.000
    L37                0.422      0.003    148.584      0.000
    L40                0.367      0.003    125.813      0.000
    L41                0.421      0.003    149.048      0.000
    L45                0.375      0.003    120.029      0.000
    CN2                0.435      0.003    155.055      0.000
    CN3                0.637      0.002    295.083      0.000
    CN6                0.427      0.004    119.612      0.000
    CN7                0.501      0.003    193.130      0.000
    CN8                0.454      0.003    131.043      0.000
    CN10               0.496      0.003    190.081      0.000
    CN16               0.492      0.003    188.422      0.000
    CN18               0.424      0.003    136.262      0.000
    CN19               0.484      0.003    180.262      0.000
    CN20               0.568      0.003    205.452      0.000
    CN24               0.464      0.003    170.267      0.000
    CN25               0.542      0.003    214.929      0.000
    CN26               0.472      0.003    166.599      0.000
    CN27               0.667      0.002    312.328      0.000
    CN29               0.573      0.003    217.029      0.000
    CN30               0.455      0.003    166.016      0.000
    CN32               0.393      0.003    136.740      0.000
    CN33               0.721      0.002    309.374      0.000
    CN34               0.447      0.003    145.488      0.000
    CN35               0.466      0.003    163.191      0.000
    CN37               0.589      0.002    244.623      0.000
    CN41               0.579      0.003    229.049      0.000
    CN42               0.491      0.004    133.898      0.000
    CN45               0.576      0.002    233.547      0.000
    CH1                0.489      0.003    184.313      0.000
    CH2                0.529      0.003    205.082      0.000
    CH3                0.562      0.002    227.377      0.000
    CH4                0.443      0.003    157.155      0.000
    CH5                0.498      0.003    193.820      0.000
    CH6                0.405      0.003    138.640      0.000
    CH9                0.599      0.002    260.626      0.000
    CH10               0.572      0.002    233.084      0.000
    CH13               0.581      0.002    245.618      0.000
    CH16               0.370      0.003    122.145      0.000
    CH17               0.481      0.003    184.025      0.000
    CH18               0.403      0.003    141.546      0.000
    CH19               0.508      0.003    193.579      0.000
    CH20               0.439      0.003    161.775      0.000
    CH25               0.374      0.003    128.763      0.000
    CH26               0.567      0.003    211.148      0.000
    CH27               0.482      0.003    185.864      0.000
    CH28               0.449      0.003    157.686      0.000
    CH29               0.482      0.003    174.623      0.000
    CH32               0.484      0.003    179.203      0.000
    CH34               0.522      0.003    205.155      0.000
    CH35               0.489      0.003    166.347      0.000
    CH37               0.443      0.003    163.685      0.000
    CH38               0.563      0.003    224.612      0.000
    CH39               0.468      0.003    164.697      0.000
    CH40               0.567      0.002    235.345      0.000
    CH43               0.394      0.003    131.667      0.000
    CH44               0.444      0.003    160.306      0.000
    CH45               0.395      0.003    138.735      0.000

 GERAL    WITH
    MT                 0.000      0.000    999.000    999.000
    L                  0.000      0.000    999.000    999.000
    CN                 0.000      0.000    999.000    999.000
    CH                 0.000      0.000    999.000    999.000

 MT       WITH
    L                  0.000      0.000    999.000    999.000
    CN                 0.000      0.000    999.000    999.000
    CH                 0.000      0.000    999.000    999.000

 L        WITH
    CN                 0.000      0.000    999.000    999.000
    CH                 0.000      0.000    999.000    999.000

 CN       WITH
    CH                 0.000      0.000    999.000    999.000

 Thresholds
    MT1$1              0.044      0.003     14.514      0.000
    MT2$1              0.505      0.003    158.381      0.000
    MT6$1              0.176      0.003     57.640      0.000
    MT10$1             0.029      0.003      9.423      0.000
    MT20$1             0.301      0.003     97.330      0.000
    MT21$1             0.616      0.003    188.991      0.000
    MT22$1             0.464      0.003    146.589      0.000
    MT27$1            -0.049      0.003    -16.062      0.000
    MT29$1            -0.062      0.003    -20.459      0.000
    MT34$1             0.252      0.003     81.876      0.000
    MT38$1            -0.462      0.003   -146.197      0.000
    MT40$1            -0.296      0.003    -95.741      0.000
    MT41$1             0.177      0.003     57.868      0.000
    MT42$1             0.593      0.003    182.663      0.000
    MT43$1             0.080      0.003     26.364      0.000
    MT44$1            -1.179      0.004   -298.479      0.000
    L1$1              -0.192      0.003    -62.616      0.000
    L2$1               0.074      0.003     24.336      0.000
    L3$1              -0.356      0.003   -114.357      0.000
    L4$1               1.137      0.004    293.361      0.000
    L5$1               0.025      0.003      8.190      0.000
    L6$1               0.418      0.003    132.985      0.000
    L7$1               0.369      0.003    118.487      0.000
    L8$1               1.148      0.004    294.740      0.000
    L10$1              0.713      0.003    213.387      0.000
    L11$1              0.127      0.003     41.548      0.000
    L12$1              0.529      0.003    165.282      0.000
    L14$1              0.045      0.003     14.878      0.000
    L15$1              0.228      0.003     74.220      0.000
    L16$1              0.046      0.003     15.038      0.000
    L19$1              0.730      0.003    217.571      0.000
    L25$1              0.546      0.003    170.023      0.000
    L26$1              0.095      0.003     31.133      0.000
    L28$1              0.370      0.003    118.735      0.000
    L29$1              0.453      0.003    143.359      0.000
    L31$1              0.552      0.003    171.604      0.000
    L35$1              0.374      0.003    119.920      0.000
    L36$1              0.177      0.003     57.863      0.000
    L37$1              0.001      0.003      0.332      0.740
    L40$1             -0.154      0.003    -50.504      0.000
    L41$1             -0.172      0.003    -56.127      0.000
    L45$1              0.384      0.003    122.908      0.000
    CN2$1             -0.058      0.003    -19.163      0.000
    CN3$1             -0.768      0.003   -226.462      0.000
    CN6$1              0.694      0.003    208.805      0.000
    CN7$1             -0.451      0.003   -142.917      0.000
    CN8$1             -1.268      0.004   -307.758      0.000
    CN10$1            -0.164      0.003    -53.801      0.000
    CN16$1            -0.118      0.003    -38.555      0.000
    CN18$1             0.432      0.003    137.404      0.000
    CN19$1            -0.327      0.003   -105.286      0.000
    CN20$1             0.366      0.003    117.373      0.000
    CN24$1             0.016      0.003      5.302      0.000
    CN25$1            -0.088      0.003    -28.882      0.000
    CN26$1             0.192      0.003     62.548      0.000
    CN27$1            -0.149      0.003    -48.720      0.000
    CN29$1             0.242      0.003     78.697      0.000
    CN30$1            -0.514      0.003   -160.958      0.000
    CN32$1            -0.610      0.003   -187.326      0.000
    CN33$1             0.335      0.003    107.912      0.000
    CN34$1             0.430      0.003    136.599      0.000
    CN35$1             0.205      0.003     66.782      0.000
    CN37$1            -0.027      0.003     -8.831      0.000
    CN41$1             0.119      0.003     39.176      0.000
    CN42$1             0.834      0.003    241.192      0.000
    CN45$1            -0.039      0.003    -12.893      0.000
    CH1$1             -0.001      0.003     -0.396      0.692
    CH2$1              0.030      0.003      9.894      0.000
    CH3$1             -0.001      0.003     -0.386      0.700
    CH4$1             -0.196      0.003    -64.147      0.000
    CH5$1             -0.231      0.003    -75.299      0.000
    CH6$1              0.022      0.003      7.317      0.000
    CH9$1             -0.727      0.003   -216.970      0.000
    CH10$1            -0.662      0.003   -200.940      0.000
    CH13$1            -0.169      0.003    -55.226      0.000
    CH16$1            -0.746      0.003   -221.333      0.000
    CH17$1            -0.307      0.003    -99.089      0.000
    CH18$1            -0.243      0.003    -78.919      0.000
    CH19$1            -0.100      0.003    -32.812      0.000
    CH20$1            -0.265      0.003    -86.011      0.000
    CH25$1            -0.310      0.003   -100.122      0.000
    CH26$1             0.280      0.003     90.623      0.000
    CH27$1            -0.384      0.003   -122.943      0.000
    CH28$1             0.067      0.003     21.851      0.000
    CH29$1             0.065      0.003     21.284      0.000
    CH32$1            -0.035      0.003    -11.588      0.000
    CH34$1            -0.339      0.003   -109.098      0.000
    CH35$1             0.373      0.003    119.714      0.000
    CH37$1            -0.322      0.003   -103.945      0.000
    CH38$1            -0.052      0.003    -16.984      0.000
    CH39$1             0.171      0.003     55.773      0.000
    CH40$1            -0.386      0.003   -123.631      0.000
    CH43$1             0.105      0.003     34.524      0.000
    CH44$1            -0.221      0.003    -72.022      0.000
    CH45$1            -0.019      0.003     -6.404      0.000

 Variances
    MT                 1.000      0.000    999.000    999.000
    L                  1.000      0.000    999.000    999.000
    CN                 1.000      0.000    999.000    999.000
    CH                 1.000      0.000    999.000    999.000
    GERAL              1.000      0.000    999.000    999.000


R-SQUARE

    Observed                                        Two-Tailed   Residual
    Variable        Estimate       S.E.  Est./S.E.    P-Value    Variance

    MT1                0.315      0.003    116.666      0.000      0.685
    MT2                0.231      0.003     78.233      0.000      0.769
    MT6                0.227      0.003     88.877      0.000      0.773
    MT10               0.313      0.003    108.876      0.000      0.687
    MT20               0.175      0.002     71.775      0.000      0.825
    MT21               0.317      0.003     92.815      0.000      0.683
    MT22               0.234      0.003     80.842      0.000      0.766
    MT27               0.240      0.002     96.391      0.000      0.760
    MT29               0.216      0.003     71.269      0.000      0.784
    MT34               0.219      0.003     84.469      0.000      0.781
    MT38               0.365      0.006     65.398      0.000      0.635
    MT40               0.467      0.004    105.253      0.000      0.533
    MT41               0.185      0.002     77.049      0.000      0.815
    MT42               0.225      0.003     75.378      0.000      0.775
    MT43               0.254      0.003     98.354      0.000      0.746
    MT44               0.566      0.010     56.334      0.000      0.434
    L1                 0.311      0.003    123.944      0.000      0.689
    L2                 0.369      0.003    130.508      0.000      0.631
    L3                 0.345      0.002    142.729      0.000      0.655
    L4                 0.200      0.004     45.325      0.000      0.800
    L5                 0.308      0.003    114.011      0.000      0.692
    L6                 0.336      0.003    103.252      0.000      0.664
    L7                 0.213      0.003     76.543      0.000      0.787
    L8                 0.199      0.004     45.507      0.000      0.801
    L10                0.334      0.004     85.542      0.000      0.666
    L11                0.318      0.003    110.879      0.000      0.682
    L12                0.183      0.003     63.757      0.000      0.817
    L14                0.428      0.003    150.535      0.000      0.572
    L15                0.410      0.003    133.635      0.000      0.590
    L16                0.308      0.003    112.815      0.000      0.692
    L19                0.176      0.003     56.593      0.000      0.824
    L25                0.179      0.003     61.608      0.000      0.821
    L26                0.309      0.003    108.144      0.000      0.691
    L28                0.252      0.003     83.096      0.000      0.748
    L29                0.187      0.003     66.170      0.000      0.813
    L31                0.263      0.003     79.637      0.000      0.737
    L35                0.257      0.003     84.654      0.000      0.743
    L36                0.202      0.003     79.441      0.000      0.798
    L37                0.343      0.003    123.823      0.000      0.657
    L40                0.281      0.003    107.376      0.000      0.719
    L41                0.308      0.003    117.308      0.000      0.692
    L45                0.266      0.003     88.097      0.000      0.734
    CN2                0.215      0.003     65.542      0.000      0.785
    CN3                0.406      0.003    147.541      0.000      0.594
    CN6                0.298      0.006     52.269      0.000      0.702
    CN7                0.251      0.003     96.565      0.000      0.749
    CN8                0.206      0.003     65.521      0.000      0.794
    CN10               0.247      0.003     95.040      0.000      0.753
    CN16               0.272      0.003     80.181      0.000      0.728
    CN18               0.180      0.003     68.131      0.000      0.820
    CN19               0.234      0.003     90.131      0.000      0.766
    CN20               0.361      0.004     88.111      0.000      0.639
    CN24               0.216      0.003     85.133      0.000      0.784
    CN25               0.294      0.003    107.465      0.000      0.706
    CN26               0.223      0.003     83.299      0.000      0.777
    CN27               0.445      0.003    156.164      0.000      0.555
    CN29               0.329      0.003    108.514      0.000      0.671
    CN30               0.225      0.003     86.004      0.000      0.775
    CN32               0.155      0.002     68.370      0.000      0.845
    CN33               0.520      0.003    154.687      0.000      0.480
    CN34               0.200      0.003     72.744      0.000      0.800
    CN35               0.217      0.003     81.596      0.000      0.783
    CN37               0.347      0.003    122.311      0.000      0.653
    CN41               0.335      0.003    114.524      0.000      0.665
    CN42               0.369      0.008     44.860      0.000      0.631
    CN45               0.342      0.003    125.222      0.000      0.658
    CH1                0.239      0.003     92.157      0.000      0.761
    CH2                0.280      0.003    102.541      0.000      0.720
    CH3                0.316      0.003    113.688      0.000      0.684
    CH4                0.219      0.003     84.653      0.000      0.781
    CH5                0.263      0.003    100.461      0.000      0.737
    CH6                0.200      0.003     77.532      0.000      0.800
    CH9                0.497      0.004    140.250      0.000      0.503
    CH10               0.391      0.003    124.076      0.000      0.609
    CH13               0.407      0.003    133.240      0.000      0.593
    CH16               0.231      0.003     67.945      0.000      0.769
    CH17               0.257      0.003     96.526      0.000      0.743
    CH18               0.183      0.002     75.249      0.000      0.817
    CH19               0.305      0.003    105.359      0.000      0.695
    CH20               0.193      0.002     80.887      0.000      0.807
    CH25               0.200      0.003     72.031      0.000      0.800
    CH26               0.321      0.003    105.574      0.000      0.679
    CH27               0.397      0.004    108.491      0.000      0.603
    CH28               0.280      0.003     92.380      0.000      0.720
    CH29               0.296      0.003     97.493      0.000      0.704
    CH32               0.302      0.003     99.891      0.000      0.698
    CH34               0.368      0.003    114.490      0.000      0.632
    CH35               0.239      0.003     83.173      0.000      0.761
    CH37               0.260      0.003     89.049      0.000      0.740
    CH38               0.364      0.003    121.736      0.000      0.636
    CH39               0.256      0.003     89.272      0.000      0.744
    CH40               0.416      0.003    130.095      0.000      0.584
    CH43               0.171      0.002     71.305      0.000      0.829
    CH44               0.264      0.003     90.176      0.000      0.736
    CH45               0.156      0.002     69.367      0.000      0.844


QUALITY OF NUMERICAL RESULTS

     Condition Number for the Information Matrix              0.146E-06
       (ratio of smallest to largest eigenvalue)


MODEL MODIFICATION INDICES

NOTE:  Modification indices for direct effects of observed dependent variables
regressed on covariates and residual covariances among observed dependent
variables may not be included.  To include these, request MODINDICES (ALL).

Minimum M.I. value for printing the modification index  2000.000

                            M.I.     E.P.C.  Std E.P.C.  StdYX E.P.C.

ON/BY Statements

MT       ON CH       /
CH       BY MT           2448.422     0.287      0.232        0.232
L        ON CH       /
CH       BY L            5075.343    -0.388     -0.183       -0.183
CH       ON MT       /
MT       BY CH           2448.422     0.187      0.232        0.232
CH       ON L        /
L        BY CH           5075.343    -0.086     -0.183       -0.183

WITH Statements

CH       WITH MT         2448.422     0.007      0.232        0.232
CH       WITH L          5075.343    -0.009     -0.183       -0.183


     Beginning Time:  11:14:54
        Ending Time:  11:51:44
       Elapsed Time:  00:36:50



MUTHEN & MUTHEN
3463 Stoner Ave.
Los Angeles, CA  90066

Tel: (310) 391-9971
Fax: (310) 391-8971
Web: www.StatModel.com
Support: Support@StatModel.com

Copyright (c) 1998-2008 Muthen & Muthen
