Mplus VERSION 5.2
MUTHEN & MUTHEN
06/07/2013   5:17 PM

INPUT INSTRUCTIONS

  TITLE:        ENEM 2011
  DATA:        FILE IS DATA.txt;
  VARIABLE:        NAMES ARE mt1-mt45,cn1-cn45,ch1-ch45,l1-l45;
                  CATEGORICAL ARE mt1 mt2 mt6 mt10 mt20-mt22 mt27 mt29
               mt34 mt38 mt40-mt44 l1-l8 l10-l12 l14-l16 l19 l25
              l26 l28 l29 l31 l35-l37 l40 l41 l45 cn2 cn3 cn6-cn8
              cn10 cn16 cn18-cn20 cn24-cn27 cn29-cn30 cn32-cn35 cn37
              cn41 cn42 cn45 ch1-ch6 ch9 ch10 ch13 ch16-ch20
              ch25-ch29 ch32 ch34 ch35 ch37-ch40 ch43-ch45;
              USEVARIABLES ARE mt1 mt2 mt6 mt10 mt20-mt22 mt27 mt29
               mt34 mt38 mt40-mt44 l1-l8 l10-l12 l14-l16 l19 l25
              l26 l28 l29 l31 l35-l37 l40 l41 l45 cn2 cn3 cn6-cn8
               cn10 cn16 cn18-cn20 cn24-cn27 cn29-cn30 cn32-cn35
               cn37 cn41 cn42 cn45 ch1-ch6 ch9 ch10 ch13 ch16-ch20
              ch25-ch29 ch32 ch34 ch35 ch37-ch40 ch43-ch45;
  MODEL:
            MT BY mt1 mt2 mt6 mt10 mt20-mt22 mt27 mt29 mt34 mt38 mt40-mt44;
            L BY l1-l8 l10-l12 l14-l16 l19 l25
              l26 l28 l29 l31 l35-l37 l40 l41 l45;
            CN BY cn2 cn3 cn6-cn8 cn10 cn16 cn18-cn20
              cn24-cn27 cn29-cn30 cn32-cn35 cn37 cn41 cn42 cn45;
            CH BY ch1-ch6 ch9 ch10 ch13 ch16-ch20
              ch25-ch29 ch32 ch34 ch35 ch37-ch40 ch43-ch45;
              GERAL BY mt1 mt2 mt6 mt10 mt20-mt22 mt27 mt29
               mt34 mt38 mt40-mt44 l1-l8 l10-l12 l14-l16 l19 l25
              l26 l28 l29 l31 l35-l37 l40 l41 l45 cn2 cn3 cn6-cn8
              cn10 cn16 cn18-cn20 cn24-cn27 cn29-cn30 cn32-cn35 cn37
              cn41 cn42 cn45 ch1-ch6 ch9 ch10 ch13 ch16-ch20
              ch25-ch29 ch32 ch34 ch35 ch37-ch40 ch43-ch45;
              GERAL WITH MT@0;
              GERAL WITH L@0;
              GERAL WITH CN@0;
              GERAL WITH CH@0;
              MT WITH L@0;
              MT WITH CN@0;
              MT WITH CH@0;
              L WITH CN@0;
              L WITH CH@0;
              CN WITH CH@0;

  OUTPUT: STANDARDIZED;










INPUT READING TERMINATED NORMALLY



ENEM 2011

SUMMARY OF ANALYSIS

Number of groups                                                 1
Number of observations                                      169803

Number of dependent variables                                   95
Number of independent variables                                  0
Number of continuous latent variables                            5

Observed dependent variables

  Binary and ordered categorical (ordinal)
   MT1         MT2         MT6         MT10        MT20        MT21
   MT22        MT27        MT29        MT34        MT38        MT40
   MT41        MT42        MT43        MT44        L1          L2
   L3          L4          L5          L6          L7          L8
   L10         L11         L12         L14         L15         L16
   L19         L25         L26         L28         L29         L31
   L35         L36         L37         L40         L41         L45
   CN2         CN3         CN6         CN7         CN8         CN10
   CN16        CN18        CN19        CN20        CN24        CN25
   CN26        CN27        CN29        CN30        CN32        CN33
   CN34        CN35        CN37        CN41        CN42        CN45
   CH1         CH2         CH3         CH4         CH5         CH6
   CH9         CH10        CH13        CH16        CH17        CH18
   CH19        CH20        CH25        CH26        CH27        CH28
   CH29        CH32        CH34        CH35        CH37        CH38
   CH39        CH40        CH43        CH44        CH45

Continuous latent variables
   MT          L           CN          CH          GERAL


Estimator                                                    WLSMV
Maximum number of iterations                                  1000
Convergence criterion                                    0.500D-04
Maximum number of steepest descent iterations                   20
Parameterization                                             DELTA

Input data file(s)
  DATA.txt

Input data format  FREE


SUMMARY OF CATEGORICAL DATA PROPORTIONS

    MT1
      Category 1    0.518
      Category 2    0.482
    MT2
      Category 1    0.693
      Category 2    0.307
    MT6
      Category 1    0.570
      Category 2    0.430
    MT10
      Category 1    0.511
      Category 2    0.489
    MT20
      Category 1    0.618
      Category 2    0.382
    MT21
      Category 1    0.731
      Category 2    0.269
    MT22
      Category 1    0.679
      Category 2    0.321
    MT27
      Category 1    0.481
      Category 2    0.519
    MT29
      Category 1    0.475
      Category 2    0.525
    MT34
      Category 1    0.599
      Category 2    0.401
    MT38
      Category 1    0.322
      Category 2    0.678
    MT40
      Category 1    0.384
      Category 2    0.616
    MT41
      Category 1    0.570
      Category 2    0.430
    MT42
      Category 1    0.723
      Category 2    0.277
    MT43
      Category 1    0.532
      Category 2    0.468
    MT44
      Category 1    0.119
      Category 2    0.881
    L1
      Category 1    0.424
      Category 2    0.576
    L2
      Category 1    0.530
      Category 2    0.470
    L3
      Category 1    0.361
      Category 2    0.639
    L4
      Category 1    0.872
      Category 2    0.128
    L5
      Category 1    0.510
      Category 2    0.490
    L6
      Category 1    0.662
      Category 2    0.338
    L7
      Category 1    0.644
      Category 2    0.356
    L8
      Category 1    0.874
      Category 2    0.126
    L10
      Category 1    0.762
      Category 2    0.238
    L11
      Category 1    0.550
      Category 2    0.450
    L12
      Category 1    0.702
      Category 2    0.298
    L14
      Category 1    0.518
      Category 2    0.482
    L15
      Category 1    0.590
      Category 2    0.410
    L16
      Category 1    0.518
      Category 2    0.482
    L19
      Category 1    0.767
      Category 2    0.233
    L25
      Category 1    0.708
      Category 2    0.292
    L26
      Category 1    0.538
      Category 2    0.462
    L28
      Category 1    0.644
      Category 2    0.356
    L29
      Category 1    0.675
      Category 2    0.325
    L31
      Category 1    0.709
      Category 2    0.291
    L35
      Category 1    0.646
      Category 2    0.354
    L36
      Category 1    0.570
      Category 2    0.430
    L37
      Category 1    0.500
      Category 2    0.500
    L40
      Category 1    0.439
      Category 2    0.561
    L41
      Category 1    0.432
      Category 2    0.568
    L45
      Category 1    0.650
      Category 2    0.350
    CN2
      Category 1    0.477
      Category 2    0.523
    CN3
      Category 1    0.221
      Category 2    0.779
    CN6
      Category 1    0.756
      Category 2    0.244
    CN7
      Category 1    0.326
      Category 2    0.674
    CN8
      Category 1    0.102
      Category 2    0.898
    CN10
      Category 1    0.435
      Category 2    0.565
    CN16
      Category 1    0.453
      Category 2    0.547
    CN18
      Category 1    0.667
      Category 2    0.333
    CN19
      Category 1    0.372
      Category 2    0.628
    CN20
      Category 1    0.643
      Category 2    0.357
    CN24
      Category 1    0.506
      Category 2    0.494
    CN25
      Category 1    0.465
      Category 2    0.535
    CN26
      Category 1    0.576
      Category 2    0.424
    CN27
      Category 1    0.441
      Category 2    0.559
    CN29
      Category 1    0.596
      Category 2    0.404
    CN30
      Category 1    0.304
      Category 2    0.696
    CN32
      Category 1    0.271
      Category 2    0.729
    CN33
      Category 1    0.631
      Category 2    0.369
    CN34
      Category 1    0.666
      Category 2    0.334
    CN35
      Category 1    0.581
      Category 2    0.419
    CN37
      Category 1    0.489
      Category 2    0.511
    CN41
      Category 1    0.548
      Category 2    0.452
    CN42
      Category 1    0.798
      Category 2    0.202
    CN45
      Category 1    0.484
      Category 2    0.516
    CH1
      Category 1    0.500
      Category 2    0.500
    CH2
      Category 1    0.512
      Category 2    0.488
    CH3
      Category 1    0.500
      Category 2    0.500
    CH4
      Category 1    0.422
      Category 2    0.578
    CH5
      Category 1    0.409
      Category 2    0.591
    CH6
      Category 1    0.509
      Category 2    0.491
    CH9
      Category 1    0.233
      Category 2    0.767
    CH10
      Category 1    0.254
      Category 2    0.746
    CH13
      Category 1    0.433
      Category 2    0.567
    CH16
      Category 1    0.228
      Category 2    0.772
    CH17
      Category 1    0.380
      Category 2    0.620
    CH18
      Category 1    0.404
      Category 2    0.596
    CH19
      Category 1    0.460
      Category 2    0.540
    CH20
      Category 1    0.396
      Category 2    0.604
    CH25
      Category 1    0.378
      Category 2    0.622
    CH26
      Category 1    0.610
      Category 2    0.390
    CH27
      Category 1    0.350
      Category 2    0.650
    CH28
      Category 1    0.527
      Category 2    0.473
    CH29
      Category 1    0.526
      Category 2    0.474
    CH32
      Category 1    0.486
      Category 2    0.514
    CH34
      Category 1    0.367
      Category 2    0.633
    CH35
      Category 1    0.646
      Category 2    0.354
    CH37
      Category 1    0.374
      Category 2    0.626
    CH38
      Category 1    0.479
      Category 2    0.521
    CH39
      Category 1    0.568
      Category 2    0.432
    CH40
      Category 1    0.350
      Category 2    0.650
    CH43
      Category 1    0.542
      Category 2    0.458
    CH44
      Category 1    0.413
      Category 2    0.587
    CH45
      Category 1    0.492
      Category 2    0.508



THE MODEL ESTIMATION TERMINATED NORMALLY

     THE STANDARD ERRORS OF THE MODEL PARAMETER ESTIMATES COULD NOT BE
     COMPUTED.  THE MODEL MAY NOT BE IDENTIFIED.  CHECK YOUR MODEL.
     PROBLEM INVOLVING PARAMETER 124.

     THE CONDITION NUMBER IS       0.404D-14.



MODEL RESULTS

                    Estimate

 MT       BY
    MT1                1.000
    MT2              -23.862
    MT6              -11.209
    MT10               5.066
    MT20               0.198
    MT21             -22.844
    MT22             -16.687
    MT27              14.278
    MT29              32.699
    MT34               8.438
    MT38              62.650
    MT40              48.065
    MT41               8.268
    MT42             -18.107
    MT43              10.410
    MT44              96.400

 L        BY
    L1                 1.000
    L2                 1.176
    L3                 1.012
    L4                 0.821
    L5                 0.588
    L6                 1.106
    L7                 0.911
    L8                 0.826
    L10                1.260
    L11                1.234
    L12                0.912
    L14                1.373
    L15                1.316
    L16                1.182
    L19                0.942
    L25                1.013
    L26                1.242
    L28                1.225
    L29                0.984
    L31                1.143
    L35                1.182
    L36                0.974
    L37                1.332
    L40                1.276
    L41                1.193
    L45                1.111

 CN       BY
    CN2                1.000
    CN3                0.192
    CN6                1.348
    CN7               -0.270
    CN8               -0.808
    CN10               0.275
    CN16               0.995
    CN18               0.436
    CN19               0.164
    CN20               1.502
    CN24               0.543
    CN25               0.197
    CN26               0.869
    CN27               0.638
    CN29               0.851
    CN30               0.023
    CN32               0.029
    CN33               0.639
    CN34               1.001
    CN35               0.836
    CN37               0.315
    CN41               0.856
    CN42               1.282
    CN45              -0.010

 CH       BY
    CH1                1.000
    CH2                1.174
    CH3                0.435
    CH4                1.503
    CH5                1.465
    CH6                1.297
    CH9                2.468
    CH10               1.774
    CH13               1.936
    CH16               2.027
    CH17               1.235
    CH18               1.133
    CH19               1.531
    CH20               0.899
    CH25               1.677
    CH26               0.776
    CH27               2.669
    CH28               1.922
    CH29               1.795
    CH32               1.805
    CH34               2.062
    CH35               0.826
    CH37               1.724
    CH38               1.649
    CH39               1.498
    CH40               2.057
    CH43               0.917
    CH44               1.714
    CH45               0.913

 GERAL    BY
    MT1                1.000
    MT2                0.839
    MT6                0.852
    MT10               0.973
    MT20               0.746
    MT21               0.999
    MT22               0.865
    MT27               0.871
    MT29               0.741
    MT34               0.828
    MT38               0.778
    MT40               1.062
    MT41               0.746
    MT42               0.840
    MT43               0.893
    MT44               0.847
    L1                 0.836
    L2                 0.880
    L3                 0.899
    L4                 0.577
    L5                 0.924
    L6                 0.831
    L7                 0.655
    L8                 0.572
    L10                0.766
    L11                0.776
    L12                0.567
    L14                0.931
    L15                0.898
    L16                0.762
    L19                0.534
    L25                0.522
    L26                0.765
    L28                0.625
    L29                0.548
    L31                0.662
    L35                0.655
    L36                0.627
    L37                0.785
    L40                0.684
    L41                0.777
    L45                0.702
    CN2                0.743
    CN3                1.104
    CN6                0.679
    CN7                0.877
    CN8                0.805
    CN10               0.859
    CN16               0.843
    CN18               0.731
    CN19               0.838
    CN20               0.966
    CN24               0.797
    CN25               0.939
    CN26               0.804
    CN27               1.147
    CN29               0.980
    CN30               0.818
    CN32               0.682
    CN33               1.242
    CN34               0.759
    CN35               0.796
    CN37               1.020
    CN41               0.990
    CN42               0.900
    CN45               1.043
    CH1                0.806
    CH2                0.867
    CH3                0.960
    CH4                0.733
    CH5                0.825
    CH6                0.685
    CH9                1.008
    CH10               0.967
    CH13               0.977
    CH16               0.614
    CH17               0.814
    CH18               0.678
    CH19               0.860
    CH20               0.723
    CH25               0.624
    CH26               0.952
    CH27               0.800
    CH28               0.751
    CH29               0.809
    CH32               0.813
    CH34               0.879
    CH35               0.813
    CH37               0.745
    CH38               0.949
    CH39               0.786
    CH40               0.957
    CH43               0.669
    CH44               0.748
    CH45               0.646

 GERAL    WITH
    MT                 0.000
    L                  0.000
    CN                 0.000
    CH                 0.000

 MT       WITH
    L                  0.000
    CN                 0.000
    CH                 0.000

 L        WITH
    CN                 0.000
    CH                 0.000

 CN       WITH
    CH                 0.000

 Thresholds
    MT1$1              0.044
    MT2$1              0.505
    MT6$1              0.176
    MT10$1             0.029
    MT20$1             0.301
    MT21$1             0.616
    MT22$1             0.464
    MT27$1            -0.049
    MT29$1            -0.062
    MT34$1             0.252
    MT38$1            -0.462
    MT40$1            -0.296
    MT41$1             0.177
    MT42$1             0.593
    MT43$1             0.080
    MT44$1            -1.179
    L1$1              -0.192
    L2$1               0.074
    L3$1              -0.356
    L4$1               1.137
    L5$1               0.025
    L6$1               0.418
    L7$1               0.369
    L8$1               1.148
    L10$1              0.713
    L11$1              0.127
    L12$1              0.529
    L14$1              0.045
    L15$1              0.228
    L16$1              0.046
    L19$1              0.730
    L25$1              0.546
    L26$1              0.095
    L28$1              0.370
    L29$1              0.453
    L31$1              0.552
    L35$1              0.374
    L36$1              0.177
    L37$1              0.001
    L40$1             -0.154
    L41$1             -0.172
    L45$1              0.384
    CN2$1             -0.058
    CN3$1             -0.768
    CN6$1              0.694
    CN7$1             -0.451
    CN8$1             -1.268
    CN10$1            -0.164
    CN16$1            -0.118
    CN18$1             0.432
    CN19$1            -0.327
    CN20$1             0.366
    CN24$1             0.016
    CN25$1            -0.088
    CN26$1             0.192
    CN27$1            -0.149
    CN29$1             0.242
    CN30$1            -0.514
    CN32$1            -0.610
    CN33$1             0.335
    CN34$1             0.430
    CN35$1             0.205
    CN37$1            -0.027
    CN41$1             0.119
    CN42$1             0.834
    CN45$1            -0.039
    CH1$1             -0.001
    CH2$1              0.030
    CH3$1             -0.001
    CH4$1             -0.196
    CH5$1             -0.231
    CH6$1              0.022
    CH9$1             -0.727
    CH10$1            -0.662
    CH13$1            -0.169
    CH16$1            -0.746
    CH17$1            -0.307
    CH18$1            -0.243
    CH19$1            -0.100
    CH20$1            -0.265
    CH25$1            -0.310
    CH26$1             0.280
    CH27$1            -0.384
    CH28$1             0.067
    CH29$1             0.065
    CH32$1            -0.035
    CH34$1            -0.339
    CH35$1             0.373
    CH37$1            -0.322
    CH38$1            -0.052
    CH39$1             0.171
    CH40$1            -0.386
    CH43$1             0.105
    CH44$1            -0.221
    CH45$1            -0.019

 Variances
    MT                 0.000
    L                  0.085
    CN                 0.035
    CH                 0.026
    GERAL              0.327


STANDARDIZED MODEL RESULTS

                      StdYX       StdY        Std
                    Estimate   Estimate   Estimate

 MT       BY
    MT1                0.006      0.006      0.006
    MT2               -0.148     -0.148     -0.148
    MT6               -0.070     -0.070     -0.070
    MT10               0.031      0.031      0.031
    MT20               0.001      0.001      0.001
    MT21              -0.142     -0.142     -0.142
    MT22              -0.104     -0.104     -0.104
    MT27               0.089      0.089      0.089
    MT29               0.203      0.203      0.203
    MT34               0.052      0.052      0.052
    MT38               0.389      0.389      0.389
    MT40               0.298      0.298      0.298
    MT41               0.051      0.051      0.051
    MT42              -0.112     -0.112     -0.112
    MT43               0.065      0.065      0.065
    MT44               0.598      0.598      0.598

 L        BY
    L1                 0.292      0.292      0.292
    L2                 0.343      0.343      0.343
    L3                 0.295      0.295      0.295
    L4                 0.239      0.239      0.239
    L5                 0.171      0.171      0.171
    L6                 0.323      0.323      0.323
    L7                 0.266      0.266      0.266
    L8                 0.241      0.241      0.241
    L10                0.367      0.367      0.367
    L11                0.360      0.360      0.360
    L12                0.266      0.266      0.266
    L14                0.400      0.400      0.400
    L15                0.384      0.384      0.384
    L16                0.345      0.345      0.345
    L19                0.275      0.275      0.275
    L25                0.295      0.295      0.295
    L26                0.362      0.362      0.362
    L28                0.357      0.357      0.357
    L29                0.287      0.287      0.287
    L31                0.333      0.333      0.333
    L35                0.345      0.345      0.345
    L36                0.284      0.284      0.284
    L37                0.388      0.388      0.388
    L40                0.372      0.372      0.372
    L41                0.348      0.348      0.348
    L45                0.324      0.324      0.324

 CN       BY
    CN2                0.188      0.188      0.188
    CN3                0.036      0.036      0.036
    CN6                0.254      0.254      0.254
    CN7               -0.051     -0.051     -0.051
    CN8               -0.152     -0.152     -0.152
    CN10               0.052      0.052      0.052
    CN16               0.187      0.187      0.187
    CN18               0.082      0.082      0.082
    CN19               0.031      0.031      0.031
    CN20               0.283      0.283      0.283
    CN24               0.102      0.102      0.102
    CN25               0.037      0.037      0.037
    CN26               0.164      0.164      0.164
    CN27               0.120      0.120      0.120
    CN29               0.160      0.160      0.160
    CN30               0.004      0.004      0.004
    CN32               0.006      0.006      0.006
    CN33               0.120      0.120      0.120
    CN34               0.188      0.188      0.188
    CN35               0.157      0.157      0.157
    CN37               0.059      0.059      0.059
    CN41               0.161      0.161      0.161
    CN42               0.241      0.241      0.241
    CN45              -0.002     -0.002     -0.002

 CH       BY
    CH1                0.160      0.160      0.160
    CH2                0.188      0.188      0.188
    CH3                0.070      0.070      0.070
    CH4                0.240      0.240      0.240
    CH5                0.234      0.234      0.234
    CH6                0.207      0.207      0.207
    CH9                0.394      0.394      0.394
    CH10               0.284      0.284      0.284
    CH13               0.309      0.309      0.309
    CH16               0.324      0.324      0.324
    CH17               0.197      0.197      0.197
    CH18               0.181      0.181      0.181
    CH19               0.245      0.245      0.245
    CH20               0.144      0.144      0.144
    CH25               0.268      0.268      0.268
    CH26               0.124      0.124      0.124
    CH27               0.426      0.426      0.426
    CH28               0.307      0.307      0.307
    CH29               0.287      0.287      0.287
    CH32               0.289      0.289      0.289
    CH34               0.329      0.329      0.329
    CH35               0.132      0.132      0.132
    CH37               0.276      0.276      0.276
    CH38               0.263      0.263      0.263
    CH39               0.239      0.239      0.239
    CH40               0.329      0.329      0.329
    CH43               0.146      0.146      0.146
    CH44               0.274      0.274      0.274
    CH45               0.146      0.146      0.146

 GERAL    BY
    MT1                0.572      0.572      0.572
    MT2                0.480      0.480      0.480
    MT6                0.487      0.487      0.487
    MT10               0.557      0.557      0.557
    MT20               0.427      0.427      0.427
    MT21               0.571      0.571      0.571
    MT22               0.495      0.495      0.495
    MT27               0.498      0.498      0.498
    MT29               0.424      0.424      0.424
    MT34               0.473      0.473      0.473
    MT38               0.445      0.445      0.445
    MT40               0.607      0.607      0.607
    MT41               0.427      0.427      0.427
    MT42               0.480      0.480      0.480
    MT43               0.511      0.511      0.511
    MT44               0.484      0.484      0.484
    L1                 0.478      0.478      0.478
    L2                 0.503      0.503      0.503
    L3                 0.514      0.514      0.514
    L4                 0.330      0.330      0.330
    L5                 0.528      0.528      0.528
    L6                 0.475      0.475      0.475
    L7                 0.375      0.375      0.375
    L8                 0.327      0.327      0.327
    L10                0.438      0.438      0.438
    L11                0.444      0.444      0.444
    L12                0.325      0.325      0.325
    L14                0.532      0.532      0.532
    L15                0.514      0.514      0.514
    L16                0.436      0.436      0.436
    L19                0.305      0.305      0.305
    L25                0.299      0.299      0.299
    L26                0.437      0.437      0.437
    L28                0.357      0.357      0.357
    L29                0.313      0.313      0.313
    L31                0.379      0.379      0.379
    L35                0.374      0.374      0.374
    L36                0.359      0.359      0.359
    L37                0.449      0.449      0.449
    L40                0.391      0.391      0.391
    L41                0.445      0.445      0.445
    L45                0.401      0.401      0.401
    CN2                0.425      0.425      0.425
    CN3                0.631      0.631      0.631
    CN6                0.388      0.388      0.388
    CN7                0.502      0.502      0.502
    CN8                0.461      0.461      0.461
    CN10               0.491      0.491      0.491
    CN16               0.482      0.482      0.482
    CN18               0.418      0.418      0.418
    CN19               0.480      0.480      0.480
    CN20               0.553      0.553      0.553
    CN24               0.456      0.456      0.456
    CN25               0.537      0.537      0.537
    CN26               0.460      0.460      0.460
    CN27               0.656      0.656      0.656
    CN29               0.561      0.561      0.561
    CN30               0.468      0.468      0.468
    CN32               0.390      0.390      0.390
    CN33               0.710      0.710      0.710
    CN34               0.434      0.434      0.434
    CN35               0.455      0.455      0.455
    CN37               0.583      0.583      0.583
    CN41               0.566      0.566      0.566
    CN42               0.515      0.515      0.515
    CN45               0.597      0.597      0.597
    CH1                0.461      0.461      0.461
    CH2                0.496      0.496      0.496
    CH3                0.549      0.549      0.549
    CH4                0.419      0.419      0.419
    CH5                0.472      0.472      0.472
    CH6                0.392      0.392      0.392
    CH9                0.577      0.577      0.577
    CH10               0.553      0.553      0.553
    CH13               0.559      0.559      0.559
    CH16               0.351      0.351      0.351
    CH17               0.466      0.466      0.466
    CH18               0.388      0.388      0.388
    CH19               0.492      0.492      0.492
    CH20               0.414      0.414      0.414
    CH25               0.357      0.357      0.357
    CH26               0.545      0.545      0.545
    CH27               0.457      0.457      0.457
    CH28               0.430      0.430      0.430
    CH29               0.462      0.462      0.462
    CH32               0.465      0.465      0.465
    CH34               0.503      0.503      0.503
    CH35               0.465      0.465      0.465
    CH37               0.426      0.426      0.426
    CH38               0.543      0.543      0.543
    CH39               0.450      0.450      0.450
    CH40               0.547      0.547      0.547
    CH43               0.383      0.383      0.383
    CH44               0.428      0.428      0.428
    CH45               0.369      0.369      0.369

 GERAL    WITH
    MT                 0.000      0.000      0.000
    L                  0.000      0.000      0.000
    CN                 0.000      0.000      0.000
    CH                 0.000      0.000      0.000

 MT       WITH
    L                  0.000      0.000      0.000
    CN                 0.000      0.000      0.000
    CH                 0.000      0.000      0.000

 L        WITH
    CN                 0.000      0.000      0.000
    CH                 0.000      0.000      0.000

 CN       WITH
    CH                 0.000      0.000      0.000

 Thresholds
    MT1$1              0.044      0.044      0.044
    MT2$1              0.505      0.505      0.505
    MT6$1              0.176      0.176      0.176
    MT10$1             0.029      0.029      0.029
    MT20$1             0.301      0.301      0.301
    MT21$1             0.616      0.616      0.616
    MT22$1             0.464      0.464      0.464
    MT27$1            -0.049     -0.049     -0.049
    MT29$1            -0.062     -0.062     -0.062
    MT34$1             0.252      0.252      0.252
    MT38$1            -0.462     -0.462     -0.462
    MT40$1            -0.296     -0.296     -0.296
    MT41$1             0.177      0.177      0.177
    MT42$1             0.593      0.593      0.593
    MT43$1             0.080      0.080      0.080
    MT44$1            -1.179     -1.179     -1.179
    L1$1              -0.192     -0.192     -0.192
    L2$1               0.074      0.074      0.074
    L3$1              -0.356     -0.356     -0.356
    L4$1               1.137      1.137      1.137
    L5$1               0.025      0.025      0.025
    L6$1               0.418      0.418      0.418
    L7$1               0.369      0.369      0.369
    L8$1               1.148      1.148      1.148
    L10$1              0.713      0.713      0.713
    L11$1              0.127      0.127      0.127
    L12$1              0.529      0.529      0.529
    L14$1              0.045      0.045      0.045
    L15$1              0.228      0.228      0.228
    L16$1              0.046      0.046      0.046
    L19$1              0.730      0.730      0.730
    L25$1              0.546      0.546      0.546
    L26$1              0.095      0.095      0.095
    L28$1              0.370      0.370      0.370
    L29$1              0.453      0.453      0.453
    L31$1              0.552      0.552      0.552
    L35$1              0.374      0.374      0.374
    L36$1              0.177      0.177      0.177
    L37$1              0.001      0.001      0.001
    L40$1             -0.154     -0.154     -0.154
    L41$1             -0.172     -0.172     -0.172
    L45$1              0.384      0.384      0.384
    CN2$1             -0.058     -0.058     -0.058
    CN3$1             -0.768     -0.768     -0.768
    CN6$1              0.694      0.694      0.694
    CN7$1             -0.451     -0.451     -0.451
    CN8$1             -1.268     -1.268     -1.268
    CN10$1            -0.164     -0.164     -0.164
    CN16$1            -0.118     -0.118     -0.118
    CN18$1             0.432      0.432      0.432
    CN19$1            -0.327     -0.327     -0.327
    CN20$1             0.366      0.366      0.366
    CN24$1             0.016      0.016      0.016
    CN25$1            -0.088     -0.088     -0.088
    CN26$1             0.192      0.192      0.192
    CN27$1            -0.149     -0.149     -0.149
    CN29$1             0.242      0.242      0.242
    CN30$1            -0.514     -0.514     -0.514
    CN32$1            -0.610     -0.610     -0.610
    CN33$1             0.335      0.335      0.335
    CN34$1             0.430      0.430      0.430
    CN35$1             0.205      0.205      0.205
    CN37$1            -0.027     -0.027     -0.027
    CN41$1             0.119      0.119      0.119
    CN42$1             0.834      0.834      0.834
    CN45$1            -0.039     -0.039     -0.039
    CH1$1             -0.001     -0.001     -0.001
    CH2$1              0.030      0.030      0.030
    CH3$1             -0.001     -0.001     -0.001
    CH4$1             -0.196     -0.196     -0.196
    CH5$1             -0.231     -0.231     -0.231
    CH6$1              0.022      0.022      0.022
    CH9$1             -0.727     -0.727     -0.727
    CH10$1            -0.662     -0.662     -0.662
    CH13$1            -0.169     -0.169     -0.169
    CH16$1            -0.746     -0.746     -0.746
    CH17$1            -0.307     -0.307     -0.307
    CH18$1            -0.243     -0.243     -0.243
    CH19$1            -0.100     -0.100     -0.100
    CH20$1            -0.265     -0.265     -0.265
    CH25$1            -0.310     -0.310     -0.310
    CH26$1             0.280      0.280      0.280
    CH27$1            -0.384     -0.384     -0.384
    CH28$1             0.067      0.067      0.067
    CH29$1             0.065      0.065      0.065
    CH32$1            -0.035     -0.035     -0.035
    CH34$1            -0.339     -0.339     -0.339
    CH35$1             0.373      0.373      0.373
    CH37$1            -0.322     -0.322     -0.322
    CH38$1            -0.052     -0.052     -0.052
    CH39$1             0.171      0.171      0.171
    CH40$1            -0.386     -0.386     -0.386
    CH43$1             0.105      0.105      0.105
    CH44$1            -0.221     -0.221     -0.221
    CH45$1            -0.019     -0.019     -0.019

 Variances
    MT                 1.000      1.000      1.000
    L                  1.000      1.000      1.000
    CN                 1.000      1.000      1.000
    CH                 1.000      1.000      1.000
    GERAL              1.000      1.000      1.000


TECHNICAL 1 OUTPUT


     PARAMETER SPECIFICATION


           TAU
              MT1$1         MT2$1         MT6$1         MT10$1        MT20$1
              ________      ________      ________      ________      ________
      1           1             2             3             4             5


           TAU
              MT21$1        MT22$1        MT27$1        MT29$1        MT34$1
              ________      ________      ________      ________      ________
      1           6             7             8             9            10


           TAU
              MT38$1        MT40$1        MT41$1        MT42$1        MT43$1
              ________      ________      ________      ________      ________
      1          11            12            13            14            15


           TAU
              MT44$1        L1$1          L2$1          L3$1          L4$1
              ________      ________      ________      ________      ________
      1          16            17            18            19            20


           TAU
              L5$1          L6$1          L7$1          L8$1          L10$1
              ________      ________      ________      ________      ________
      1          21            22            23            24            25


           TAU
              L11$1         L12$1         L14$1         L15$1         L16$1
              ________      ________      ________      ________      ________
      1          26            27            28            29            30


           TAU
              L19$1         L25$1         L26$1         L28$1         L29$1
              ________      ________      ________      ________      ________
      1          31            32            33            34            35


           TAU
              L31$1         L35$1         L36$1         L37$1         L40$1
              ________      ________      ________      ________      ________
      1          36            37            38            39            40


           TAU
              L41$1         L45$1         CN2$1         CN3$1         CN6$1
              ________      ________      ________      ________      ________
      1          41            42            43            44            45


           TAU
              CN7$1         CN8$1         CN10$1        CN16$1        CN18$1
              ________      ________      ________      ________      ________
      1          46            47            48            49            50


           TAU
              CN19$1        CN20$1        CN24$1        CN25$1        CN26$1
              ________      ________      ________      ________      ________
      1          51            52            53            54            55


           TAU
              CN27$1        CN29$1        CN30$1        CN32$1        CN33$1
              ________      ________      ________      ________      ________
      1          56            57            58            59            60


           TAU
              CN34$1        CN35$1        CN37$1        CN41$1        CN42$1
              ________      ________      ________      ________      ________
      1          61            62            63            64            65


           TAU
              CN45$1        CH1$1         CH2$1         CH3$1         CH4$1
              ________      ________      ________      ________      ________
      1          66            67            68            69            70


           TAU
              CH5$1         CH6$1         CH9$1         CH10$1        CH13$1
              ________      ________      ________      ________      ________
      1          71            72            73            74            75


           TAU
              CH16$1        CH17$1        CH18$1        CH19$1        CH20$1
              ________      ________      ________      ________      ________
      1          76            77            78            79            80


           TAU
              CH25$1        CH26$1        CH27$1        CH28$1        CH29$1
              ________      ________      ________      ________      ________
      1          81            82            83            84            85


           TAU
              CH32$1        CH34$1        CH35$1        CH37$1        CH38$1
              ________      ________      ________      ________      ________
      1          86            87            88            89            90


           TAU
              CH39$1        CH40$1        CH43$1        CH44$1        CH45$1
              ________      ________      ________      ________      ________
      1          91            92            93            94            95


           NU
              MT1           MT2           MT6           MT10          MT20
              ________      ________      ________      ________      ________
      1           0             0             0             0             0


           NU
              MT21          MT22          MT27          MT29          MT34
              ________      ________      ________      ________      ________
      1           0             0             0             0             0


           NU
              MT38          MT40          MT41          MT42          MT43
              ________      ________      ________      ________      ________
      1           0             0             0             0             0


           NU
              MT44          L1            L2            L3            L4
              ________      ________      ________      ________      ________
      1           0             0             0             0             0


           NU
              L5            L6            L7            L8            L10
              ________      ________      ________      ________      ________
      1           0             0             0             0             0


           NU
              L11           L12           L14           L15           L16
              ________      ________      ________      ________      ________
      1           0             0             0             0             0


           NU
              L19           L25           L26           L28           L29
              ________      ________      ________      ________      ________
      1           0             0             0             0             0


           NU
              L31           L35           L36           L37           L40
              ________      ________      ________      ________      ________
      1           0             0             0             0             0


           NU
              L41           L45           CN2           CN3           CN6
              ________      ________      ________      ________      ________
      1           0             0             0             0             0


           NU
              CN7           CN8           CN10          CN16          CN18
              ________      ________      ________      ________      ________
      1           0             0             0             0             0


           NU
              CN19          CN20          CN24          CN25          CN26
              ________      ________      ________      ________      ________
      1           0             0             0             0             0


           NU
              CN27          CN29          CN30          CN32          CN33
              ________      ________      ________      ________      ________
      1           0             0             0             0             0


           NU
              CN34          CN35          CN37          CN41          CN42
              ________      ________      ________      ________      ________
      1           0             0             0             0             0


           NU
              CN45          CH1           CH2           CH3           CH4
              ________      ________      ________      ________      ________
      1           0             0             0             0             0


           NU
              CH5           CH6           CH9           CH10          CH13
              ________      ________      ________      ________      ________
      1           0             0             0             0             0


           NU
              CH16          CH17          CH18          CH19          CH20
              ________      ________      ________      ________      ________
      1           0             0             0             0             0


           NU
              CH25          CH26          CH27          CH28          CH29
              ________      ________      ________      ________      ________
      1           0             0             0             0             0


           NU
              CH32          CH34          CH35          CH37          CH38
              ________      ________      ________      ________      ________
      1           0             0             0             0             0


           NU
              CH39          CH40          CH43          CH44          CH45
              ________      ________      ________      ________      ________
      1           0             0             0             0             0


           LAMBDA
              MT            L             CN            CH            GERAL
              ________      ________      ________      ________      ________
 MT1                0             0             0             0             0
 MT2               96             0             0             0            97
 MT6               98             0             0             0            99
 MT10             100             0             0             0           101
 MT20             102             0             0             0           103
 MT21             104             0             0             0           105
 MT22             106             0             0             0           107
 MT27             108             0             0             0           109
 MT29             110             0             0             0           111
 MT34             112             0             0             0           113
 MT38             114             0             0             0           115
 MT40             116             0             0             0           117
 MT41             118             0             0             0           119
 MT42             120             0             0             0           121
 MT43             122             0             0             0           123
 MT44             124             0             0             0           125
 L1                 0             0             0             0           126
 L2                 0           127             0             0           128
 L3                 0           129             0             0           130
 L4                 0           131             0             0           132
 L5                 0           133             0             0           134
 L6                 0           135             0             0           136
 L7                 0           137             0             0           138
 L8                 0           139             0             0           140
 L10                0           141             0             0           142
 L11                0           143             0             0           144
 L12                0           145             0             0           146
 L14                0           147             0             0           148
 L15                0           149             0             0           150
 L16                0           151             0             0           152
 L19                0           153             0             0           154
 L25                0           155             0             0           156
 L26                0           157             0             0           158
 L28                0           159             0             0           160
 L29                0           161             0             0           162
 L31                0           163             0             0           164
 L35                0           165             0             0           166
 L36                0           167             0             0           168
 L37                0           169             0             0           170
 L40                0           171             0             0           172
 L41                0           173             0             0           174
 L45                0           175             0             0           176
 CN2                0             0             0             0           177
 CN3                0             0           178             0           179
 CN6                0             0           180             0           181
 CN7                0             0           182             0           183
 CN8                0             0           184             0           185
 CN10               0             0           186             0           187
 CN16               0             0           188             0           189
 CN18               0             0           190             0           191
 CN19               0             0           192             0           193
 CN20               0             0           194             0           195
 CN24               0             0           196             0           197
 CN25               0             0           198             0           199
 CN26               0             0           200             0           201
 CN27               0             0           202             0           203
 CN29               0             0           204             0           205
 CN30               0             0           206             0           207
 CN32               0             0           208             0           209
 CN33               0             0           210             0           211
 CN34               0             0           212             0           213
 CN35               0             0           214             0           215
 CN37               0             0           216             0           217
 CN41               0             0           218             0           219
 CN42               0             0           220             0           221
 CN45               0             0           222             0           223
 CH1                0             0             0             0           224
 CH2                0             0             0           225           226
 CH3                0             0             0           227           228
 CH4                0             0             0           229           230
 CH5                0             0             0           231           232
 CH6                0             0             0           233           234
 CH9                0             0             0           235           236
 CH10               0             0             0           237           238
 CH13               0             0             0           239           240
 CH16               0             0             0           241           242
 CH17               0             0             0           243           244
 CH18               0             0             0           245           246
 CH19               0             0             0           247           248
 CH20               0             0             0           249           250
 CH25               0             0             0           251           252
 CH26               0             0             0           253           254
 CH27               0             0             0           255           256
 CH28               0             0             0           257           258
 CH29               0             0             0           259           260
 CH32               0             0             0           261           262
 CH34               0             0             0           263           264
 CH35               0             0             0           265           266
 CH37               0             0             0           267           268
 CH38               0             0             0           269           270
 CH39               0             0             0           271           272
 CH40               0             0             0           273           274
 CH43               0             0             0           275           276
 CH44               0             0             0           277           278
 CH45               0             0             0           279           280


           ALPHA
              MT            L             CN            CH            GERAL
              ________      ________      ________      ________      ________
      1           0             0             0             0             0


           BETA
              MT            L             CN            CH            GERAL
              ________      ________      ________      ________      ________
 MT                 0             0             0             0             0
 L                  0             0             0             0             0
 CN                 0             0             0             0             0
 CH                 0             0             0             0             0
 GERAL              0             0             0             0             0


           PSI
              MT            L             CN            CH            GERAL
              ________      ________      ________      ________      ________
 MT               281
 L                  0           282
 CN                 0             0           283
 CH                 0             0             0           284
 GERAL              0             0             0             0           285


     STARTING VALUES


           TAU
              MT1$1         MT2$1         MT6$1         MT10$1        MT20$1
              ________      ________      ________      ________      ________
      1         0.044         0.505         0.176         0.029         0.301


           TAU
              MT21$1        MT22$1        MT27$1        MT29$1        MT34$1
              ________      ________      ________      ________      ________
      1         0.616         0.464        -0.049        -0.062         0.252


           TAU
              MT38$1        MT40$1        MT41$1        MT42$1        MT43$1
              ________      ________      ________      ________      ________
      1        -0.462        -0.296         0.177         0.593         0.080


           TAU
              MT44$1        L1$1          L2$1          L3$1          L4$1
              ________      ________      ________      ________      ________
      1        -1.179        -0.192         0.074        -0.356         1.137


           TAU
              L5$1          L6$1          L7$1          L8$1          L10$1
              ________      ________      ________      ________      ________
      1         0.025         0.418         0.369         1.148         0.713


           TAU
              L11$1         L12$1         L14$1         L15$1         L16$1
              ________      ________      ________      ________      ________
      1         0.127         0.529         0.045         0.228         0.046


           TAU
              L19$1         L25$1         L26$1         L28$1         L29$1
              ________      ________      ________      ________      ________
      1         0.730         0.546         0.095         0.370         0.453


           TAU
              L31$1         L35$1         L36$1         L37$1         L40$1
              ________      ________      ________      ________      ________
      1         0.552         0.374         0.177         0.001        -0.154


           TAU
              L41$1         L45$1         CN2$1         CN3$1         CN6$1
              ________      ________      ________      ________      ________
      1        -0.172         0.384        -0.058        -0.768         0.694


           TAU
              CN7$1         CN8$1         CN10$1        CN16$1        CN18$1
              ________      ________      ________      ________      ________
      1        -0.451        -1.268        -0.164        -0.118         0.432


           TAU
              CN19$1        CN20$1        CN24$1        CN25$1        CN26$1
              ________      ________      ________      ________      ________
      1        -0.327         0.366         0.016        -0.088         0.192


           TAU
              CN27$1        CN29$1        CN30$1        CN32$1        CN33$1
              ________      ________      ________      ________      ________
      1        -0.149         0.242        -0.514        -0.610         0.335


           TAU
              CN34$1        CN35$1        CN37$1        CN41$1        CN42$1
              ________      ________      ________      ________      ________
      1         0.430         0.205        -0.027         0.119         0.834


           TAU
              CN45$1        CH1$1         CH2$1         CH3$1         CH4$1
              ________      ________      ________      ________      ________
      1        -0.039        -0.001         0.030        -0.001        -0.196


           TAU
              CH5$1         CH6$1         CH9$1         CH10$1        CH13$1
              ________      ________      ________      ________      ________
      1        -0.231         0.022        -0.727        -0.662        -0.169


           TAU
              CH16$1        CH17$1        CH18$1        CH19$1        CH20$1
              ________      ________      ________      ________      ________
      1        -0.746        -0.307        -0.243        -0.100        -0.265


           TAU
              CH25$1        CH26$1        CH27$1        CH28$1        CH29$1
              ________      ________      ________      ________      ________
      1        -0.310         0.280        -0.384         0.067         0.065


           TAU
              CH32$1        CH34$1        CH35$1        CH37$1        CH38$1
              ________      ________      ________      ________      ________
      1        -0.035        -0.339         0.373        -0.322        -0.052


           TAU
              CH39$1        CH40$1        CH43$1        CH44$1        CH45$1
              ________      ________      ________      ________      ________
      1         0.171        -0.386         0.105        -0.221        -0.019


           NU
              MT1           MT2           MT6           MT10          MT20
              ________      ________      ________      ________      ________
      1         0.000         0.000         0.000         0.000         0.000


           NU
              MT21          MT22          MT27          MT29          MT34
              ________      ________      ________      ________      ________
      1         0.000         0.000         0.000         0.000         0.000


           NU
              MT38          MT40          MT41          MT42          MT43
              ________      ________      ________      ________      ________
      1         0.000         0.000         0.000         0.000         0.000


           NU
              MT44          L1            L2            L3            L4
              ________      ________      ________      ________      ________
      1         0.000         0.000         0.000         0.000         0.000


           NU
              L5            L6            L7            L8            L10
              ________      ________      ________      ________      ________
      1         0.000         0.000         0.000         0.000         0.000


           NU
              L11           L12           L14           L15           L16
              ________      ________      ________      ________      ________
      1         0.000         0.000         0.000         0.000         0.000


           NU
              L19           L25           L26           L28           L29
              ________      ________      ________      ________      ________
      1         0.000         0.000         0.000         0.000         0.000


           NU
              L31           L35           L36           L37           L40
              ________      ________      ________      ________      ________
      1         0.000         0.000         0.000         0.000         0.000


           NU
              L41           L45           CN2           CN3           CN6
              ________      ________      ________      ________      ________
      1         0.000         0.000         0.000         0.000         0.000


           NU
              CN7           CN8           CN10          CN16          CN18
              ________      ________      ________      ________      ________
      1         0.000         0.000         0.000         0.000         0.000


           NU
              CN19          CN20          CN24          CN25          CN26
              ________      ________      ________      ________      ________
      1         0.000         0.000         0.000         0.000         0.000


           NU
              CN27          CN29          CN30          CN32          CN33
              ________      ________      ________      ________      ________
      1         0.000         0.000         0.000         0.000         0.000


           NU
              CN34          CN35          CN37          CN41          CN42
              ________      ________      ________      ________      ________
      1         0.000         0.000         0.000         0.000         0.000


           NU
              CN45          CH1           CH2           CH3           CH4
              ________      ________      ________      ________      ________
      1         0.000         0.000         0.000         0.000         0.000


           NU
              CH5           CH6           CH9           CH10          CH13
              ________      ________      ________      ________      ________
      1         0.000         0.000         0.000         0.000         0.000


           NU
              CH16          CH17          CH18          CH19          CH20
              ________      ________      ________      ________      ________
      1         0.000         0.000         0.000         0.000         0.000


           NU
              CH25          CH26          CH27          CH28          CH29
              ________      ________      ________      ________      ________
      1         0.000         0.000         0.000         0.000         0.000


           NU
              CH32          CH34          CH35          CH37          CH38
              ________      ________      ________      ________      ________
      1         0.000         0.000         0.000         0.000         0.000


           NU
              CH39          CH40          CH43          CH44          CH45
              ________      ________      ________      ________      ________
      1         0.000         0.000         0.000         0.000         0.000


           LAMBDA
              MT            L             CN            CH            GERAL
              ________      ________      ________      ________      ________
 MT1            1.000         0.000         0.000         0.000         1.000
 MT2            1.000         0.000         0.000         0.000         1.000
 MT6            1.000         0.000         0.000         0.000         1.000
 MT10           1.000         0.000         0.000         0.000         1.000
 MT20           1.000         0.000         0.000         0.000         1.000
 MT21           1.000         0.000         0.000         0.000         1.000
 MT22           1.000         0.000         0.000         0.000         1.000
 MT27           1.000         0.000         0.000         0.000         1.000
 MT29           1.000         0.000         0.000         0.000         1.000
 MT34           1.000         0.000         0.000         0.000         1.000
 MT38           1.000         0.000         0.000         0.000         1.000
 MT40           1.000         0.000         0.000         0.000         1.000
 MT41           1.000         0.000         0.000         0.000         1.000
 MT42           1.000         0.000         0.000         0.000         1.000
 MT43           1.000         0.000         0.000         0.000         1.000
 MT44           1.000         0.000         0.000         0.000         1.000
 L1             0.000         1.000         0.000         0.000         1.000
 L2             0.000         1.000         0.000         0.000         1.000
 L3             0.000         1.000         0.000         0.000         1.000
 L4             0.000         1.000         0.000         0.000         1.000
 L5             0.000         1.000         0.000         0.000         1.000
 L6             0.000         1.000         0.000         0.000         1.000
 L7             0.000         1.000         0.000         0.000         1.000
 L8             0.000         1.000         0.000         0.000         1.000
 L10            0.000         1.000         0.000         0.000         1.000
 L11            0.000         1.000         0.000         0.000         1.000
 L12            0.000         1.000         0.000         0.000         1.000
 L14            0.000         1.000         0.000         0.000         1.000
 L15            0.000         1.000         0.000         0.000         1.000
 L16            0.000         1.000         0.000         0.000         1.000
 L19            0.000         1.000         0.000         0.000         1.000
 L25            0.000         1.000         0.000         0.000         1.000
 L26            0.000         1.000         0.000         0.000         1.000
 L28            0.000         1.000         0.000         0.000         1.000
 L29            0.000         1.000         0.000         0.000         1.000
 L31            0.000         1.000         0.000         0.000         1.000
 L35            0.000         1.000         0.000         0.000         1.000
 L36            0.000         1.000         0.000         0.000         1.000
 L37            0.000         1.000         0.000         0.000         1.000
 L40            0.000         1.000         0.000         0.000         1.000
 L41            0.000         1.000         0.000         0.000         1.000
 L45            0.000         1.000         0.000         0.000         1.000
 CN2            0.000         0.000         1.000         0.000         1.000
 CN3            0.000         0.000         1.000         0.000         1.000
 CN6            0.000         0.000         1.000         0.000         1.000
 CN7            0.000         0.000         1.000         0.000         1.000
 CN8            0.000         0.000         1.000         0.000         1.000
 CN10           0.000         0.000         1.000         0.000         1.000
 CN16           0.000         0.000         1.000         0.000         1.000
 CN18           0.000         0.000         1.000         0.000         1.000
 CN19           0.000         0.000         1.000         0.000         1.000
 CN20           0.000         0.000         1.000         0.000         1.000
 CN24           0.000         0.000         1.000         0.000         1.000
 CN25           0.000         0.000         1.000         0.000         1.000
 CN26           0.000         0.000         1.000         0.000         1.000
 CN27           0.000         0.000         1.000         0.000         1.000
 CN29           0.000         0.000         1.000         0.000         1.000
 CN30           0.000         0.000         1.000         0.000         1.000
 CN32           0.000         0.000         1.000         0.000         1.000
 CN33           0.000         0.000         1.000         0.000         1.000
 CN34           0.000         0.000         1.000         0.000         1.000
 CN35           0.000         0.000         1.000         0.000         1.000
 CN37           0.000         0.000         1.000         0.000         1.000
 CN41           0.000         0.000         1.000         0.000         1.000
 CN42           0.000         0.000         1.000         0.000         1.000
 CN45           0.000         0.000         1.000         0.000         1.000
 CH1            0.000         0.000         0.000         1.000         1.000
 CH2            0.000         0.000         0.000         1.000         1.000
 CH3            0.000         0.000         0.000         1.000         1.000
 CH4            0.000         0.000         0.000         1.000         1.000
 CH5            0.000         0.000         0.000         1.000         1.000
 CH6            0.000         0.000         0.000         1.000         1.000
 CH9            0.000         0.000         0.000         1.000         1.000
 CH10           0.000         0.000         0.000         1.000         1.000
 CH13           0.000         0.000         0.000         1.000         1.000
 CH16           0.000         0.000         0.000         1.000         1.000
 CH17           0.000         0.000         0.000         1.000         1.000
 CH18           0.000         0.000         0.000         1.000         1.000
 CH19           0.000         0.000         0.000         1.000         1.000
 CH20           0.000         0.000         0.000         1.000         1.000
 CH25           0.000         0.000         0.000         1.000         1.000
 CH26           0.000         0.000         0.000         1.000         1.000
 CH27           0.000         0.000         0.000         1.000         1.000
 CH28           0.000         0.000         0.000         1.000         1.000
 CH29           0.000         0.000         0.000         1.000         1.000
 CH32           0.000         0.000         0.000         1.000         1.000
 CH34           0.000         0.000         0.000         1.000         1.000
 CH35           0.000         0.000         0.000         1.000         1.000
 CH37           0.000         0.000         0.000         1.000         1.000
 CH38           0.000         0.000         0.000         1.000         1.000
 CH39           0.000         0.000         0.000         1.000         1.000
 CH40           0.000         0.000         0.000         1.000         1.000
 CH43           0.000         0.000         0.000         1.000         1.000
 CH44           0.000         0.000         0.000         1.000         1.000
 CH45           0.000         0.000         0.000         1.000         1.000


           ALPHA
              MT            L             CN            CH            GERAL
              ________      ________      ________      ________      ________
      1         0.000         0.000         0.000         0.000         0.000


           BETA
              MT            L             CN            CH            GERAL
              ________      ________      ________      ________      ________
 MT             0.000         0.000         0.000         0.000         0.000
 L              0.000         0.000         0.000         0.000         0.000
 CN             0.000         0.000         0.000         0.000         0.000
 CH             0.000         0.000         0.000         0.000         0.000
 GERAL          0.000         0.000         0.000         0.000         0.000


           PSI
              MT            L             CN            CH            GERAL
              ________      ________      ________      ________      ________
 MT             0.050
 L              0.000         0.050
 CN             0.000         0.000         0.050
 CH             0.000         0.000         0.000         0.050
 GERAL          0.000         0.000         0.000         0.000         0.050


     Beginning Time:  17:17:16
        Ending Time:  17:35:28
       Elapsed Time:  00:18:12



MUTHEN & MUTHEN
3463 Stoner Ave.
Los Angeles, CA  90066

Tel: (310) 391-9971
Fax: (310) 391-8971
Web: www.StatModel.com
Support: Support@StatModel.com

Copyright (c) 1998-2008 Muthen & Muthen
