Mplus VERSION 5.2
MUTHEN & MUTHEN
06/22/2013   6:44 PM

INPUT INSTRUCTIONS

  TITLE:        ENEM 2011
  DATA:        FILE IS DATA.txt;
  VARIABLE:        NAMES ARE mt1-mt45,cn1-cn45,ch1-ch45,l1-l45;
                  CATEGORICAL ARE mt1 mt2 mt6 mt10 mt20-mt22 mt27 mt29
               mt34 mt38 mt40-mt44 l1-l8 l10-l12 l14-l16 l19 l25
              l26 l28 l29 l31 l35-l37 l40 l41 l45 cn2 cn3 cn6-cn8
              cn10 cn16 cn18-cn20 cn24-cn27 cn29-cn30 cn32-cn35 cn37
              cn41 cn42 cn45 ch1-ch6 ch9 ch10 ch13 ch16-ch20
              ch25-ch29 ch32 ch34 ch35 ch37-ch40 ch43-ch45;
              USEVARIABLES ARE mt1 mt2 mt6 mt10 mt20-mt22 mt27 mt29
               mt34 mt38 mt40-mt44 l1-l8 l10-l12 l14-l16 l19 l25
              l26 l28 l29 l31 l35-l37 l40 l41 l45 cn2 cn3 cn6-cn8
               cn10 cn16 cn18-cn20 cn24-cn27 cn29-cn30 cn32-cn35
               cn37 cn41 cn42 cn45 ch1-ch6 ch9 ch10 ch13 ch16-ch20
              ch25-ch29 ch32 ch34 ch35 ch37-ch40 ch43-ch45;
  MODEL:

              GERAL BY mt1 mt2 mt6 mt10 mt20-mt22 mt27 mt29
               mt34 mt38 mt40-mt44 l1-l8 l10-l12 l14-l16 l19 l25
              l26 l28 l29 l31 l35-l37 l40 l41 l45 cn2 cn3 cn6-cn8
              cn10 cn16 cn18-cn20 cn24-cn27 cn29-cn30 cn32-cn35 cn37
              cn41 cn42 cn45 ch1-ch6 ch9 ch10 ch13 ch16-ch20
              ch25-ch29 ch32 ch34 ch35 ch37-ch40 ch43-ch45;



  OUTPUT: STANDARDIZED;












INPUT READING TERMINATED NORMALLY



ENEM 2011

SUMMARY OF ANALYSIS

Number of groups                                                 1
Number of observations                                      169803

Number of dependent variables                                   95
Number of independent variables                                  0
Number of continuous latent variables                            1

Observed dependent variables

  Binary and ordered categorical (ordinal)
   MT1         MT2         MT6         MT10        MT20        MT21
   MT22        MT27        MT29        MT34        MT38        MT40
   MT41        MT42        MT43        MT44        L1          L2
   L3          L4          L5          L6          L7          L8
   L10         L11         L12         L14         L15         L16
   L19         L25         L26         L28         L29         L31
   L35         L36         L37         L40         L41         L45
   CN2         CN3         CN6         CN7         CN8         CN10
   CN16        CN18        CN19        CN20        CN24        CN25
   CN26        CN27        CN29        CN30        CN32        CN33
   CN34        CN35        CN37        CN41        CN42        CN45
   CH1         CH2         CH3         CH4         CH5         CH6
   CH9         CH10        CH13        CH16        CH17        CH18
   CH19        CH20        CH25        CH26        CH27        CH28
   CH29        CH32        CH34        CH35        CH37        CH38
   CH39        CH40        CH43        CH44        CH45

Continuous latent variables
   GERAL


Estimator                                                    WLSMV
Maximum number of iterations                                  1000
Convergence criterion                                    0.500D-04
Maximum number of steepest descent iterations                   20
Parameterization                                             DELTA

Input data file(s)
  DATA.txt

Input data format  FREE


SUMMARY OF CATEGORICAL DATA PROPORTIONS

    MT1
      Category 1    0.518
      Category 2    0.482
    MT2
      Category 1    0.693
      Category 2    0.307
    MT6
      Category 1    0.570
      Category 2    0.430
    MT10
      Category 1    0.511
      Category 2    0.489
    MT20
      Category 1    0.618
      Category 2    0.382
    MT21
      Category 1    0.731
      Category 2    0.269
    MT22
      Category 1    0.679
      Category 2    0.321
    MT27
      Category 1    0.481
      Category 2    0.519
    MT29
      Category 1    0.475
      Category 2    0.525
    MT34
      Category 1    0.599
      Category 2    0.401
    MT38
      Category 1    0.322
      Category 2    0.678
    MT40
      Category 1    0.384
      Category 2    0.616
    MT41
      Category 1    0.570
      Category 2    0.430
    MT42
      Category 1    0.723
      Category 2    0.277
    MT43
      Category 1    0.532
      Category 2    0.468
    MT44
      Category 1    0.119
      Category 2    0.881
    L1
      Category 1    0.424
      Category 2    0.576
    L2
      Category 1    0.530
      Category 2    0.470
    L3
      Category 1    0.361
      Category 2    0.639
    L4
      Category 1    0.872
      Category 2    0.128
    L5
      Category 1    0.510
      Category 2    0.490
    L6
      Category 1    0.662
      Category 2    0.338
    L7
      Category 1    0.644
      Category 2    0.356
    L8
      Category 1    0.874
      Category 2    0.126
    L10
      Category 1    0.762
      Category 2    0.238
    L11
      Category 1    0.550
      Category 2    0.450
    L12
      Category 1    0.702
      Category 2    0.298
    L14
      Category 1    0.518
      Category 2    0.482
    L15
      Category 1    0.590
      Category 2    0.410
    L16
      Category 1    0.518
      Category 2    0.482
    L19
      Category 1    0.767
      Category 2    0.233
    L25
      Category 1    0.708
      Category 2    0.292
    L26
      Category 1    0.538
      Category 2    0.462
    L28
      Category 1    0.644
      Category 2    0.356
    L29
      Category 1    0.675
      Category 2    0.325
    L31
      Category 1    0.709
      Category 2    0.291
    L35
      Category 1    0.646
      Category 2    0.354
    L36
      Category 1    0.570
      Category 2    0.430
    L37
      Category 1    0.500
      Category 2    0.500
    L40
      Category 1    0.439
      Category 2    0.561
    L41
      Category 1    0.432
      Category 2    0.568
    L45
      Category 1    0.650
      Category 2    0.350
    CN2
      Category 1    0.477
      Category 2    0.523
    CN3
      Category 1    0.221
      Category 2    0.779
    CN6
      Category 1    0.756
      Category 2    0.244
    CN7
      Category 1    0.326
      Category 2    0.674
    CN8
      Category 1    0.102
      Category 2    0.898
    CN10
      Category 1    0.435
      Category 2    0.565
    CN16
      Category 1    0.453
      Category 2    0.547
    CN18
      Category 1    0.667
      Category 2    0.333
    CN19
      Category 1    0.372
      Category 2    0.628
    CN20
      Category 1    0.643
      Category 2    0.357
    CN24
      Category 1    0.506
      Category 2    0.494
    CN25
      Category 1    0.465
      Category 2    0.535
    CN26
      Category 1    0.576
      Category 2    0.424
    CN27
      Category 1    0.441
      Category 2    0.559
    CN29
      Category 1    0.596
      Category 2    0.404
    CN30
      Category 1    0.304
      Category 2    0.696
    CN32
      Category 1    0.271
      Category 2    0.729
    CN33
      Category 1    0.631
      Category 2    0.369
    CN34
      Category 1    0.666
      Category 2    0.334
    CN35
      Category 1    0.581
      Category 2    0.419
    CN37
      Category 1    0.489
      Category 2    0.511
    CN41
      Category 1    0.548
      Category 2    0.452
    CN42
      Category 1    0.798
      Category 2    0.202
    CN45
      Category 1    0.484
      Category 2    0.516
    CH1
      Category 1    0.500
      Category 2    0.500
    CH2
      Category 1    0.512
      Category 2    0.488
    CH3
      Category 1    0.500
      Category 2    0.500
    CH4
      Category 1    0.422
      Category 2    0.578
    CH5
      Category 1    0.409
      Category 2    0.591
    CH6
      Category 1    0.509
      Category 2    0.491
    CH9
      Category 1    0.233
      Category 2    0.767
    CH10
      Category 1    0.254
      Category 2    0.746
    CH13
      Category 1    0.433
      Category 2    0.567
    CH16
      Category 1    0.228
      Category 2    0.772
    CH17
      Category 1    0.380
      Category 2    0.620
    CH18
      Category 1    0.404
      Category 2    0.596
    CH19
      Category 1    0.460
      Category 2    0.540
    CH20
      Category 1    0.396
      Category 2    0.604
    CH25
      Category 1    0.378
      Category 2    0.622
    CH26
      Category 1    0.610
      Category 2    0.390
    CH27
      Category 1    0.350
      Category 2    0.650
    CH28
      Category 1    0.527
      Category 2    0.473
    CH29
      Category 1    0.526
      Category 2    0.474
    CH32
      Category 1    0.486
      Category 2    0.514
    CH34
      Category 1    0.367
      Category 2    0.633
    CH35
      Category 1    0.646
      Category 2    0.354
    CH37
      Category 1    0.374
      Category 2    0.626
    CH38
      Category 1    0.479
      Category 2    0.521
    CH39
      Category 1    0.568
      Category 2    0.432
    CH40
      Category 1    0.350
      Category 2    0.650
    CH43
      Category 1    0.542
      Category 2    0.458
    CH44
      Category 1    0.413
      Category 2    0.587
    CH45
      Category 1    0.492
      Category 2    0.508



THE MODEL ESTIMATION TERMINATED NORMALLY



TESTS OF MODEL FIT

Chi-Square Test of Model Fit

          Value                         463355.271*
          Degrees of Freedom                  3703**
          P-Value                           0.0000

*   The chi-square value for MLM, MLMV, MLR, ULSMV, WLSM and WLSMV cannot be used
    for chi-square difference tests.  MLM, MLR and WLSM chi-square difference
    testing is described in the Mplus Technical Appendices at www.statmodel.com.
    See chi-square difference testing in the index of the Mplus User's Guide.

**  The degrees of freedom for MLMV, ULSMV and WLSMV are estimated according to
    a formula given in the Mplus Technical Appendices at www.statmodel.com.
    See degrees of freedom in the index of the Mplus User's Guide.

Chi-Square Test of Model Fit for the Baseline Model

          Value                         **********
          Degrees of Freedom                   594
          P-Value                           0.0000

CFI/TLI

          CFI                                0.802
          TLI                                0.968

Number of Free Parameters                      190

RMSEA (Root Mean Square Error Of Approximation)

          Estimate                           0.027

WRMR (Weighted Root Mean Square Residual)

          Value                              9.601



MODEL RESULTS

                                                    Two-Tailed
                    Estimate       S.E.  Est./S.E.    P-Value

 GERAL    BY
    MT1                1.000      0.000    999.000    999.000
    MT2                0.833      0.006    132.223      0.000
    MT6                0.849      0.006    146.908      0.000
    MT10               0.973      0.006    162.290      0.000
    MT20               0.746      0.006    125.937      0.000
    MT21               0.993      0.007    150.168      0.000
    MT22               0.859      0.006    135.808      0.000
    MT27               0.874      0.006    154.689      0.000
    MT29               0.747      0.006    127.423      0.000
    MT34               0.829      0.006    140.194      0.000
    MT38               0.793      0.006    138.497      0.000
    MT40               1.071      0.006    182.581      0.000
    MT41               0.749      0.006    130.437      0.000
    MT42               0.835      0.006    130.184      0.000
    MT43               0.894      0.006    155.013      0.000
    MT44               0.870      0.006    138.291      0.000
    L1                 0.924      0.006    163.608      0.000
    L2                 0.983      0.006    167.418      0.000
    L3                 0.987      0.006    174.477      0.000
    L4                 0.649      0.009     75.561      0.000
    L5                 0.973      0.006    165.022      0.000
    L6                 0.928      0.006    148.828      0.000
    L7                 0.734      0.006    121.947      0.000
    L8                 0.644      0.008     75.816      0.000
    L10                0.877      0.007    127.379      0.000
    L11                0.885      0.006    151.287      0.000
    L12                0.647      0.006    102.671      0.000
    L14                1.053      0.006    176.328      0.000
    L15                1.014      0.006    168.483      0.000
    L16                0.866      0.006    151.053      0.000
    L19                0.616      0.007     91.974      0.000
    L25                0.611      0.006     96.911      0.000
    L26                0.875      0.006    149.144      0.000
    L28                0.733      0.006    121.667      0.000
    L29                0.634      0.006    103.854      0.000
    L31                0.763      0.006    120.074      0.000
    L35                0.759      0.006    125.613      0.000
    L36                0.713      0.006    123.345      0.000
    L37                0.903      0.006    157.108      0.000
    L40                0.797      0.006    142.389      0.000
    L41                0.883      0.006    155.012      0.000
    L45                0.800      0.006    131.813      0.000
    CN2                0.759      0.006    131.987      0.000
    CN3                1.105      0.006    186.665      0.000
    CN6                0.702      0.007    105.431      0.000
    CN7                0.870      0.006    152.176      0.000
    CN8                0.788      0.007    114.562      0.000
    CN10               0.863      0.006    151.124      0.000
    CN16               0.859      0.006    152.713      0.000
    CN18               0.739      0.006    119.816      0.000
    CN19               0.840      0.006    145.293      0.000
    CN20               0.992      0.006    158.163      0.000
    CN24               0.806      0.006    141.352      0.000
    CN25               0.941      0.006    161.718      0.000
    CN26               0.819      0.006    138.182      0.000
    CN27               1.157      0.006    191.895      0.000
    CN29               0.995      0.006    163.352      0.000
    CN30               0.817      0.006    141.970      0.000
    CN32               0.681      0.006    119.827      0.000
    CN33               1.253      0.007    191.893      0.000
    CN34               0.777      0.006    125.825      0.000
    CN35               0.810      0.006    136.070      0.000
    CN37               1.025      0.006    174.861      0.000
    CN41               1.004      0.006    167.624      0.000
    CN42               0.924      0.007    127.642      0.000
    CN45               1.041      0.006    179.915      0.000
    CH1                0.850      0.006    148.629      0.000
    CH2                0.919      0.006    158.475      0.000
    CH3                0.980      0.006    169.314      0.000
    CH4                0.799      0.006    137.042      0.000
    CH5                0.890      0.006    156.335      0.000
    CH6                0.743      0.006    127.874      0.000
    CH9                1.120      0.006    185.453      0.000
    CH10               1.046      0.006    173.533      0.000
    CH13               1.063      0.006    179.895      0.000
    CH16               0.705      0.006    119.030      0.000
    CH17               0.869      0.006    153.131      0.000
    CH18               0.727      0.006    126.716      0.000
    CH19               0.928      0.006    158.591      0.000
    CH20               0.763      0.006    135.114      0.000
    CH25               0.699      0.006    122.512      0.000
    CH26               0.986      0.006    161.887      0.000
    CH27               0.919      0.006    160.055      0.000
    CH28               0.836      0.006    140.846      0.000
    CH29               0.887      0.006    150.498      0.000
    CH32               0.893      0.006    152.553      0.000
    CH34               0.972      0.006    166.147      0.000
    CH35               0.848      0.006    137.882      0.000
    CH37               0.822      0.006    144.598      0.000
    CH38               1.021      0.006    171.188      0.000
    CH39               0.851      0.006    143.003      0.000
    CH40               1.049      0.006    177.248      0.000
    CH43               0.708      0.006    119.481      0.000
    CH44               0.825      0.006    143.009      0.000
    CH45               0.686      0.006    121.074      0.000

 Thresholds
    MT1$1              0.044      0.003     14.514      0.000
    MT2$1              0.505      0.003    158.380      0.000
    MT6$1              0.176      0.003     57.639      0.000
    MT10$1             0.029      0.003      9.423      0.000
    MT20$1             0.301      0.003     97.331      0.000
    MT21$1             0.616      0.003    188.991      0.000
    MT22$1             0.464      0.003    146.589      0.000
    MT27$1            -0.049      0.003    -16.062      0.000
    MT29$1            -0.062      0.003    -20.459      0.000
    MT34$1             0.252      0.003     81.876      0.000
    MT38$1            -0.462      0.003   -146.197      0.000
    MT40$1            -0.296      0.003    -95.741      0.000
    MT41$1             0.177      0.003     57.867      0.000
    MT42$1             0.593      0.003    182.664      0.000
    MT43$1             0.080      0.003     26.364      0.000
    MT44$1            -1.179      0.004   -298.479      0.000
    L1$1              -0.192      0.003    -62.616      0.000
    L2$1               0.074      0.003     24.336      0.000
    L3$1              -0.356      0.003   -114.357      0.000
    L4$1               1.137      0.004    293.361      0.000
    L5$1               0.025      0.003      8.190      0.000
    L6$1               0.418      0.003    132.984      0.000
    L7$1               0.369      0.003    118.485      0.000
    L8$1               1.148      0.004    294.740      0.000
    L10$1              0.713      0.003    213.386      0.000
    L11$1              0.127      0.003     41.548      0.000
    L12$1              0.529      0.003    165.281      0.000
    L14$1              0.045      0.003     14.878      0.000
    L15$1              0.228      0.003     74.220      0.000
    L16$1              0.046      0.003     15.038      0.000
    L19$1              0.730      0.003    217.573      0.000
    L25$1              0.546      0.003    170.023      0.000
    L26$1              0.095      0.003     31.134      0.000
    L28$1              0.370      0.003    118.736      0.000
    L29$1              0.453      0.003    143.358      0.000
    L31$1              0.552      0.003    171.604      0.000
    L35$1              0.374      0.003    119.920      0.000
    L36$1              0.177      0.003     57.862      0.000
    L37$1              0.001      0.003      0.332      0.740
    L40$1             -0.154      0.003    -50.504      0.000
    L41$1             -0.172      0.003    -56.127      0.000
    L45$1              0.384      0.003    122.909      0.000
    CN2$1             -0.058      0.003    -19.163      0.000
    CN3$1             -0.768      0.003   -226.461      0.000
    CN6$1              0.694      0.003    208.804      0.000
    CN7$1             -0.451      0.003   -142.917      0.000
    CN8$1             -1.268      0.004   -307.759      0.000
    CN10$1            -0.164      0.003    -53.801      0.000
    CN16$1            -0.118      0.003    -38.556      0.000
    CN18$1             0.432      0.003    137.404      0.000
    CN19$1            -0.327      0.003   -105.287      0.000
    CN20$1             0.366      0.003    117.373      0.000
    CN24$1             0.016      0.003      5.302      0.000
    CN25$1            -0.088      0.003    -28.882      0.000
    CN26$1             0.192      0.003     62.548      0.000
    CN27$1            -0.149      0.003    -48.720      0.000
    CN29$1             0.242      0.003     78.697      0.000
    CN30$1            -0.514      0.003   -160.958      0.000
    CN32$1            -0.610      0.003   -187.326      0.000
    CN33$1             0.335      0.003    107.911      0.000
    CN34$1             0.430      0.003    136.598      0.000
    CN35$1             0.205      0.003     66.782      0.000
    CN37$1            -0.027      0.003     -8.831      0.000
    CN41$1             0.119      0.003     39.176      0.000
    CN42$1             0.834      0.003    241.194      0.000
    CN45$1            -0.039      0.003    -12.893      0.000
    CH1$1             -0.001      0.003     -0.396      0.692
    CH2$1              0.030      0.003      9.894      0.000
    CH3$1             -0.001      0.003     -0.386      0.700
    CH4$1             -0.196      0.003    -64.147      0.000
    CH5$1             -0.231      0.003    -75.299      0.000
    CH6$1              0.022      0.003      7.317      0.000
    CH9$1             -0.727      0.003   -216.970      0.000
    CH10$1            -0.662      0.003   -200.940      0.000
    CH13$1            -0.169      0.003    -55.226      0.000
    CH16$1            -0.746      0.003   -221.333      0.000
    CH17$1            -0.307      0.003    -99.089      0.000
    CH18$1            -0.243      0.003    -78.919      0.000
    CH19$1            -0.100      0.003    -32.812      0.000
    CH20$1            -0.265      0.003    -86.011      0.000
    CH25$1            -0.310      0.003   -100.122      0.000
    CH26$1             0.280      0.003     90.624      0.000
    CH27$1            -0.384      0.003   -122.942      0.000
    CH28$1             0.067      0.003     21.852      0.000
    CH29$1             0.065      0.003     21.284      0.000
    CH32$1            -0.035      0.003    -11.588      0.000
    CH34$1            -0.339      0.003   -109.098      0.000
    CH35$1             0.373      0.003    119.713      0.000
    CH37$1            -0.322      0.003   -103.945      0.000
    CH38$1            -0.052      0.003    -16.984      0.000
    CH39$1             0.171      0.003     55.773      0.000
    CH40$1            -0.386      0.003   -123.630      0.000
    CH43$1             0.105      0.003     34.525      0.000
    CH44$1            -0.221      0.003    -72.022      0.000
    CH45$1            -0.019      0.003     -6.404      0.000

 Variances
    GERAL              0.310      0.003    115.187      0.000


IRT PARAMETERIZATION IN TWO-PARAMETER PROBIT METRIC
WHERE THE PROBIT IS DISCRIMINATION*(THETA - DIFFICULTY)

 Item Discriminations

 GERAL    BY
    MT1                0.670      0.004    159.054      0.000
    MT2                0.523      0.004    117.827      0.000
    MT6                0.536      0.004    136.860      0.000
    MT10               0.644      0.004    152.931      0.000
    MT20               0.456      0.004    118.343      0.000
    MT21               0.663      0.005    126.216      0.000
    MT22               0.545      0.004    123.475      0.000
    MT27               0.556      0.004    146.589      0.000
    MT29               0.457      0.004    124.261      0.000
    MT34               0.520      0.004    130.782      0.000
    MT38               0.492      0.004    132.905      0.000
    MT40               0.742      0.004    175.020      0.000
    MT41               0.458      0.004    122.613      0.000
    MT42               0.525      0.005    116.193      0.000
    MT43               0.573      0.004    145.445      0.000
    MT44               0.553      0.004    129.123      0.000
    L1                 0.599      0.004    157.507      0.000
    L2                 0.653      0.004    156.030      0.000
    L3                 0.657      0.004    169.618      0.000
    L4                 0.387      0.006     67.667      0.000
    L5                 0.644      0.004    155.155      0.000
    L6                 0.603      0.005    132.565      0.000
    L7                 0.448      0.004    114.239      0.000
    L8                 0.384      0.006     68.348      0.000
    L10                0.559      0.005    110.602      0.000
    L11                0.566      0.004    142.458      0.000
    L12                0.386      0.004     95.964      0.000
    L14                0.723      0.004    164.886      0.000
    L15                0.684      0.004    152.287      0.000
    L16                0.550      0.004    143.454      0.000
    L19                0.365      0.004     85.982      0.000
    L25                0.362      0.004     91.331      0.000
    L26                0.558      0.004    141.510      0.000
    L28                0.447      0.004    114.231      0.000
    L29                0.377      0.004     97.397      0.000
    L31                0.469      0.004    108.849      0.000
    L35                0.466      0.004    118.347      0.000
    L36                0.432      0.004    118.276      0.000
    L37                0.581      0.004    149.259      0.000
    L40                0.495      0.004    137.303      0.000
    L41                0.564      0.004    148.512      0.000
    L45                0.497      0.004    122.174      0.000
    CN2                0.466      0.004    128.051      0.000
    CN3                0.780      0.004    181.606      0.000
    CN6                0.424      0.004     96.820      0.000
    CN7                0.553      0.004    146.783      0.000
    CN8                0.488      0.005    105.356      0.000
    CN10               0.547      0.004    145.327      0.000
    CN16               0.544      0.004    146.782      0.000
    CN18               0.451      0.004    112.895      0.000
    CN19               0.529      0.004    139.760      0.000
    CN20               0.662      0.005    143.214      0.000
    CN24               0.502      0.004    134.938      0.000
    CN25               0.615      0.004    154.584      0.000
    CN26               0.512      0.004    130.875      0.000
    CN27               0.841      0.005    180.299      0.000
    CN29               0.665      0.004    148.979      0.000
    CN30               0.510      0.004    136.342      0.000
    CN32               0.410      0.004    116.178      0.000
    CN33               0.972      0.006    157.216      0.000
    CN34               0.479      0.004    117.459      0.000
    CN35               0.505      0.004    129.375      0.000
    CN37               0.694      0.004    164.067      0.000
    CN41               0.674      0.004    155.679      0.000
    CN42               0.599      0.006    107.250      0.000
    CN45               0.711      0.004    166.923      0.000
    CH1                0.537      0.004    142.115      0.000
    CH2                0.595      0.004    150.036      0.000
    CH3                0.650      0.004    159.206      0.000
    CH4                0.496      0.004    132.634      0.000
    CH5                0.570      0.004    151.071      0.000
    CH6                0.454      0.004    123.894      0.000
    CH9                0.797      0.004    179.124      0.000
    CH10               0.716      0.004    166.300      0.000
    CH13               0.734      0.004    172.325      0.000
    CH16               0.427      0.004    115.418      0.000
    CH17               0.553      0.004    148.353      0.000
    CH18               0.442      0.004    124.287      0.000
    CH19               0.603      0.004    152.102      0.000
    CH20               0.469      0.004    131.761      0.000
    CH25               0.422      0.004    119.611      0.000
    CH26               0.656      0.004    146.588      0.000
    CH27               0.595      0.004    156.492      0.000
    CH28               0.525      0.004    135.959      0.000
    CH29               0.568      0.004    142.987      0.000
    CH32               0.572      0.004    146.617      0.000
    CH34               0.643      0.004    160.353      0.000
    CH35               0.535      0.004    128.112      0.000
    CH37               0.514      0.004    140.885      0.000
    CH38               0.691      0.004    161.882      0.000
    CH39               0.538      0.004    135.432      0.000
    CH40               0.719      0.004    171.366      0.000
    CH43               0.429      0.004    116.853      0.000
    CH44               0.517      0.004    138.516      0.000
    CH45               0.413      0.004    117.939      0.000

 Item Difficulties
    MT1$1              0.079      0.005     14.531      0.000
    MT2$1              1.089      0.010    108.914      0.000
    MT6$1              0.373      0.007     55.205      0.000
    MT10$1             0.053      0.006      9.431      0.000
    MT20$1             0.725      0.009     80.616      0.000
    MT21$1             1.115      0.009    130.443      0.000
    MT22$1             0.970      0.009    107.971      0.000
    MT27$1            -0.101      0.006    -15.943      0.000
    MT29$1            -0.150      0.007    -20.221      0.000
    MT34$1             0.546      0.007     73.756      0.000
    MT38$1            -1.048      0.010   -105.774      0.000
    MT40$1            -0.497      0.006    -87.510      0.000
    MT41$1             0.425      0.008     54.247      0.000
    MT42$1             1.275      0.011    113.820      0.000
    MT43$1             0.161      0.006     26.260      0.000
    MT44$1            -2.435      0.018   -137.508      0.000
    L1$1              -0.373      0.006    -58.909      0.000
    L2$1               0.135      0.006     24.323      0.000
    L3$1              -0.648      0.007    -99.466      0.000
    L4$1               3.149      0.042     74.414      0.000
    L5$1               0.046      0.006      8.197      0.000
    L6$1               0.809      0.008    107.640      0.000
    L7$1               0.904      0.010     89.541      0.000
    L8$1               3.205      0.043     74.877      0.000
    L10$1              1.460      0.012    118.989      0.000
    L11$1              0.257      0.006     40.823      0.000
    L12$1              1.470      0.016     91.264      0.000
    L14$1              0.077      0.005     14.898      0.000
    L15$1              0.404      0.006     71.180      0.000
    L16$1              0.095      0.006     15.047      0.000
    L19$1              2.129      0.024     87.888      0.000
    L25$1              1.605      0.018     87.740      0.000
    L26$1              0.195      0.006     30.824      0.000
    L28$1              0.907      0.010     89.715      0.000
    L29$1              1.283      0.015     87.718      0.000
    L31$1              1.300      0.012    104.607      0.000
    L35$1              0.886      0.010     91.826      0.000
    L36$1              0.446      0.008     53.702      0.000
    L37$1              0.002      0.006      0.332      0.740
    L40$1             -0.348      0.007    -47.773      0.000
    L41$1             -0.349      0.007    -53.166      0.000
    L45$1              0.863      0.009     95.608      0.000
    CN2$1             -0.138      0.007    -18.960      0.000
    CN3$1             -1.249      0.008   -165.232      0.000
    CN6$1              1.776      0.018     99.014      0.000
    CN7$1             -0.932      0.008   -110.078      0.000
    CN8$1             -2.892      0.025   -114.603      0.000
    CN10$1            -0.343      0.007    -50.982      0.000
    CN16$1            -0.246      0.007    -37.334      0.000
    CN18$1             1.052      0.011     95.815      0.000
    CN19$1            -0.699      0.008    -88.379      0.000
    CN20$1             0.663      0.006    102.151      0.000
    CN24$1             0.036      0.007      5.306      0.000
    CN25$1            -0.168      0.006    -28.407      0.000
    CN26$1             0.420      0.007     58.821      0.000
    CN27$1            -0.231      0.005    -47.434      0.000
    CN29$1             0.437      0.006     74.352      0.000
    CN30$1            -1.130      0.010   -112.988      0.000
    CN32$1            -1.609      0.015   -106.025      0.000
    CN33$1             0.481      0.005    102.946      0.000
    CN34$1             0.994      0.010     98.852      0.000
    CN35$1             0.454      0.007     61.992      0.000
    CN37$1            -0.047      0.005     -8.804      0.000
    CN41$1             0.214      0.006     38.845      0.000
    CN42$1             1.623      0.013    122.932      0.000
    CN45$1            -0.068      0.005    -12.834      0.000
    CH1$1             -0.003      0.006     -0.396      0.692
    CH2$1              0.059      0.006      9.902      0.000
    CH3$1             -0.002      0.006     -0.386      0.700
    CH4$1             -0.442      0.007    -59.011      0.000
    CH5$1             -0.467      0.007    -68.958      0.000
    CH6$1              0.054      0.007      7.312      0.000
    CH9$1             -1.167      0.007   -162.037      0.000
    CH10$1            -1.138      0.008   -147.662      0.000
    CH13$1            -0.285      0.005    -53.191      0.000
    CH16$1            -1.901      0.017   -111.733      0.000
    CH17$1            -0.634      0.007    -85.595      0.000
    CH18$1            -0.600      0.009    -68.421      0.000
    CH19$1            -0.194      0.006    -32.170      0.000
    CH20$1            -0.624      0.008    -74.036      0.000
    CH25$1            -0.797      0.010    -79.842      0.000
    CH26$1             0.510      0.006     83.896      0.000
    CH27$1            -0.751      0.007   -102.309      0.000
    CH28$1             0.143      0.007     21.708      0.000
    CH29$1             0.131      0.006     21.214      0.000
    CH32$1            -0.071      0.006    -11.537      0.000
    CH34$1            -0.627      0.007    -95.149      0.000
    CH35$1             0.792      0.008     96.523      0.000
    CH37$1            -0.704      0.008    -87.190      0.000
    CH38$1            -0.091      0.005    -16.873      0.000
    CH39$1             0.360      0.007     53.459      0.000
    CH40$1            -0.662      0.006   -107.422      0.000
    CH43$1             0.267      0.008     33.460      0.000
    CH44$1            -0.482      0.007    -65.490      0.000
    CH45$1            -0.051      0.008     -6.388      0.000

 Variances
    GERAL              1.000      0.000      0.000      1.000


STANDARDIZED MODEL RESULTS


STDYX Standardization

                                                    Two-Tailed
                    Estimate       S.E.  Est./S.E.    P-Value

 GERAL    BY
    MT1                0.556      0.002    230.373      0.000
    MT2                0.463      0.003    150.023      0.000
    MT6                0.472      0.003    176.116      0.000
    MT10               0.542      0.003    216.415      0.000
    MT20               0.415      0.003    142.946      0.000
    MT21               0.553      0.003    181.685      0.000
    MT22               0.478      0.003    160.086      0.000
    MT27               0.486      0.003    191.965      0.000
    MT29               0.416      0.003    150.212      0.000
    MT34               0.461      0.003    166.126      0.000
    MT38               0.441      0.003    165.027      0.000
    MT40               0.596      0.002    271.329      0.000
    MT41               0.417      0.003    148.381      0.000
    MT42               0.465      0.003    148.185      0.000
    MT43               0.497      0.003    193.273      0.000
    MT44               0.484      0.003    168.643      0.000
    L1                 0.514      0.002    214.025      0.000
    L2                 0.547      0.002    222.604      0.000
    L3                 0.549      0.002    242.868      0.000
    L4                 0.361      0.005     77.808      0.000
    L5                 0.542      0.002    219.576      0.000
    L6                 0.516      0.003    180.774      0.000
    L7                 0.409      0.003    137.138      0.000
    L8                 0.358      0.005     78.404      0.000
    L10                0.488      0.003    145.211      0.000
    L11                0.493      0.003    188.081      0.000
    L12                0.360      0.003    110.248      0.000
    L14                0.586      0.002    251.108      0.000
    L15                0.564      0.003    223.455      0.000
    L16                0.482      0.003    186.786      0.000
    L19                0.343      0.004     97.434      0.000
    L25                0.340      0.003    103.287      0.000
    L26                0.487      0.003    185.510      0.000
    L28                0.408      0.003    137.060      0.000
    L29                0.353      0.003    111.240      0.000
    L31                0.424      0.003    132.775      0.000
    L35                0.422      0.003    144.004      0.000
    L36                0.397      0.003    140.376      0.000
    L37                0.502      0.003    199.645      0.000
    L40                0.444      0.003    170.933      0.000
    L41                0.491      0.003    195.715      0.000
    L45                0.445      0.003    152.318      0.000
    CN2                0.423      0.003    155.883      0.000
    CN3                0.615      0.002    292.075      0.000
    CN6                0.391      0.003    114.260      0.000
    CN7                0.484      0.003    191.678      0.000
    CN8                0.439      0.003    130.445      0.000
    CN10               0.480      0.003    188.835      0.000
    CN16               0.478      0.003    190.274      0.000
    CN18               0.411      0.003    135.857      0.000
    CN19               0.467      0.003    178.833      0.000
    CN20               0.552      0.003    205.896      0.000
    CN24               0.449      0.003    168.929      0.000
    CN25               0.524      0.002    212.996      0.000
    CN26               0.456      0.003    165.151      0.000
    CN27               0.644      0.002    307.922      0.000
    CN29               0.554      0.003    214.817      0.000
    CN30               0.455      0.003    171.872      0.000
    CN32               0.379      0.003    135.679      0.000
    CN33               0.697      0.002    305.894      0.000
    CN34               0.432      0.003    144.460      0.000
    CN35               0.451      0.003    162.399      0.000
    CN37               0.570      0.002    243.158      0.000
    CN41               0.559      0.002    226.356      0.000
    CN42               0.514      0.004    145.750      0.000
    CN45               0.579      0.002    251.280      0.000
    CH1                0.473      0.003    183.103      0.000
    CH2                0.511      0.003    203.080      0.000
    CH3                0.545      0.002    226.486      0.000
    CH4                0.444      0.003    165.276      0.000
    CH5                0.495      0.002    200.143      0.000
    CH6                0.413      0.003    149.400      0.000
    CH9                0.623      0.002    292.924      0.000
    CH10               0.582      0.002    251.461      0.000
    CH13               0.592      0.002    265.152      0.000
    CH16               0.392      0.003    136.421      0.000
    CH17               0.484      0.002    193.648      0.000
    CH18               0.405      0.003    148.610      0.000
    CH19               0.516      0.002    207.404      0.000
    CH20               0.424      0.003    160.700      0.000
    CH25               0.389      0.003    140.915      0.000
    CH26               0.549      0.003    209.712      0.000
    CH27               0.511      0.002    211.905      0.000
    CH28               0.465      0.003    173.453      0.000
    CH29               0.494      0.003    189.061      0.000
    CH32               0.497      0.003    194.625      0.000
    CH34               0.541      0.002    226.611      0.000
    CH35               0.472      0.003    164.783      0.000
    CH37               0.457      0.003    178.157      0.000
    CH38               0.568      0.002    239.097      0.000
    CH39               0.474      0.003    174.581      0.000
    CH40               0.584      0.002    259.884      0.000
    CH43               0.394      0.003    138.313      0.000
    CH44               0.459      0.003    175.480      0.000
    CH45               0.382      0.003    138.069      0.000

 Thresholds
    MT1$1              0.044      0.003     14.514      0.000
    MT2$1              0.505      0.003    158.380      0.000
    MT6$1              0.176      0.003     57.639      0.000
    MT10$1             0.029      0.003      9.423      0.000
    MT20$1             0.301      0.003     97.331      0.000
    MT21$1             0.616      0.003    188.991      0.000
    MT22$1             0.464      0.003    146.589      0.000
    MT27$1            -0.049      0.003    -16.062      0.000
    MT29$1            -0.062      0.003    -20.459      0.000
    MT34$1             0.252      0.003     81.876      0.000
    MT38$1            -0.462      0.003   -146.197      0.000
    MT40$1            -0.296      0.003    -95.741      0.000
    MT41$1             0.177      0.003     57.867      0.000
    MT42$1             0.593      0.003    182.664      0.000
    MT43$1             0.080      0.003     26.364      0.000
    MT44$1            -1.179      0.004   -298.479      0.000
    L1$1              -0.192      0.003    -62.616      0.000
    L2$1               0.074      0.003     24.336      0.000
    L3$1              -0.356      0.003   -114.357      0.000
    L4$1               1.137      0.004    293.361      0.000
    L5$1               0.025      0.003      8.190      0.000
    L6$1               0.418      0.003    132.984      0.000
    L7$1               0.369      0.003    118.485      0.000
    L8$1               1.148      0.004    294.740      0.000
    L10$1              0.713      0.003    213.386      0.000
    L11$1              0.127      0.003     41.548      0.000
    L12$1              0.529      0.003    165.281      0.000
    L14$1              0.045      0.003     14.878      0.000
    L15$1              0.228      0.003     74.220      0.000
    L16$1              0.046      0.003     15.038      0.000
    L19$1              0.730      0.003    217.573      0.000
    L25$1              0.546      0.003    170.023      0.000
    L26$1              0.095      0.003     31.134      0.000
    L28$1              0.370      0.003    118.736      0.000
    L29$1              0.453      0.003    143.358      0.000
    L31$1              0.552      0.003    171.604      0.000
    L35$1              0.374      0.003    119.920      0.000
    L36$1              0.177      0.003     57.862      0.000
    L37$1              0.001      0.003      0.332      0.740
    L40$1             -0.154      0.003    -50.504      0.000
    L41$1             -0.172      0.003    -56.127      0.000
    L45$1              0.384      0.003    122.909      0.000
    CN2$1             -0.058      0.003    -19.163      0.000
    CN3$1             -0.768      0.003   -226.461      0.000
    CN6$1              0.694      0.003    208.804      0.000
    CN7$1             -0.451      0.003   -142.917      0.000
    CN8$1             -1.268      0.004   -307.759      0.000
    CN10$1            -0.164      0.003    -53.801      0.000
    CN16$1            -0.118      0.003    -38.556      0.000
    CN18$1             0.432      0.003    137.404      0.000
    CN19$1            -0.327      0.003   -105.287      0.000
    CN20$1             0.366      0.003    117.373      0.000
    CN24$1             0.016      0.003      5.302      0.000
    CN25$1            -0.088      0.003    -28.882      0.000
    CN26$1             0.192      0.003     62.548      0.000
    CN27$1            -0.149      0.003    -48.720      0.000
    CN29$1             0.242      0.003     78.697      0.000
    CN30$1            -0.514      0.003   -160.958      0.000
    CN32$1            -0.610      0.003   -187.326      0.000
    CN33$1             0.335      0.003    107.911      0.000
    CN34$1             0.430      0.003    136.598      0.000
    CN35$1             0.205      0.003     66.782      0.000
    CN37$1            -0.027      0.003     -8.831      0.000
    CN41$1             0.119      0.003     39.176      0.000
    CN42$1             0.834      0.003    241.194      0.000
    CN45$1            -0.039      0.003    -12.893      0.000
    CH1$1             -0.001      0.003     -0.396      0.692
    CH2$1              0.030      0.003      9.894      0.000
    CH3$1             -0.001      0.003     -0.386      0.700
    CH4$1             -0.196      0.003    -64.147      0.000
    CH5$1             -0.231      0.003    -75.299      0.000
    CH6$1              0.022      0.003      7.317      0.000
    CH9$1             -0.727      0.003   -216.970      0.000
    CH10$1            -0.662      0.003   -200.940      0.000
    CH13$1            -0.169      0.003    -55.226      0.000
    CH16$1            -0.746      0.003   -221.333      0.000
    CH17$1            -0.307      0.003    -99.089      0.000
    CH18$1            -0.243      0.003    -78.919      0.000
    CH19$1            -0.100      0.003    -32.812      0.000
    CH20$1            -0.265      0.003    -86.011      0.000
    CH25$1            -0.310      0.003   -100.122      0.000
    CH26$1             0.280      0.003     90.624      0.000
    CH27$1            -0.384      0.003   -122.942      0.000
    CH28$1             0.067      0.003     21.852      0.000
    CH29$1             0.065      0.003     21.284      0.000
    CH32$1            -0.035      0.003    -11.588      0.000
    CH34$1            -0.339      0.003   -109.098      0.000
    CH35$1             0.373      0.003    119.713      0.000
    CH37$1            -0.322      0.003   -103.945      0.000
    CH38$1            -0.052      0.003    -16.984      0.000
    CH39$1             0.171      0.003     55.773      0.000
    CH40$1            -0.386      0.003   -123.630      0.000
    CH43$1             0.105      0.003     34.525      0.000
    CH44$1            -0.221      0.003    -72.022      0.000
    CH45$1            -0.019      0.003     -6.404      0.000

 Variances
    GERAL              1.000      0.000    999.000    999.000


STDY Standardization

                                                    Two-Tailed
                    Estimate       S.E.  Est./S.E.    P-Value

 GERAL    BY
    MT1                0.556      0.002    230.373      0.000
    MT2                0.463      0.003    150.023      0.000
    MT6                0.472      0.003    176.116      0.000
    MT10               0.542      0.003    216.415      0.000
    MT20               0.415      0.003    142.946      0.000
    MT21               0.553      0.003    181.685      0.000
    MT22               0.478      0.003    160.086      0.000
    MT27               0.486      0.003    191.965      0.000
    MT29               0.416      0.003    150.212      0.000
    MT34               0.461      0.003    166.126      0.000
    MT38               0.441      0.003    165.027      0.000
    MT40               0.596      0.002    271.329      0.000
    MT41               0.417      0.003    148.381      0.000
    MT42               0.465      0.003    148.185      0.000
    MT43               0.497      0.003    193.273      0.000
    MT44               0.484      0.003    168.643      0.000
    L1                 0.514      0.002    214.025      0.000
    L2                 0.547      0.002    222.604      0.000
    L3                 0.549      0.002    242.868      0.000
    L4                 0.361      0.005     77.808      0.000
    L5                 0.542      0.002    219.576      0.000
    L6                 0.516      0.003    180.774      0.000
    L7                 0.409      0.003    137.138      0.000
    L8                 0.358      0.005     78.404      0.000
    L10                0.488      0.003    145.211      0.000
    L11                0.493      0.003    188.081      0.000
    L12                0.360      0.003    110.248      0.000
    L14                0.586      0.002    251.108      0.000
    L15                0.564      0.003    223.455      0.000
    L16                0.482      0.003    186.786      0.000
    L19                0.343      0.004     97.434      0.000
    L25                0.340      0.003    103.287      0.000
    L26                0.487      0.003    185.510      0.000
    L28                0.408      0.003    137.060      0.000
    L29                0.353      0.003    111.240      0.000
    L31                0.424      0.003    132.775      0.000
    L35                0.422      0.003    144.004      0.000
    L36                0.397      0.003    140.376      0.000
    L37                0.502      0.003    199.645      0.000
    L40                0.444      0.003    170.933      0.000
    L41                0.491      0.003    195.715      0.000
    L45                0.445      0.003    152.318      0.000
    CN2                0.423      0.003    155.883      0.000
    CN3                0.615      0.002    292.075      0.000
    CN6                0.391      0.003    114.260      0.000
    CN7                0.484      0.003    191.678      0.000
    CN8                0.439      0.003    130.445      0.000
    CN10               0.480      0.003    188.835      0.000
    CN16               0.478      0.003    190.274      0.000
    CN18               0.411      0.003    135.857      0.000
    CN19               0.467      0.003    178.833      0.000
    CN20               0.552      0.003    205.896      0.000
    CN24               0.449      0.003    168.929      0.000
    CN25               0.524      0.002    212.996      0.000
    CN26               0.456      0.003    165.151      0.000
    CN27               0.644      0.002    307.922      0.000
    CN29               0.554      0.003    214.817      0.000
    CN30               0.455      0.003    171.872      0.000
    CN32               0.379      0.003    135.679      0.000
    CN33               0.697      0.002    305.894      0.000
    CN34               0.432      0.003    144.460      0.000
    CN35               0.451      0.003    162.399      0.000
    CN37               0.570      0.002    243.158      0.000
    CN41               0.559      0.002    226.356      0.000
    CN42               0.514      0.004    145.750      0.000
    CN45               0.579      0.002    251.280      0.000
    CH1                0.473      0.003    183.103      0.000
    CH2                0.511      0.003    203.080      0.000
    CH3                0.545      0.002    226.486      0.000
    CH4                0.444      0.003    165.276      0.000
    CH5                0.495      0.002    200.143      0.000
    CH6                0.413      0.003    149.400      0.000
    CH9                0.623      0.002    292.924      0.000
    CH10               0.582      0.002    251.461      0.000
    CH13               0.592      0.002    265.152      0.000
    CH16               0.392      0.003    136.421      0.000
    CH17               0.484      0.002    193.648      0.000
    CH18               0.405      0.003    148.610      0.000
    CH19               0.516      0.002    207.404      0.000
    CH20               0.424      0.003    160.700      0.000
    CH25               0.389      0.003    140.915      0.000
    CH26               0.549      0.003    209.712      0.000
    CH27               0.511      0.002    211.905      0.000
    CH28               0.465      0.003    173.453      0.000
    CH29               0.494      0.003    189.061      0.000
    CH32               0.497      0.003    194.625      0.000
    CH34               0.541      0.002    226.611      0.000
    CH35               0.472      0.003    164.783      0.000
    CH37               0.457      0.003    178.157      0.000
    CH38               0.568      0.002    239.097      0.000
    CH39               0.474      0.003    174.581      0.000
    CH40               0.584      0.002    259.884      0.000
    CH43               0.394      0.003    138.313      0.000
    CH44               0.459      0.003    175.480      0.000
    CH45               0.382      0.003    138.069      0.000

 Thresholds
    MT1$1              0.044      0.003     14.514      0.000
    MT2$1              0.505      0.003    158.380      0.000
    MT6$1              0.176      0.003     57.639      0.000
    MT10$1             0.029      0.003      9.423      0.000
    MT20$1             0.301      0.003     97.331      0.000
    MT21$1             0.616      0.003    188.991      0.000
    MT22$1             0.464      0.003    146.589      0.000
    MT27$1            -0.049      0.003    -16.062      0.000
    MT29$1            -0.062      0.003    -20.459      0.000
    MT34$1             0.252      0.003     81.876      0.000
    MT38$1            -0.462      0.003   -146.197      0.000
    MT40$1            -0.296      0.003    -95.741      0.000
    MT41$1             0.177      0.003     57.867      0.000
    MT42$1             0.593      0.003    182.664      0.000
    MT43$1             0.080      0.003     26.364      0.000
    MT44$1            -1.179      0.004   -298.479      0.000
    L1$1              -0.192      0.003    -62.616      0.000
    L2$1               0.074      0.003     24.336      0.000
    L3$1              -0.356      0.003   -114.357      0.000
    L4$1               1.137      0.004    293.361      0.000
    L5$1               0.025      0.003      8.190      0.000
    L6$1               0.418      0.003    132.984      0.000
    L7$1               0.369      0.003    118.485      0.000
    L8$1               1.148      0.004    294.740      0.000
    L10$1              0.713      0.003    213.386      0.000
    L11$1              0.127      0.003     41.548      0.000
    L12$1              0.529      0.003    165.281      0.000
    L14$1              0.045      0.003     14.878      0.000
    L15$1              0.228      0.003     74.220      0.000
    L16$1              0.046      0.003     15.038      0.000
    L19$1              0.730      0.003    217.573      0.000
    L25$1              0.546      0.003    170.023      0.000
    L26$1              0.095      0.003     31.134      0.000
    L28$1              0.370      0.003    118.736      0.000
    L29$1              0.453      0.003    143.358      0.000
    L31$1              0.552      0.003    171.604      0.000
    L35$1              0.374      0.003    119.920      0.000
    L36$1              0.177      0.003     57.862      0.000
    L37$1              0.001      0.003      0.332      0.740
    L40$1             -0.154      0.003    -50.504      0.000
    L41$1             -0.172      0.003    -56.127      0.000
    L45$1              0.384      0.003    122.909      0.000
    CN2$1             -0.058      0.003    -19.163      0.000
    CN3$1             -0.768      0.003   -226.461      0.000
    CN6$1              0.694      0.003    208.804      0.000
    CN7$1             -0.451      0.003   -142.917      0.000
    CN8$1             -1.268      0.004   -307.759      0.000
    CN10$1            -0.164      0.003    -53.801      0.000
    CN16$1            -0.118      0.003    -38.556      0.000
    CN18$1             0.432      0.003    137.404      0.000
    CN19$1            -0.327      0.003   -105.287      0.000
    CN20$1             0.366      0.003    117.373      0.000
    CN24$1             0.016      0.003      5.302      0.000
    CN25$1            -0.088      0.003    -28.882      0.000
    CN26$1             0.192      0.003     62.548      0.000
    CN27$1            -0.149      0.003    -48.720      0.000
    CN29$1             0.242      0.003     78.697      0.000
    CN30$1            -0.514      0.003   -160.958      0.000
    CN32$1            -0.610      0.003   -187.326      0.000
    CN33$1             0.335      0.003    107.911      0.000
    CN34$1             0.430      0.003    136.598      0.000
    CN35$1             0.205      0.003     66.782      0.000
    CN37$1            -0.027      0.003     -8.831      0.000
    CN41$1             0.119      0.003     39.176      0.000
    CN42$1             0.834      0.003    241.194      0.000
    CN45$1            -0.039      0.003    -12.893      0.000
    CH1$1             -0.001      0.003     -0.396      0.692
    CH2$1              0.030      0.003      9.894      0.000
    CH3$1             -0.001      0.003     -0.386      0.700
    CH4$1             -0.196      0.003    -64.147      0.000
    CH5$1             -0.231      0.003    -75.299      0.000
    CH6$1              0.022      0.003      7.317      0.000
    CH9$1             -0.727      0.003   -216.970      0.000
    CH10$1            -0.662      0.003   -200.940      0.000
    CH13$1            -0.169      0.003    -55.226      0.000
    CH16$1            -0.746      0.003   -221.333      0.000
    CH17$1            -0.307      0.003    -99.089      0.000
    CH18$1            -0.243      0.003    -78.919      0.000
    CH19$1            -0.100      0.003    -32.812      0.000
    CH20$1            -0.265      0.003    -86.011      0.000
    CH25$1            -0.310      0.003   -100.122      0.000
    CH26$1             0.280      0.003     90.624      0.000
    CH27$1            -0.384      0.003   -122.942      0.000
    CH28$1             0.067      0.003     21.852      0.000
    CH29$1             0.065      0.003     21.284      0.000
    CH32$1            -0.035      0.003    -11.588      0.000
    CH34$1            -0.339      0.003   -109.098      0.000
    CH35$1             0.373      0.003    119.713      0.000
    CH37$1            -0.322      0.003   -103.945      0.000
    CH38$1            -0.052      0.003    -16.984      0.000
    CH39$1             0.171      0.003     55.773      0.000
    CH40$1            -0.386      0.003   -123.630      0.000
    CH43$1             0.105      0.003     34.525      0.000
    CH44$1            -0.221      0.003    -72.022      0.000
    CH45$1            -0.019      0.003     -6.404      0.000

 Variances
    GERAL              1.000      0.000    999.000    999.000


STD Standardization

                                                    Two-Tailed
                    Estimate       S.E.  Est./S.E.    P-Value

 GERAL    BY
    MT1                0.556      0.002    230.373      0.000
    MT2                0.463      0.003    150.023      0.000
    MT6                0.472      0.003    176.116      0.000
    MT10               0.542      0.003    216.415      0.000
    MT20               0.415      0.003    142.946      0.000
    MT21               0.553      0.003    181.685      0.000
    MT22               0.478      0.003    160.086      0.000
    MT27               0.486      0.003    191.965      0.000
    MT29               0.416      0.003    150.212      0.000
    MT34               0.461      0.003    166.126      0.000
    MT38               0.441      0.003    165.027      0.000
    MT40               0.596      0.002    271.329      0.000
    MT41               0.417      0.003    148.381      0.000
    MT42               0.465      0.003    148.185      0.000
    MT43               0.497      0.003    193.273      0.000
    MT44               0.484      0.003    168.643      0.000
    L1                 0.514      0.002    214.025      0.000
    L2                 0.547      0.002    222.604      0.000
    L3                 0.549      0.002    242.868      0.000
    L4                 0.361      0.005     77.808      0.000
    L5                 0.542      0.002    219.576      0.000
    L6                 0.516      0.003    180.774      0.000
    L7                 0.409      0.003    137.138      0.000
    L8                 0.358      0.005     78.404      0.000
    L10                0.488      0.003    145.211      0.000
    L11                0.493      0.003    188.081      0.000
    L12                0.360      0.003    110.248      0.000
    L14                0.586      0.002    251.108      0.000
    L15                0.564      0.003    223.455      0.000
    L16                0.482      0.003    186.786      0.000
    L19                0.343      0.004     97.434      0.000
    L25                0.340      0.003    103.287      0.000
    L26                0.487      0.003    185.510      0.000
    L28                0.408      0.003    137.060      0.000
    L29                0.353      0.003    111.240      0.000
    L31                0.424      0.003    132.775      0.000
    L35                0.422      0.003    144.004      0.000
    L36                0.397      0.003    140.376      0.000
    L37                0.502      0.003    199.645      0.000
    L40                0.444      0.003    170.933      0.000
    L41                0.491      0.003    195.715      0.000
    L45                0.445      0.003    152.318      0.000
    CN2                0.423      0.003    155.883      0.000
    CN3                0.615      0.002    292.075      0.000
    CN6                0.391      0.003    114.260      0.000
    CN7                0.484      0.003    191.678      0.000
    CN8                0.439      0.003    130.445      0.000
    CN10               0.480      0.003    188.835      0.000
    CN16               0.478      0.003    190.274      0.000
    CN18               0.411      0.003    135.857      0.000
    CN19               0.467      0.003    178.833      0.000
    CN20               0.552      0.003    205.896      0.000
    CN24               0.449      0.003    168.929      0.000
    CN25               0.524      0.002    212.996      0.000
    CN26               0.456      0.003    165.151      0.000
    CN27               0.644      0.002    307.922      0.000
    CN29               0.554      0.003    214.817      0.000
    CN30               0.455      0.003    171.872      0.000
    CN32               0.379      0.003    135.679      0.000
    CN33               0.697      0.002    305.894      0.000
    CN34               0.432      0.003    144.460      0.000
    CN35               0.451      0.003    162.399      0.000
    CN37               0.570      0.002    243.158      0.000
    CN41               0.559      0.002    226.356      0.000
    CN42               0.514      0.004    145.750      0.000
    CN45               0.579      0.002    251.280      0.000
    CH1                0.473      0.003    183.103      0.000
    CH2                0.511      0.003    203.080      0.000
    CH3                0.545      0.002    226.486      0.000
    CH4                0.444      0.003    165.276      0.000
    CH5                0.495      0.002    200.143      0.000
    CH6                0.413      0.003    149.400      0.000
    CH9                0.623      0.002    292.924      0.000
    CH10               0.582      0.002    251.461      0.000
    CH13               0.592      0.002    265.152      0.000
    CH16               0.392      0.003    136.421      0.000
    CH17               0.484      0.002    193.648      0.000
    CH18               0.405      0.003    148.610      0.000
    CH19               0.516      0.002    207.404      0.000
    CH20               0.424      0.003    160.700      0.000
    CH25               0.389      0.003    140.915      0.000
    CH26               0.549      0.003    209.712      0.000
    CH27               0.511      0.002    211.905      0.000
    CH28               0.465      0.003    173.453      0.000
    CH29               0.494      0.003    189.061      0.000
    CH32               0.497      0.003    194.625      0.000
    CH34               0.541      0.002    226.611      0.000
    CH35               0.472      0.003    164.783      0.000
    CH37               0.457      0.003    178.157      0.000
    CH38               0.568      0.002    239.097      0.000
    CH39               0.474      0.003    174.581      0.000
    CH40               0.584      0.002    259.884      0.000
    CH43               0.394      0.003    138.313      0.000
    CH44               0.459      0.003    175.480      0.000
    CH45               0.382      0.003    138.069      0.000

 Thresholds
    MT1$1              0.044      0.003     14.514      0.000
    MT2$1              0.505      0.003    158.380      0.000
    MT6$1              0.176      0.003     57.639      0.000
    MT10$1             0.029      0.003      9.423      0.000
    MT20$1             0.301      0.003     97.331      0.000
    MT21$1             0.616      0.003    188.991      0.000
    MT22$1             0.464      0.003    146.589      0.000
    MT27$1            -0.049      0.003    -16.062      0.000
    MT29$1            -0.062      0.003    -20.459      0.000
    MT34$1             0.252      0.003     81.876      0.000
    MT38$1            -0.462      0.003   -146.197      0.000
    MT40$1            -0.296      0.003    -95.741      0.000
    MT41$1             0.177      0.003     57.867      0.000
    MT42$1             0.593      0.003    182.664      0.000
    MT43$1             0.080      0.003     26.364      0.000
    MT44$1            -1.179      0.004   -298.479      0.000
    L1$1              -0.192      0.003    -62.616      0.000
    L2$1               0.074      0.003     24.336      0.000
    L3$1              -0.356      0.003   -114.357      0.000
    L4$1               1.137      0.004    293.361      0.000
    L5$1               0.025      0.003      8.190      0.000
    L6$1               0.418      0.003    132.984      0.000
    L7$1               0.369      0.003    118.485      0.000
    L8$1               1.148      0.004    294.740      0.000
    L10$1              0.713      0.003    213.386      0.000
    L11$1              0.127      0.003     41.548      0.000
    L12$1              0.529      0.003    165.281      0.000
    L14$1              0.045      0.003     14.878      0.000
    L15$1              0.228      0.003     74.220      0.000
    L16$1              0.046      0.003     15.038      0.000
    L19$1              0.730      0.003    217.573      0.000
    L25$1              0.546      0.003    170.023      0.000
    L26$1              0.095      0.003     31.134      0.000
    L28$1              0.370      0.003    118.736      0.000
    L29$1              0.453      0.003    143.358      0.000
    L31$1              0.552      0.003    171.604      0.000
    L35$1              0.374      0.003    119.920      0.000
    L36$1              0.177      0.003     57.862      0.000
    L37$1              0.001      0.003      0.332      0.740
    L40$1             -0.154      0.003    -50.504      0.000
    L41$1             -0.172      0.003    -56.127      0.000
    L45$1              0.384      0.003    122.909      0.000
    CN2$1             -0.058      0.003    -19.163      0.000
    CN3$1             -0.768      0.003   -226.461      0.000
    CN6$1              0.694      0.003    208.804      0.000
    CN7$1             -0.451      0.003   -142.917      0.000
    CN8$1             -1.268      0.004   -307.759      0.000
    CN10$1            -0.164      0.003    -53.801      0.000
    CN16$1            -0.118      0.003    -38.556      0.000
    CN18$1             0.432      0.003    137.404      0.000
    CN19$1            -0.327      0.003   -105.287      0.000
    CN20$1             0.366      0.003    117.373      0.000
    CN24$1             0.016      0.003      5.302      0.000
    CN25$1            -0.088      0.003    -28.882      0.000
    CN26$1             0.192      0.003     62.548      0.000
    CN27$1            -0.149      0.003    -48.720      0.000
    CN29$1             0.242      0.003     78.697      0.000
    CN30$1            -0.514      0.003   -160.958      0.000
    CN32$1            -0.610      0.003   -187.326      0.000
    CN33$1             0.335      0.003    107.911      0.000
    CN34$1             0.430      0.003    136.598      0.000
    CN35$1             0.205      0.003     66.782      0.000
    CN37$1            -0.027      0.003     -8.831      0.000
    CN41$1             0.119      0.003     39.176      0.000
    CN42$1             0.834      0.003    241.194      0.000
    CN45$1            -0.039      0.003    -12.893      0.000
    CH1$1             -0.001      0.003     -0.396      0.692
    CH2$1              0.030      0.003      9.894      0.000
    CH3$1             -0.001      0.003     -0.386      0.700
    CH4$1             -0.196      0.003    -64.147      0.000
    CH5$1             -0.231      0.003    -75.299      0.000
    CH6$1              0.022      0.003      7.317      0.000
    CH9$1             -0.727      0.003   -216.970      0.000
    CH10$1            -0.662      0.003   -200.940      0.000
    CH13$1            -0.169      0.003    -55.226      0.000
    CH16$1            -0.746      0.003   -221.333      0.000
    CH17$1            -0.307      0.003    -99.089      0.000
    CH18$1            -0.243      0.003    -78.919      0.000
    CH19$1            -0.100      0.003    -32.812      0.000
    CH20$1            -0.265      0.003    -86.011      0.000
    CH25$1            -0.310      0.003   -100.122      0.000
    CH26$1             0.280      0.003     90.624      0.000
    CH27$1            -0.384      0.003   -122.942      0.000
    CH28$1             0.067      0.003     21.852      0.000
    CH29$1             0.065      0.003     21.284      0.000
    CH32$1            -0.035      0.003    -11.588      0.000
    CH34$1            -0.339      0.003   -109.098      0.000
    CH35$1             0.373      0.003    119.713      0.000
    CH37$1            -0.322      0.003   -103.945      0.000
    CH38$1            -0.052      0.003    -16.984      0.000
    CH39$1             0.171      0.003     55.773      0.000
    CH40$1            -0.386      0.003   -123.630      0.000
    CH43$1             0.105      0.003     34.525      0.000
    CH44$1            -0.221      0.003    -72.022      0.000
    CH45$1            -0.019      0.003     -6.404      0.000

 Variances
    GERAL              1.000      0.000    999.000    999.000


R-SQUARE

    Observed                                        Two-Tailed   Residual
    Variable        Estimate       S.E.  Est./S.E.    P-Value    Variance

    MT1                0.310      0.003    115.187      0.000      0.690
    MT2                0.215      0.003     75.011      0.000      0.785
    MT6                0.223      0.003     88.058      0.000      0.777
    MT10               0.293      0.003    108.207      0.000      0.707
    MT20               0.172      0.002     71.473      0.000      0.828
    MT21               0.305      0.003     90.843      0.000      0.695
    MT22               0.229      0.003     80.043      0.000      0.771
    MT27               0.236      0.002     95.983      0.000      0.764
    MT29               0.173      0.002     75.106      0.000      0.827
    MT34               0.213      0.003     83.063      0.000      0.787
    MT38               0.195      0.002     82.513      0.000      0.805
    MT40               0.355      0.003    135.665      0.000      0.645
    MT41               0.174      0.002     74.190      0.000      0.826
    MT42               0.216      0.003     74.093      0.000      0.784
    MT43               0.247      0.003     96.636      0.000      0.753
    MT44               0.234      0.003     84.321      0.000      0.766
    L1                 0.264      0.002    107.013      0.000      0.736
    L2                 0.299      0.003    111.302      0.000      0.701
    L3                 0.302      0.002    121.434      0.000      0.698
    L4                 0.130      0.003     38.904      0.000      0.870
    L5                 0.293      0.003    109.788      0.000      0.707
    L6                 0.267      0.003     90.387      0.000      0.733
    L7                 0.167      0.002     68.569      0.000      0.833
    L8                 0.128      0.003     39.202      0.000      0.872
    L10                0.238      0.003     72.605      0.000      0.762
    L11                0.243      0.003     94.040      0.000      0.757
    L12                0.130      0.002     55.124      0.000      0.870
    L14                0.343      0.003    125.554      0.000      0.657
    L15                0.318      0.003    111.728      0.000      0.682
    L16                0.232      0.002     93.393      0.000      0.768
    L19                0.118      0.002     48.717      0.000      0.882
    L25                0.116      0.002     51.643      0.000      0.884
    L26                0.237      0.003     92.755      0.000      0.763
    L28                0.167      0.002     68.530      0.000      0.833
    L29                0.124      0.002     55.620      0.000      0.876
    L31                0.180      0.003     66.387      0.000      0.820
    L35                0.178      0.002     72.002      0.000      0.822
    L36                0.157      0.002     70.188      0.000      0.843
    L37                0.252      0.003     99.822      0.000      0.748
    L40                0.197      0.002     85.466      0.000      0.803
    L41                0.241      0.002     97.857      0.000      0.759
    L45                0.198      0.003     76.159      0.000      0.802
    CN2                0.179      0.002     77.942      0.000      0.821
    CN3                0.378      0.003    146.038      0.000      0.622
    CN6                0.153      0.003     57.130      0.000      0.847
    CN7                0.234      0.002     95.839      0.000      0.766
    CN8                0.192      0.003     65.223      0.000      0.808
    CN10               0.230      0.002     94.418      0.000      0.770
    CN16               0.229      0.002     95.137      0.000      0.771
    CN18               0.169      0.002     67.928      0.000      0.831
    CN19               0.218      0.002     89.416      0.000      0.782
    CN20               0.304      0.003    102.948      0.000      0.696
    CN24               0.201      0.002     84.464      0.000      0.799
    CN25               0.274      0.003    106.498      0.000      0.726
    CN26               0.208      0.003     82.576      0.000      0.792
    CN27               0.414      0.003    153.961      0.000      0.586
    CN29               0.306      0.003    107.409      0.000      0.694
    CN30               0.207      0.002     85.936      0.000      0.793
    CN32               0.144      0.002     67.840      0.000      0.856
    CN33               0.486      0.003    152.947      0.000      0.514
    CN34               0.187      0.003     72.230      0.000      0.813
    CN35               0.203      0.003     81.200      0.000      0.797
    CN37               0.325      0.003    121.579      0.000      0.675
    CN41               0.312      0.003    113.178      0.000      0.688
    CN42               0.264      0.004     72.875      0.000      0.736
    CN45               0.336      0.003    125.640      0.000      0.664
    CH1                0.224      0.002     91.551      0.000      0.776
    CH2                0.261      0.003    101.540      0.000      0.739
    CH3                0.297      0.003    113.243      0.000      0.703
    CH4                0.197      0.002     82.638      0.000      0.803
    CH5                0.245      0.002    100.072      0.000      0.755
    CH6                0.171      0.002     74.700      0.000      0.829
    CH9                0.388      0.003    146.462      0.000      0.612
    CH10               0.339      0.003    125.730      0.000      0.661
    CH13               0.350      0.003    132.576      0.000      0.650
    CH16               0.154      0.002     68.211      0.000      0.846
    CH17               0.234      0.002     96.824      0.000      0.766
    CH18               0.164      0.002     74.305      0.000      0.836
    CH19               0.267      0.003    103.702      0.000      0.733
    CH20               0.180      0.002     80.350      0.000      0.820
    CH25               0.151      0.002     70.457      0.000      0.849
    CH26               0.301      0.003    104.856      0.000      0.699
    CH27               0.261      0.002    105.952      0.000      0.739
    CH28               0.216      0.002     86.726      0.000      0.784
    CH29               0.244      0.003     94.531      0.000      0.756
    CH32               0.247      0.003     97.312      0.000      0.753
    CH34               0.292      0.003    113.306      0.000      0.708
    CH35               0.223      0.003     82.391      0.000      0.777
    CH37               0.209      0.002     89.079      0.000      0.791
    CH38               0.323      0.003    119.549      0.000      0.677
    CH39               0.224      0.003     87.291      0.000      0.776
    CH40               0.341      0.003    129.942      0.000      0.659
    CH43               0.155      0.002     69.156      0.000      0.845
    CH44               0.211      0.002     87.740      0.000      0.789
    CH45               0.146      0.002     69.035      0.000      0.854


QUALITY OF NUMERICAL RESULTS

     Condition Number for the Information Matrix              0.379E-04
       (ratio of smallest to largest eigenvalue)


     Beginning Time:  18:44:53
        Ending Time:  19:21:58
       Elapsed Time:  00:37:05



MUTHEN & MUTHEN
3463 Stoner Ave.
Los Angeles, CA  90066

Tel: (310) 391-9971
Fax: (310) 391-8971
Web: www.StatModel.com
Support: Support@StatModel.com

Copyright (c) 1998-2008 Muthen & Muthen
