TITLE:	ENEM 2011
DATA:	FILE IS DATA.txt;
VARIABLE:	NAMES ARE mt1-mt45,cn1-cn45,ch1-ch45,l1-l45;
        	CATEGORICAL ARE l1-l45;
            USEVARIABLES ARE l1-l45;
MODEL:
          L BY l1-l45;
          

OUTPUT: STANDARDIZED;







