Mplus VERSION 5.2
MUTHEN & MUTHEN
06/06/2013   6:36 PM

INPUT INSTRUCTIONS

  TITLE:        ENEM 2011
  DATA:        FILE IS DATA.txt;
  VARIABLE:        NAMES ARE mt1-mt45,cn1-cn45,ch1-ch45,l1-l45;
                  CATEGORICAL ARE l1-l8 l10-l12 l14-l16 l19 l25
              l26 l28 l29 l31 l35-l37 l40 l41 l45;
              USEVARIABLES ARE l1-l8 l10-l12 l14-l16 l19 l25
              l26 l28 l29 l31 l35-l37 l40 l41 l45;
  MODEL:
            L BY l1-l8 l10-l12 l14-l16 l19 l25
              l26 l28 l29 l31 l35-l37 l40 l41 l45;


  OUTPUT: STANDARDIZED;










INPUT READING TERMINATED NORMALLY



ENEM 2011

SUMMARY OF ANALYSIS

Number of groups                                                 1
Number of observations                                      169803

Number of dependent variables                                   26
Number of independent variables                                  0
Number of continuous latent variables                            1

Observed dependent variables

  Binary and ordered categorical (ordinal)
   L1          L2          L3          L4          L5          L6
   L7          L8          L10         L11         L12         L14
   L15         L16         L19         L25         L26         L28
   L29         L31         L35         L36         L37         L40
   L41         L45

Continuous latent variables
   L


Estimator                                                    WLSMV
Maximum number of iterations                                  1000
Convergence criterion                                    0.500D-04
Maximum number of steepest descent iterations                   20
Parameterization                                             DELTA

Input data file(s)
  DATA.txt

Input data format  FREE


SUMMARY OF CATEGORICAL DATA PROPORTIONS

    L1
      Category 1    0.424
      Category 2    0.576
    L2
      Category 1    0.530
      Category 2    0.470
    L3
      Category 1    0.361
      Category 2    0.639
    L4
      Category 1    0.872
      Category 2    0.128
    L5
      Category 1    0.510
      Category 2    0.490
    L6
      Category 1    0.662
      Category 2    0.338
    L7
      Category 1    0.644
      Category 2    0.356
    L8
      Category 1    0.874
      Category 2    0.126
    L10
      Category 1    0.762
      Category 2    0.238
    L11
      Category 1    0.550
      Category 2    0.450
    L12
      Category 1    0.702
      Category 2    0.298
    L14
      Category 1    0.518
      Category 2    0.482
    L15
      Category 1    0.590
      Category 2    0.410
    L16
      Category 1    0.518
      Category 2    0.482
    L19
      Category 1    0.767
      Category 2    0.233
    L25
      Category 1    0.708
      Category 2    0.292
    L26
      Category 1    0.538
      Category 2    0.462
    L28
      Category 1    0.644
      Category 2    0.356
    L29
      Category 1    0.675
      Category 2    0.325
    L31
      Category 1    0.709
      Category 2    0.291
    L35
      Category 1    0.646
      Category 2    0.354
    L36
      Category 1    0.570
      Category 2    0.430
    L37
      Category 1    0.500
      Category 2    0.500
    L40
      Category 1    0.439
      Category 2    0.561
    L41
      Category 1    0.432
      Category 2    0.568
    L45
      Category 1    0.650
      Category 2    0.350



THE MODEL ESTIMATION TERMINATED NORMALLY



TESTS OF MODEL FIT

Chi-Square Test of Model Fit

          Value                          32803.724*
          Degrees of Freedom                   288**
          P-Value                           0.0000

*   The chi-square value for MLM, MLMV, MLR, ULSMV, WLSM and WLSMV cannot be used
    for chi-square difference tests.  MLM, MLR and WLSM chi-square difference
    testing is described in the Mplus Technical Appendices at www.statmodel.com.
    See chi-square difference testing in the index of the Mplus User's Guide.

**  The degrees of freedom for MLMV, ULSMV and WLSMV are estimated according to
    a formula given in the Mplus Technical Appendices at www.statmodel.com.
    See degrees of freedom in the index of the Mplus User's Guide.

Chi-Square Test of Model Fit for the Baseline Model

          Value                         562042.044
          Degrees of Freedom                   103
          P-Value                           0.0000

CFI/TLI

          CFI                                0.942
          TLI                                0.979

Number of Free Parameters                       52

RMSEA (Root Mean Square Error Of Approximation)

          Estimate                           0.026

WRMR (Weighted Root Mean Square Residual)

          Value                              8.292



MODEL RESULTS

                                                    Two-Tailed
                    Estimate       S.E.  Est./S.E.    P-Value

 L        BY
    L1                 1.000      0.000    999.000    999.000
    L2                 1.090      0.006    183.438      0.000
    L3                 1.052      0.005    191.862      0.000
    L4                 0.717      0.009     79.658      0.000
    L5                 0.932      0.006    158.716      0.000
    L6                 1.022      0.006    158.905      0.000
    L7                 0.819      0.006    131.254      0.000
    L8                 0.720      0.009     80.715      0.000
    L10                1.017      0.007    140.639      0.000
    L11                1.019      0.006    170.055      0.000
    L12                0.745      0.007    113.500      0.000
    L14                1.191      0.006    196.473      0.000
    L15                1.145      0.006    183.811      0.000
    L16                0.992      0.006    169.922      0.000
    L19                0.730      0.007    102.786      0.000
    L25                0.740      0.007    111.306      0.000
    L26                1.010      0.006    166.223      0.000
    L28                0.889      0.006    140.722      0.000
    L29                0.751      0.006    117.990      0.000
    L31                0.893      0.007    134.386      0.000
    L35                0.903      0.006    142.327      0.000
    L36                0.809      0.006    135.427      0.000
    L37                1.053      0.006    179.073      0.000
    L40                0.953      0.006    165.904      0.000
    L41                1.001      0.006    172.558      0.000
    L45                0.914      0.006    144.218      0.000

 Thresholds
    L1$1              -0.192      0.003    -62.616      0.000
    L2$1               0.074      0.003     24.336      0.000
    L3$1              -0.356      0.003   -114.357      0.000
    L4$1               1.137      0.004    293.361      0.000
    L5$1               0.025      0.003      8.190      0.000
    L6$1               0.418      0.003    132.984      0.000
    L7$1               0.369      0.003    118.485      0.000
    L8$1               1.148      0.004    294.740      0.000
    L10$1              0.713      0.003    213.386      0.000
    L11$1              0.127      0.003     41.548      0.000
    L12$1              0.529      0.003    165.281      0.000
    L14$1              0.045      0.003     14.878      0.000
    L15$1              0.228      0.003     74.220      0.000
    L16$1              0.046      0.003     15.038      0.000
    L19$1              0.730      0.003    217.573      0.000
    L25$1              0.546      0.003    170.023      0.000
    L26$1              0.095      0.003     31.134      0.000
    L28$1              0.370      0.003    118.736      0.000
    L29$1              0.453      0.003    143.358      0.000
    L31$1              0.552      0.003    171.604      0.000
    L35$1              0.374      0.003    119.920      0.000
    L36$1              0.177      0.003     57.862      0.000
    L37$1              0.001      0.003      0.332      0.740
    L40$1             -0.154      0.003    -50.504      0.000
    L41$1             -0.172      0.003    -56.127      0.000
    L45$1              0.384      0.003    122.909      0.000

 Variances
    L                  0.315      0.003    119.523      0.000


IRT PARAMETERIZATION IN TWO-PARAMETER PROBIT METRIC
WHERE THE PROBIT IS DISCRIMINATION*(THETA - DIFFICULTY)

 Item Discriminations

 L        BY
    L1                 0.678      0.004    163.716      0.000
    L2                 0.773      0.005    159.590      0.000
    L3                 0.732      0.004    177.927      0.000
    L4                 0.440      0.006     69.771      0.000
    L5                 0.614      0.004    144.141      0.000
    L6                 0.701      0.005    133.603      0.000
    L7                 0.518      0.004    118.464      0.000
    L8                 0.442      0.006     70.569      0.000
    L10                0.695      0.006    113.124      0.000
    L11                0.698      0.005    150.014      0.000
    L12                0.460      0.004    102.748      0.000
    L14                0.899      0.005    167.632      0.000
    L15                0.839      0.005    153.956      0.000
    L16                0.670      0.004    153.481      0.000
    L19                0.449      0.005     92.993      0.000
    L25                0.456      0.005    101.366      0.000
    L26                0.688      0.005    148.887      0.000
    L28                0.576      0.005    125.604      0.000
    L29                0.465      0.004    106.843      0.000
    L31                0.579      0.005    116.262      0.000
    L35                0.588      0.005    126.787      0.000
    L36                0.510      0.004    125.762      0.000
    L37                0.732      0.005    161.072      0.000
    L40                0.633      0.004    155.001      0.000
    L41                0.679      0.004    159.414      0.000
    L45                0.598      0.005    127.864      0.000

 Item Difficulties
    L1$1              -0.342      0.006    -59.032      0.000
    L2$1               0.121      0.005     24.426      0.000
    L3$1              -0.603      0.006   -100.398      0.000
    L4$1               2.824      0.036     79.355      0.000
    L5$1               0.048      0.006      8.203      0.000
    L6$1               0.728      0.006    112.585      0.000
    L7$1               0.803      0.009     93.726      0.000
    L8$1               2.839      0.035     80.226      0.000
    L10$1              1.249      0.009    132.345      0.000
    L11$1              0.222      0.005     41.320      0.000
    L12$1              1.266      0.013     99.599      0.000
    L14$1              0.068      0.005     14.935      0.000
    L15$1              0.355      0.005     72.896      0.000
    L16$1              0.082      0.005     15.087      0.000
    L19$1              1.781      0.018     98.552      0.000
    L25$1              1.315      0.013     99.497      0.000
    L26$1              0.167      0.005     31.057      0.000
    L28$1              0.742      0.008     97.923      0.000
    L29$1              1.074      0.011     96.964      0.000
    L31$1              1.101      0.009    115.941      0.000
    L35$1              0.738      0.007     98.982      0.000
    L36$1              0.390      0.007     54.910      0.000
    L37$1              0.002      0.005      0.333      0.740
    L40$1             -0.288      0.006    -48.252      0.000
    L41$1             -0.306      0.006    -53.442      0.000
    L45$1              0.748      0.007    101.466      0.000

 Variances
    L                  1.000      0.000      0.000      1.000


STANDARDIZED MODEL RESULTS


STDYX Standardization

                                                    Two-Tailed
                    Estimate       S.E.  Est./S.E.    P-Value

 L        BY
    L1                 0.561      0.002    239.047      0.000
    L2                 0.612      0.002    254.993      0.000
    L3                 0.591      0.002    273.261      0.000
    L4                 0.403      0.005     83.272      0.000
    L5                 0.523      0.003    198.417      0.000
    L6                 0.574      0.003    199.205      0.000
    L7                 0.460      0.003    150.241      0.000
    L8                 0.404      0.005     84.355      0.000
    L10                0.571      0.003    167.783      0.000
    L11                0.572      0.003    223.014      0.000
    L12                0.418      0.003    124.515      0.000
    L14                0.669      0.002    303.242      0.000
    L15                0.643      0.002    262.214      0.000
    L16                0.557      0.003    222.397      0.000
    L19                0.410      0.004    111.770      0.000
    L25                0.415      0.003    122.480      0.000
    L26                0.567      0.003    219.416      0.000
    L28                0.499      0.003    167.291      0.000
    L29                0.422      0.003    129.940      0.000
    L31                0.501      0.003    155.275      0.000
    L35                0.507      0.003    170.621      0.000
    L36                0.454      0.003    158.471      0.000
    L37                0.591      0.002    247.480      0.000
    L40                0.535      0.002    217.183      0.000
    L41                0.562      0.002    232.903      0.000
    L45                0.513      0.003    173.554      0.000

 Thresholds
    L1$1              -0.192      0.003    -62.616      0.000
    L2$1               0.074      0.003     24.336      0.000
    L3$1              -0.356      0.003   -114.357      0.000
    L4$1               1.137      0.004    293.361      0.000
    L5$1               0.025      0.003      8.190      0.000
    L6$1               0.418      0.003    132.984      0.000
    L7$1               0.369      0.003    118.485      0.000
    L8$1               1.148      0.004    294.740      0.000
    L10$1              0.713      0.003    213.386      0.000
    L11$1              0.127      0.003     41.548      0.000
    L12$1              0.529      0.003    165.281      0.000
    L14$1              0.045      0.003     14.878      0.000
    L15$1              0.228      0.003     74.220      0.000
    L16$1              0.046      0.003     15.038      0.000
    L19$1              0.730      0.003    217.573      0.000
    L25$1              0.546      0.003    170.023      0.000
    L26$1              0.095      0.003     31.134      0.000
    L28$1              0.370      0.003    118.736      0.000
    L29$1              0.453      0.003    143.358      0.000
    L31$1              0.552      0.003    171.604      0.000
    L35$1              0.374      0.003    119.920      0.000
    L36$1              0.177      0.003     57.862      0.000
    L37$1              0.001      0.003      0.332      0.740
    L40$1             -0.154      0.003    -50.504      0.000
    L41$1             -0.172      0.003    -56.127      0.000
    L45$1              0.384      0.003    122.909      0.000

 Variances
    L                  1.000      0.000    999.000    999.000


STDY Standardization

                                                    Two-Tailed
                    Estimate       S.E.  Est./S.E.    P-Value

 L        BY
    L1                 0.561      0.002    239.047      0.000
    L2                 0.612      0.002    254.993      0.000
    L3                 0.591      0.002    273.261      0.000
    L4                 0.403      0.005     83.272      0.000
    L5                 0.523      0.003    198.417      0.000
    L6                 0.574      0.003    199.205      0.000
    L7                 0.460      0.003    150.241      0.000
    L8                 0.404      0.005     84.355      0.000
    L10                0.571      0.003    167.783      0.000
    L11                0.572      0.003    223.014      0.000
    L12                0.418      0.003    124.515      0.000
    L14                0.669      0.002    303.242      0.000
    L15                0.643      0.002    262.214      0.000
    L16                0.557      0.003    222.397      0.000
    L19                0.410      0.004    111.770      0.000
    L25                0.415      0.003    122.480      0.000
    L26                0.567      0.003    219.416      0.000
    L28                0.499      0.003    167.291      0.000
    L29                0.422      0.003    129.940      0.000
    L31                0.501      0.003    155.275      0.000
    L35                0.507      0.003    170.621      0.000
    L36                0.454      0.003    158.471      0.000
    L37                0.591      0.002    247.480      0.000
    L40                0.535      0.002    217.183      0.000
    L41                0.562      0.002    232.903      0.000
    L45                0.513      0.003    173.554      0.000

 Thresholds
    L1$1              -0.192      0.003    -62.616      0.000
    L2$1               0.074      0.003     24.336      0.000
    L3$1              -0.356      0.003   -114.357      0.000
    L4$1               1.137      0.004    293.361      0.000
    L5$1               0.025      0.003      8.190      0.000
    L6$1               0.418      0.003    132.984      0.000
    L7$1               0.369      0.003    118.485      0.000
    L8$1               1.148      0.004    294.740      0.000
    L10$1              0.713      0.003    213.386      0.000
    L11$1              0.127      0.003     41.548      0.000
    L12$1              0.529      0.003    165.281      0.000
    L14$1              0.045      0.003     14.878      0.000
    L15$1              0.228      0.003     74.220      0.000
    L16$1              0.046      0.003     15.038      0.000
    L19$1              0.730      0.003    217.573      0.000
    L25$1              0.546      0.003    170.023      0.000
    L26$1              0.095      0.003     31.134      0.000
    L28$1              0.370      0.003    118.736      0.000
    L29$1              0.453      0.003    143.358      0.000
    L31$1              0.552      0.003    171.604      0.000
    L35$1              0.374      0.003    119.920      0.000
    L36$1              0.177      0.003     57.862      0.000
    L37$1              0.001      0.003      0.332      0.740
    L40$1             -0.154      0.003    -50.504      0.000
    L41$1             -0.172      0.003    -56.127      0.000
    L45$1              0.384      0.003    122.909      0.000

 Variances
    L                  1.000      0.000    999.000    999.000


STD Standardization

                                                    Two-Tailed
                    Estimate       S.E.  Est./S.E.    P-Value

 L        BY
    L1                 0.561      0.002    239.047      0.000
    L2                 0.612      0.002    254.993      0.000
    L3                 0.591      0.002    273.261      0.000
    L4                 0.403      0.005     83.272      0.000
    L5                 0.523      0.003    198.417      0.000
    L6                 0.574      0.003    199.205      0.000
    L7                 0.460      0.003    150.241      0.000
    L8                 0.404      0.005     84.355      0.000
    L10                0.571      0.003    167.783      0.000
    L11                0.572      0.003    223.014      0.000
    L12                0.418      0.003    124.515      0.000
    L14                0.669      0.002    303.242      0.000
    L15                0.643      0.002    262.214      0.000
    L16                0.557      0.003    222.397      0.000
    L19                0.410      0.004    111.770      0.000
    L25                0.415      0.003    122.480      0.000
    L26                0.567      0.003    219.416      0.000
    L28                0.499      0.003    167.291      0.000
    L29                0.422      0.003    129.940      0.000
    L31                0.501      0.003    155.275      0.000
    L35                0.507      0.003    170.621      0.000
    L36                0.454      0.003    158.471      0.000
    L37                0.591      0.002    247.480      0.000
    L40                0.535      0.002    217.183      0.000
    L41                0.562      0.002    232.903      0.000
    L45                0.513      0.003    173.554      0.000

 Thresholds
    L1$1              -0.192      0.003    -62.616      0.000
    L2$1               0.074      0.003     24.336      0.000
    L3$1              -0.356      0.003   -114.357      0.000
    L4$1               1.137      0.004    293.361      0.000
    L5$1               0.025      0.003      8.190      0.000
    L6$1               0.418      0.003    132.984      0.000
    L7$1               0.369      0.003    118.485      0.000
    L8$1               1.148      0.004    294.740      0.000
    L10$1              0.713      0.003    213.386      0.000
    L11$1              0.127      0.003     41.548      0.000
    L12$1              0.529      0.003    165.281      0.000
    L14$1              0.045      0.003     14.878      0.000
    L15$1              0.228      0.003     74.220      0.000
    L16$1              0.046      0.003     15.038      0.000
    L19$1              0.730      0.003    217.573      0.000
    L25$1              0.546      0.003    170.023      0.000
    L26$1              0.095      0.003     31.134      0.000
    L28$1              0.370      0.003    118.736      0.000
    L29$1              0.453      0.003    143.358      0.000
    L31$1              0.552      0.003    171.604      0.000
    L35$1              0.374      0.003    119.920      0.000
    L36$1              0.177      0.003     57.862      0.000
    L37$1              0.001      0.003      0.332      0.740
    L40$1             -0.154      0.003    -50.504      0.000
    L41$1             -0.172      0.003    -56.127      0.000
    L45$1              0.384      0.003    122.909      0.000

 Variances
    L                  1.000      0.000    999.000    999.000


R-SQUARE

    Observed                                        Two-Tailed   Residual
    Variable        Estimate       S.E.  Est./S.E.    P-Value    Variance

    L1                 0.315      0.003    119.523      0.000      0.685
    L2                 0.374      0.003    127.497      0.000      0.626
    L3                 0.349      0.003    136.631      0.000      0.651
    L4                 0.162      0.004     41.636      0.000      0.838
    L5                 0.274      0.003     99.208      0.000      0.726
    L6                 0.329      0.003     99.603      0.000      0.671
    L7                 0.212      0.003     75.121      0.000      0.788
    L8                 0.163      0.004     42.177      0.000      0.837
    L10                0.326      0.004     83.891      0.000      0.674
    L11                0.327      0.003    111.507      0.000      0.673
    L12                0.175      0.003     62.257      0.000      0.825
    L14                0.447      0.003    151.621      0.000      0.553
    L15                0.413      0.003    131.107      0.000      0.587
    L16                0.310      0.003    111.199      0.000      0.690
    L19                0.168      0.003     55.885      0.000      0.832
    L25                0.172      0.003     61.240      0.000      0.828
    L26                0.321      0.003    109.708      0.000      0.679
    L28                0.249      0.003     83.646      0.000      0.751
    L29                0.178      0.003     64.970      0.000      0.822
    L31                0.251      0.003     77.637      0.000      0.749
    L35                0.257      0.003     85.311      0.000      0.743
    L36                0.206      0.003     79.236      0.000      0.794
    L37                0.349      0.003    123.740      0.000      0.651
    L40                0.286      0.003    108.592      0.000      0.714
    L41                0.316      0.003    116.452      0.000      0.684
    L45                0.263      0.003     86.777      0.000      0.737


QUALITY OF NUMERICAL RESULTS

     Condition Number for the Information Matrix              0.365E-03
       (ratio of smallest to largest eigenvalue)


     Beginning Time:  18:36:31
        Ending Time:  18:37:33
       Elapsed Time:  00:01:02



MUTHEN & MUTHEN
3463 Stoner Ave.
Los Angeles, CA  90066

Tel: (310) 391-9971
Fax: (310) 391-8971
Web: www.StatModel.com
Support: Support@StatModel.com

Copyright (c) 1998-2008 Muthen & Muthen
