TITLE:	ENEM 2010
DATA:	FILE IS DATA.txt;
VARIABLE:	NAMES ARE cn1-cn45 ch1-ch45 l1-l45 mt1-mt45;
        	CATEGORICAL ARE ch1 ch4 ch6 ch9-ch11 ch16 ch17 ch20 ch27 
         ch29 ch30 ch32 ch33 ch35 ch37 ch40-ch44 
         cn1 cn4 cn6 cn8 cn11 cn13-cn18 cn30 cn43-cn45
         l4 l6 l7 l10-l13 l17-l22 l25 l26 l29 l31-l33 l35-l37 l39 l41 l42 l44
         mt1-mt7 mt10 mt11 mt13 mt15 mt26 mt35 mt39 mt41-mt44;
            USEVARIABLES ARE ch1 ch4 ch6 ch9-ch11 ch16 ch17 ch20 ch27 
         ch29 ch30 ch32 ch33 ch35 ch37 ch40-ch44
         cn1 cn4 cn6 cn8 cn11 cn13-cn18 cn30 cn43-cn45
         l4 l6 l7 l10-l13 l17-l22 l25 l26 l29 l31-l33 l35-l37 l39 l41 l42 l44
         mt1-mt7 mt10 mt11 mt13 mt15 mt26 mt35 mt39 mt41-mt44;
MODEL:
         CH BY ch1 ch4 ch6 ch9-ch11 ch16 ch17 ch20 ch27 
         ch29 ch30 ch32 ch33 ch35 ch37 ch40-ch44;
          CN BY cn1 cn4 cn6 cn8 cn11 cn13-cn18 cn30 cn43-cn45;
        L BY l4 l6 l7 l10-l13 l17-l22 l25 l26 l29 l31-l33 l35-l37 l39 l41 l42 l44;
        MT BY mt1-mt7 mt10 mt11 mt13 mt15 mt26 mt35 mt39 mt41-mt44;
        
         

OUTPUT: STANDARDIZED;







