Mplus VERSION 5.2
MUTHEN & MUTHEN
06/22/2013   7:24 PM

INPUT INSTRUCTIONS

  TITLE:        ENEM 2010
  DATA:        FILE IS DATA.txt;
  VARIABLE:        NAMES ARE cn1-cn45 ch1-ch45 l1-l45 mt1-mt45;
                  CATEGORICAL ARE ch1 ch4 ch6 ch9-ch11 ch16 ch17 ch20 ch27
           ch29 ch30 ch32 ch33 ch35 ch37 ch40-ch44
           cn1 cn4 cn6 cn8 cn11 cn13-cn18 cn30 cn43-cn45
           l4 l6 l7 l10-l13 l17-l22 l25 l26 l29 l31-l33 l35-l37 l39 l41 l42 l44
           mt1-mt7 mt10 mt11 mt13 mt15 mt26 mt35 mt39 mt41-mt44;
              USEVARIABLES ARE ch1 ch4 ch6 ch9-ch11 ch16 ch17 ch20 ch27
           ch29 ch30 ch32 ch33 ch35 ch37 ch40-ch44
           cn1 cn4 cn6 cn8 cn11 cn13-cn18 cn30 cn43-cn45
           l4 l6 l7 l10-l13 l17-l22 l25 l26 l29 l31-l33 l35-l37 l39 l41 l42 l44
           mt1-mt7 mt10 mt11 mt13 mt15 mt26 mt35 mt39 mt41-mt44;
  MODEL:

          GERAL BY ch1 ch4 ch6 ch9-ch11 ch16 ch17 ch20 ch27
           ch29 ch30 ch32 ch33 ch35 ch37 ch40-ch44
           cn1 cn4 cn6 cn8 cn11 cn13-cn18 cn30 cn43-cn45
           l4 l6 l7 l10-l13 l17-l22 l25 l26 l29 l31-l33 l35-l37 l39 l41 l42 l44
           mt1-mt7 mt10 mt11 mt13 mt15 mt26 mt35 mt39 mt41-mt44;




  OUTPUT: STANDARDIZED;










INPUT READING TERMINATED NORMALLY



ENEM 2010

SUMMARY OF ANALYSIS

Number of groups                                                 1
Number of observations                                      167220

Number of dependent variables                                   80
Number of independent variables                                  0
Number of continuous latent variables                            1

Observed dependent variables

  Binary and ordered categorical (ordinal)
   CH1         CH4         CH6         CH9         CH10        CH11
   CH16        CH17        CH20        CH27        CH29        CH30
   CH32        CH33        CH35        CH37        CH40        CH41
   CH42        CH43        CH44        CN1         CN4         CN6
   CN8         CN11        CN13        CN14        CN15        CN16
   CN17        CN18        CN30        CN43        CN44        CN45
   L4          L6          L7          L10         L11         L12
   L13         L17         L18         L19         L20         L21
   L22         L25         L26         L29         L31         L32
   L33         L35         L36         L37         L39         L41
   L42         L44         MT1         MT2         MT3         MT4
   MT5         MT6         MT7         MT10        MT11        MT13
   MT15        MT26        MT35        MT39        MT41        MT42
   MT43        MT44

Continuous latent variables
   GERAL


Estimator                                                    WLSMV
Maximum number of iterations                                  1000
Convergence criterion                                    0.500D-04
Maximum number of steepest descent iterations                   20
Parameterization                                             DELTA

Input data file(s)
  DATA.txt

Input data format  FREE


SUMMARY OF CATEGORICAL DATA PROPORTIONS

    CH1
      Category 1    0.473
      Category 2    0.527
    CH4
      Category 1    0.168
      Category 2    0.832
    CH6
      Category 1    0.564
      Category 2    0.436
    CH9
      Category 1    0.388
      Category 2    0.612
    CH10
      Category 1    0.318
      Category 2    0.682
    CH11
      Category 1    0.233
      Category 2    0.767
    CH16
      Category 1    0.637
      Category 2    0.363
    CH17
      Category 1    0.529
      Category 2    0.471
    CH20
      Category 1    0.279
      Category 2    0.721
    CH27
      Category 1    0.623
      Category 2    0.377
    CH29
      Category 1    0.579
      Category 2    0.421
    CH30
      Category 1    0.486
      Category 2    0.514
    CH32
      Category 1    0.536
      Category 2    0.464
    CH33
      Category 1    0.705
      Category 2    0.295
    CH35
      Category 1    0.402
      Category 2    0.598
    CH37
      Category 1    0.131
      Category 2    0.869
    CH40
      Category 1    0.493
      Category 2    0.507
    CH41
      Category 1    0.553
      Category 2    0.447
    CH42
      Category 1    0.441
      Category 2    0.559
    CH43
      Category 1    0.386
      Category 2    0.614
    CH44
      Category 1    0.547
      Category 2    0.453
    CN1
      Category 1    0.344
      Category 2    0.656
    CN4
      Category 1    0.131
      Category 2    0.869
    CN6
      Category 1    0.818
      Category 2    0.182
    CN8
      Category 1    0.561
      Category 2    0.439
    CN11
      Category 1    0.381
      Category 2    0.619
    CN13
      Category 1    0.670
      Category 2    0.330
    CN14
      Category 1    0.461
      Category 2    0.539
    CN15
      Category 1    0.566
      Category 2    0.434
    CN16
      Category 1    0.612
      Category 2    0.388
    CN17
      Category 1    0.491
      Category 2    0.509
    CN18
      Category 1    0.581
      Category 2    0.419
    CN30
      Category 1    0.465
      Category 2    0.535
    CN43
      Category 1    0.419
      Category 2    0.581
    CN44
      Category 1    0.621
      Category 2    0.379
    CN45
      Category 1    0.652
      Category 2    0.348
    L4
      Category 1    0.703
      Category 2    0.297
    L6
      Category 1    0.440
      Category 2    0.560
    L7
      Category 1    0.227
      Category 2    0.773
    L10
      Category 1    0.348
      Category 2    0.652
    L11
      Category 1    0.351
      Category 2    0.649
    L12
      Category 1    0.510
      Category 2    0.490
    L13
      Category 1    0.560
      Category 2    0.440
    L17
      Category 1    0.487
      Category 2    0.513
    L18
      Category 1    0.613
      Category 2    0.387
    L19
      Category 1    0.229
      Category 2    0.771
    L20
      Category 1    0.195
      Category 2    0.805
    L21
      Category 1    0.506
      Category 2    0.494
    L22
      Category 1    0.428
      Category 2    0.572
    L25
      Category 1    0.618
      Category 2    0.382
    L26
      Category 1    0.575
      Category 2    0.425
    L29
      Category 1    0.322
      Category 2    0.678
    L31
      Category 1    0.657
      Category 2    0.343
    L32
      Category 1    0.242
      Category 2    0.758
    L33
      Category 1    0.552
      Category 2    0.448
    L35
      Category 1    0.505
      Category 2    0.495
    L36
      Category 1    0.380
      Category 2    0.620
    L37
      Category 1    0.451
      Category 2    0.549
    L39
      Category 1    0.606
      Category 2    0.394
    L41
      Category 1    0.511
      Category 2    0.489
    L42
      Category 1    0.221
      Category 2    0.779
    L44
      Category 1    0.677
      Category 2    0.323
    MT1
      Category 1    0.265
      Category 2    0.735
    MT2
      Category 1    0.712
      Category 2    0.288
    MT3
      Category 1    0.593
      Category 2    0.407
    MT4
      Category 1    0.711
      Category 2    0.289
    MT5
      Category 1    0.561
      Category 2    0.439
    MT6
      Category 1    0.469
      Category 2    0.531
    MT7
      Category 1    0.406
      Category 2    0.594
    MT10
      Category 1    0.451
      Category 2    0.549
    MT11
      Category 1    0.563
      Category 2    0.437
    MT13
      Category 1    0.611
      Category 2    0.389
    MT15
      Category 1    0.682
      Category 2    0.318
    MT26
      Category 1    0.784
      Category 2    0.216
    MT35
      Category 1    0.652
      Category 2    0.348
    MT39
      Category 1    0.771
      Category 2    0.229
    MT41
      Category 1    0.513
      Category 2    0.487
    MT42
      Category 1    0.628
      Category 2    0.372
    MT43
      Category 1    0.811
      Category 2    0.189
    MT44
      Category 1    0.667
      Category 2    0.333



THE MODEL ESTIMATION TERMINATED NORMALLY



TESTS OF MODEL FIT

Chi-Square Test of Model Fit

          Value                         298725.919*
          Degrees of Freedom                  2688**
          P-Value                           0.0000

*   The chi-square value for MLM, MLMV, MLR, ULSMV, WLSM and WLSMV cannot be used
    for chi-square difference tests.  MLM, MLR and WLSM chi-square difference
    testing is described in the Mplus Technical Appendices at www.statmodel.com.
    See chi-square difference testing in the index of the Mplus User's Guide.

**  The degrees of freedom for MLMV, ULSMV and WLSMV are estimated according to
    a formula given in the Mplus Technical Appendices at www.statmodel.com.
    See degrees of freedom in the index of the Mplus User's Guide.

Chi-Square Test of Model Fit for the Baseline Model

          Value                         **********
          Degrees of Freedom                   514
          P-Value                           0.0000

CFI/TLI

          CFI                                0.872
          TLI                                0.976

Number of Free Parameters                      160

RMSEA (Root Mean Square Error Of Approximation)

          Estimate                           0.026

WRMR (Weighted Root Mean Square Residual)

          Value                              8.943



MODEL RESULTS

                                                    Two-Tailed
                    Estimate       S.E.  Est./S.E.    P-Value

 GERAL    BY
    CH1                1.000      0.000    999.000    999.000
    CH4                1.291      0.011    121.613      0.000
    CH6                0.944      0.009    103.251      0.000
    CH9                1.502      0.011    135.931      0.000
    CH10               1.246      0.010    123.518      0.000
    CH11               1.435      0.011    130.623      0.000
    CH16               1.299      0.011    120.789      0.000
    CH17               1.151      0.010    117.814      0.000
    CH20               1.580      0.012    135.794      0.000
    CH27               1.111      0.010    110.646      0.000
    CH29               0.967      0.009    102.806      0.000
    CH30               1.062      0.009    112.619      0.000
    CH32               0.890      0.009     98.328      0.000
    CH33               1.132      0.010    108.107      0.000
    CH35               1.122      0.010    116.459      0.000
    CH37               1.073      0.010    106.457      0.000
    CH40               0.942      0.009    102.723      0.000
    CH41               1.501      0.011    132.698      0.000
    CH42               1.127      0.010    117.141      0.000
    CH43               1.338      0.010    128.179      0.000
    CH44               1.242      0.010    120.600      0.000
    CN1                1.318      0.010    125.950      0.000
    CN4                1.107      0.011    100.163      0.000
    CN6                0.949      0.011     87.041      0.000
    CN8                0.983      0.009    106.279      0.000
    CN11               1.386      0.011    129.554      0.000
    CN13               1.184      0.010    113.430      0.000
    CN14               1.540      0.011    134.283      0.000
    CN15               1.009      0.009    107.152      0.000
    CN16               1.503      0.012    129.705      0.000
    CN17               1.443      0.011    131.332      0.000
    CN18               1.110      0.010    113.106      0.000
    CN30               1.561      0.012    135.567      0.000
    CN43               1.270      0.010    123.719      0.000
    CN44               1.431      0.011    127.835      0.000
    CN45               0.997      0.010    102.695      0.000
    L4                 1.183      0.011    110.956      0.000
    L6                 1.482      0.011    130.933      0.000
    L7                 1.342      0.011    122.644      0.000
    L10                1.357      0.011    125.481      0.000
    L11                1.546      0.012    134.249      0.000
    L12                1.098      0.010    112.005      0.000
    L13                1.058      0.010    108.711      0.000
    L17                1.273      0.010    122.230      0.000
    L18                1.257      0.011    118.162      0.000
    L19                1.072      0.010    104.754      0.000
    L20                1.511      0.012    130.695      0.000
    L21                1.492      0.011    130.581      0.000
    L22                1.392      0.011    128.272      0.000
    L25                1.067      0.010    108.952      0.000
    L26                1.276      0.011    119.884      0.000
    L29                1.422      0.011    126.884      0.000
    L31                1.049      0.010    103.978      0.000
    L32                1.235      0.010    117.775      0.000
    L33                1.182      0.010    116.422      0.000
    L35                1.103      0.010    112.786      0.000
    L36                1.444      0.011    130.066      0.000
    L37                1.599      0.012    135.126      0.000
    L39                0.974      0.010    102.010      0.000
    L41                1.009      0.009    107.818      0.000
    L42                1.476      0.011    129.115      0.000
    L44                1.026      0.010    102.205      0.000
    MT1                1.408      0.011    127.855      0.000
    MT2                1.233      0.011    115.698      0.000
    MT3                1.318      0.011    121.773      0.000
    MT4                1.148      0.011    109.252      0.000
    MT5                1.186      0.010    116.731      0.000
    MT6                1.539      0.011    133.869      0.000
    MT7                1.553      0.011    135.850      0.000
    MT10               1.388      0.011    129.203      0.000
    MT11               1.441      0.011    129.668      0.000
    MT13               1.278      0.011    120.119      0.000
    MT15               0.946      0.010     96.963      0.000
    MT26               0.837      0.010     80.778      0.000
    MT35               0.993      0.010    102.049      0.000
    MT39               0.949      0.011     89.500      0.000
    MT41               1.138      0.010    114.556      0.000
    MT42               1.163      0.010    114.145      0.000
    MT43               1.073      0.011     94.411      0.000
    MT44               0.862      0.009     90.742      0.000

 Thresholds
    CH1$1             -0.068      0.003    -22.164      0.000
    CH4$1             -0.964      0.004   -264.598      0.000
    CH6$1              0.160      0.003     52.121      0.000
    CH9$1             -0.285      0.003    -91.631      0.000
    CH10$1            -0.472      0.003   -147.836      0.000
    CH11$1            -0.729      0.003   -215.573      0.000
    CH16$1             0.351      0.003    111.919      0.000
    CH17$1             0.073      0.003     23.636      0.000
    CH20$1            -0.585      0.003   -179.271      0.000
    CH27$1             0.313      0.003    100.412      0.000
    CH29$1             0.200      0.003     64.915      0.000
    CH30$1            -0.036      0.003    -11.704      0.000
    CH32$1             0.091      0.003     29.601      0.000
    CH33$1             0.537      0.003    166.330      0.000
    CH35$1            -0.248      0.003    -80.141      0.000
    CH37$1            -1.122      0.004   -289.159      0.000
    CH40$1            -0.016      0.003     -5.351      0.000
    CH41$1             0.134      0.003     43.546      0.000
    CH42$1            -0.149      0.003    -48.447      0.000
    CH43$1            -0.289      0.003    -92.995      0.000
    CH44$1             0.118      0.003     38.527      0.000
    CN1$1             -0.402      0.003   -127.251      0.000
    CN4$1             -1.120      0.004   -288.916      0.000
    CN6$1              0.906      0.004    253.901      0.000
    CN8$1              0.153      0.003     49.581      0.000
    CN11$1            -0.302      0.003    -97.060      0.000
    CN13$1             0.439      0.003    138.175      0.000
    CN14$1            -0.097      0.003    -31.757      0.000
    CN15$1             0.167      0.003     54.226      0.000
    CN16$1             0.285      0.003     91.675      0.000
    CN17$1            -0.022      0.003     -7.253      0.000
    CN18$1             0.205      0.003     66.438      0.000
    CN30$1            -0.087      0.003    -28.403      0.000
    CN43$1            -0.206      0.003    -66.540      0.000
    CN44$1             0.309      0.003     98.962      0.000
    CN45$1             0.390      0.003    123.661      0.000
    L4$1               0.533      0.003    165.190      0.000
    L6$1              -0.152      0.003    -49.414      0.000
    L7$1              -0.747      0.003   -219.936      0.000
    L10$1             -0.391      0.003   -123.995      0.000
    L11$1             -0.383      0.003   -121.717      0.000
    L12$1              0.025      0.003      8.026      0.000
    L13$1              0.150      0.003     48.867      0.000
    L17$1             -0.034      0.003    -11.004      0.000
    L18$1              0.287      0.003     92.284      0.000
    L19$1             -0.741      0.003   -218.518      0.000
    L20$1             -0.861      0.004   -244.923      0.000
    L21$1              0.016      0.003      5.223      0.000
    L22$1             -0.182      0.003    -59.149      0.000
    L25$1              0.300      0.003     96.213      0.000
    L26$1              0.189      0.003     61.151      0.000
    L29$1             -0.461      0.003   -144.644      0.000
    L31$1              0.404      0.003    127.983      0.000
    L32$1             -0.699      0.003   -208.522      0.000
    L33$1              0.132      0.003     42.828      0.000
    L35$1              0.012      0.003      3.859      0.000
    L36$1             -0.305      0.003    -97.804      0.000
    L37$1             -0.124      0.003    -40.409      0.000
    L39$1              0.270      0.003     86.916      0.000
    L41$1              0.027      0.003      8.955      0.000
    L42$1             -0.768      0.003   -224.757      0.000
    L44$1              0.459      0.003    144.220      0.000
    MT1$1             -0.629      0.003   -190.733      0.000
    MT2$1              0.559      0.003    172.289      0.000
    MT3$1              0.235      0.003     75.991      0.000
    MT4$1              0.555      0.003    171.157      0.000
    MT5$1              0.154      0.003     50.045      0.000
    MT6$1             -0.079      0.003    -25.758      0.000
    MT7$1             -0.239      0.003    -77.059      0.000
    MT10$1            -0.122      0.003    -39.851      0.000
    MT11$1             0.159      0.003     51.745      0.000
    MT13$1             0.282      0.003     90.565      0.000
    MT15$1             0.474      0.003    148.506      0.000
    MT26$1             0.785      0.003    228.613      0.000
    MT35$1             0.390      0.003    123.646      0.000
    MT39$1             0.742      0.003    218.693      0.000
    MT41$1             0.033      0.003     10.608      0.000
    MT42$1             0.326      0.003    104.381      0.000
    MT43$1             0.881      0.004    248.877      0.000
    MT44$1             0.433      0.003    136.484      0.000

 Variances
    GERAL              0.166      0.002     73.966      0.000


IRT PARAMETERIZATION IN TWO-PARAMETER PROBIT METRIC
WHERE THE PROBIT IS DISCRIMINATION*(THETA - DIFFICULTY)

 Item Discriminations

 GERAL    BY
    CH1                0.446      0.004    123.401      0.000
    CH4                0.618      0.004    142.665      0.000
    CH6                0.416      0.004    113.044      0.000
    CH9                0.773      0.004    172.275      0.000
    CH10               0.589      0.004    150.136      0.000
    CH11               0.720      0.004    164.040      0.000
    CH16               0.623      0.005    137.627      0.000
    CH17               0.530      0.004    134.974      0.000
    CH20               0.840      0.005    178.212      0.000
    CH27               0.507      0.004    123.796      0.000
    CH29               0.429      0.004    114.227      0.000
    CH30               0.480      0.004    128.915      0.000
    CH32               0.389      0.004    108.709      0.000
    CH33               0.519      0.004    116.057      0.000
    CH35               0.513      0.004    136.164      0.000
    CH37               0.486      0.004    118.003      0.000
    CH40               0.415      0.004    115.355      0.000
    CH41               0.773      0.005    160.312      0.000
    CH42               0.516      0.004    137.102      0.000
    CH43               0.650      0.004    158.828      0.000
    CH44               0.586      0.004    142.407      0.000
    CN1                0.636      0.004    156.124      0.000
    CN4                0.505      0.005    107.573      0.000
    CN6                0.419      0.005     88.702      0.000
    CN8                0.437      0.004    117.224      0.000
    CN11               0.684      0.004    162.343      0.000
    CN13               0.550      0.004    123.038      0.000
    CN14               0.806      0.005    169.176      0.000
    CN15               0.451      0.004    119.158      0.000
    CN16               0.774      0.005    149.642      0.000
    CN17               0.727      0.004    162.916      0.000
    CN18               0.507      0.004    127.013      0.000
    CN30               0.823      0.005    171.268      0.000
    CN43               0.604      0.004    152.252      0.000
    CN44               0.717      0.005    147.538      0.000
    CN45               0.444      0.004    111.605      0.000
    L4                 0.549      0.005    120.975      0.000
    L6                 0.757      0.005    168.021      0.000
    L7                 0.653      0.004    148.346      0.000
    L10                0.663      0.004    157.881      0.000
    L11                0.810      0.005    172.840      0.000
    L12                0.500      0.004    130.923      0.000
    L13                0.477      0.004    125.742      0.000
    L17                0.606      0.004    149.806      0.000
    L18                0.596      0.004    136.164      0.000
    L19                0.485      0.004    116.640      0.000
    L20                0.781      0.005    166.227      0.000
    L21                0.765      0.005    163.804      0.000
    L22                0.688      0.004    160.790      0.000
    L25                0.482      0.004    121.958      0.000
    L26                0.608      0.004    142.177      0.000
    L29                0.710      0.004    158.810      0.000
    L31                0.472      0.004    116.862      0.000
    L32                0.582      0.004    141.594      0.000
    L33                0.549      0.004    136.580      0.000
    L35                0.502      0.004    131.582      0.000
    L36                0.727      0.004    165.316      0.000
    L37                0.858      0.005    173.460      0.000
    L39                0.432      0.004    113.117      0.000
    L41                0.451      0.004    122.283      0.000
    L42                0.752      0.005    163.574      0.000
    L44                0.460      0.004    111.145      0.000
    MT1                0.700      0.004    160.885      0.000
    MT2                0.580      0.005    124.637      0.000
    MT3                0.636      0.004    144.395      0.000
    MT4                0.529      0.005    116.211      0.000
    MT5                0.551      0.004    136.153      0.000
    MT6                0.804      0.005    171.036      0.000
    MT7                0.817      0.005    177.288      0.000
    MT10               0.685      0.004    160.745      0.000
    MT11               0.725      0.005    155.706      0.000
    MT13               0.610      0.004    138.925      0.000
    MT15               0.417      0.004    103.685      0.000
    MT26               0.363      0.004     82.633      0.000
    MT35               0.442      0.004    111.819      0.000
    MT39               0.419      0.005     91.211      0.000
    MT41               0.523      0.004    135.298      0.000
    MT42               0.538      0.004    128.532      0.000
    MT43               0.486      0.005     93.273      0.000
    MT44               0.375      0.004     97.299      0.000

 Item Difficulties
    CH1$1             -0.167      0.008    -21.807      0.000
    CH4$1             -1.833      0.012   -147.769      0.000
    CH6$1              0.418      0.009     48.540      0.000
    CH9$1             -0.466      0.006    -84.550      0.000
    CH10$1            -0.930      0.008   -114.265      0.000
    CH11$1            -1.247      0.008   -152.378      0.000
    CH16$1             0.663      0.007     96.326      0.000
    CH17$1             0.155      0.007     23.511      0.000
    CH20$1            -0.909      0.006   -145.501      0.000
    CH27$1             0.693      0.008     84.339      0.000
    CH29$1             0.509      0.009     58.366      0.000
    CH30$1            -0.083      0.007    -11.642      0.000
    CH32$1             0.251      0.009     28.897      0.000
    CH33$1             1.166      0.011    109.258      0.000
    CH35$1            -0.544      0.008    -71.226      0.000
    CH37$1            -2.567      0.021   -123.376      0.000
    CH40$1            -0.043      0.008     -5.343      0.000
    CH41$1             0.219      0.005     43.165      0.000
    CH42$1            -0.325      0.007    -46.095      0.000
    CH43$1            -0.531      0.006    -83.676      0.000
    CH44$1             0.234      0.006     37.951      0.000
    CN1$1             -0.748      0.007   -106.074      0.000
    CN4$1             -2.486      0.021   -117.121      0.000
    CN6$1              2.344      0.025     94.631      0.000
    CN8$1              0.381      0.008     46.825      0.000
    CN11$1            -0.536      0.006    -87.379      0.000
    CN13$1             0.910      0.009    104.903      0.000
    CN14$1            -0.155      0.005    -31.300      0.000
    CN15$1             0.406      0.008     50.848      0.000
    CN16$1             0.466      0.005     86.588      0.000
    CN17$1            -0.038      0.005     -7.237      0.000
    CN18$1             0.454      0.007     61.898      0.000
    CN30$1            -0.137      0.005    -28.068      0.000
    CN43$1            -0.397      0.006    -62.200      0.000
    CN44$1             0.529      0.006     90.916      0.000
    CN45$1             0.960      0.011     90.292      0.000
    L4$1               1.108      0.010    112.842      0.000
    L6$1              -0.252      0.005    -47.921      0.000
    L7$1              -1.367      0.009   -144.076      0.000
    L10$1             -0.707      0.007   -105.121      0.000
    L11$1             -0.609      0.006   -108.119      0.000
    L12$1              0.055      0.007      8.023      0.000
    L13$1              0.349      0.007     46.622      0.000
    L17$1             -0.065      0.006    -10.962      0.000
    L18$1              0.561      0.007     82.657      0.000
    L19$1             -1.698      0.015   -116.225      0.000
    L20$1             -1.399      0.008   -167.098      0.000
    L21$1              0.026      0.005      5.227      0.000
    L22$1             -0.322      0.006    -56.580      0.000
    L25$1              0.690      0.009     80.761      0.000
    L26$1              0.363      0.006     58.521      0.000
    L29$1             -0.796      0.007   -119.043      0.000
    L31$1              0.946      0.010     94.282      0.000
    L32$1             -1.391      0.010   -133.210      0.000
    L33$1              0.274      0.007     41.838      0.000
    L35$1              0.026      0.007      3.861      0.000
    L36$1             -0.519      0.006    -88.854      0.000
    L37$1             -0.191      0.005    -39.670      0.000
    L39$1              0.681      0.009     72.795      0.000
    L41$1              0.067      0.007      8.952      0.000
    L42$1             -1.278      0.008   -157.791      0.000
    L44$1              1.099      0.011     97.749      0.000
    MT1$1             -1.096      0.008   -141.136      0.000
    MT2$1              1.114      0.009    118.248      0.000
    MT3$1              0.438      0.006     71.562      0.000
    MT4$1              1.187      0.011    111.598      0.000
    MT5$1              0.319      0.007     48.371      0.000
    MT6$1             -0.126      0.005    -25.480      0.000
    MT7$1             -0.377      0.005    -72.791      0.000
    MT10$1            -0.217      0.006    -38.889      0.000
    MT11$1             0.271      0.005     51.041      0.000
    MT13$1             0.541      0.007     82.043      0.000
    MT15$1             1.231      0.013     93.514      0.000
    MT26$1             2.303      0.027     85.448      0.000
    MT35$1             0.963      0.011     90.303      0.000
    MT39$1             1.919      0.020     95.260      0.000
    MT41$1             0.070      0.007     10.606      0.000
    MT42$1             0.689      0.008     88.485      0.000
    MT43$1             2.016      0.020    103.089      0.000
    MT44$1             1.233      0.014     85.600      0.000

 Variances
    GERAL              1.000      0.000      0.000      1.000


STANDARDIZED MODEL RESULTS


STDYX Standardization

                                                    Two-Tailed
                    Estimate       S.E.  Est./S.E.    P-Value

 GERAL    BY
    CH1                0.407      0.003    147.932      0.000
    CH4                0.526      0.003    197.211      0.000
    CH6                0.384      0.003    132.631      0.000
    CH9                0.612      0.002    275.337      0.000
    CH10               0.507      0.003    202.198      0.000
    CH11               0.584      0.002    249.091      0.000
    CH16               0.529      0.003    191.087      0.000
    CH17               0.469      0.003    172.939      0.000
    CH20               0.643      0.002    304.049      0.000
    CH27               0.452      0.003    155.657      0.000
    CH29               0.394      0.003    135.205      0.000
    CH30               0.433      0.003    158.579      0.000
    CH32               0.362      0.003    125.139      0.000
    CH33               0.461      0.003    147.342      0.000
    CH35               0.457      0.003    172.052      0.000
    CH37               0.437      0.003    145.878      0.000
    CH40               0.383      0.003    135.236      0.000
    CH41               0.611      0.002    255.995      0.000
    CH42               0.459      0.003    173.664      0.000
    CH43               0.545      0.002    225.947      0.000
    CH44               0.506      0.003    191.347      0.000
    CN1                0.537      0.002    219.306      0.000
    CN4                0.451      0.003    134.991      0.000
    CN6                0.387      0.004    104.286      0.000
    CN8                0.400      0.003    139.592      0.000
    CN11               0.565      0.002    238.283      0.000
    CN13               0.482      0.003    160.289      0.000
    CN14               0.627      0.002    278.943      0.000
    CN15               0.411      0.003    143.382      0.000
    CN16               0.612      0.003    239.205      0.000
    CN17               0.588      0.002    248.917      0.000
    CN18               0.452      0.003    159.633      0.000
    CN30               0.636      0.002    287.298      0.000
    CN43               0.517      0.002    207.857      0.000
    CN44               0.583      0.003    223.469      0.000
    CN45               0.406      0.003    133.636      0.000
    L4                 0.482      0.003    157.499      0.000
    L6                 0.604      0.002    264.316      0.000
    L7                 0.547      0.003    211.538      0.000
    L10                0.552      0.002    227.247      0.000
    L11                0.630      0.002    286.378      0.000
    L12                0.447      0.003    163.641      0.000
    L13                0.431      0.003    154.396      0.000
    L17                0.519      0.003    204.895      0.000
    L18                0.512      0.003    184.466      0.000
    L19                0.437      0.003    144.100      0.000
    L20                0.615      0.002    267.594      0.000
    L21                0.608      0.002    259.703      0.000
    L22                0.567      0.002    236.895      0.000
    L25                0.434      0.003    150.325      0.000
    L26                0.520      0.003    194.751      0.000
    L29                0.579      0.002    238.936      0.000
    L31                0.427      0.003    142.945      0.000
    L32                0.503      0.003    189.518      0.000
    L33                0.481      0.003    177.763      0.000
    L35                0.449      0.003    164.806      0.000
    L36                0.588      0.002    252.652      0.000
    L37                0.651      0.002    301.088      0.000
    L39                0.397      0.003    134.231      0.000
    L41                0.411      0.003    147.125      0.000
    L42                0.601      0.002    256.138      0.000
    L44                0.418      0.003    134.667      0.000
    MT1                0.573      0.002    239.716      0.000
    MT2                0.502      0.003    166.626      0.000
    MT3                0.537      0.003    202.837      0.000
    MT4                0.468      0.003    148.714      0.000
    MT5                0.483      0.003    177.562      0.000
    MT6                0.627      0.002    281.633      0.000
    MT7                0.633      0.002    295.524      0.000
    MT10               0.565      0.002    236.151      0.000
    MT11               0.587      0.002    237.510      0.000
    MT13               0.521      0.003    190.578      0.000
    MT15               0.385      0.003    121.755      0.000
    MT26               0.341      0.004     93.499      0.000
    MT35               0.405      0.003    133.702      0.000
    MT39               0.387      0.004    107.237      0.000
    MT41               0.463      0.003    172.306      0.000
    MT42               0.474      0.003    165.696      0.000
    MT43               0.437      0.004    115.260      0.000
    MT44               0.351      0.003    110.973      0.000

 Thresholds
    CH1$1             -0.068      0.003    -22.164      0.000
    CH4$1             -0.964      0.004   -264.598      0.000
    CH6$1              0.160      0.003     52.121      0.000
    CH9$1             -0.285      0.003    -91.631      0.000
    CH10$1            -0.472      0.003   -147.836      0.000
    CH11$1            -0.729      0.003   -215.573      0.000
    CH16$1             0.351      0.003    111.919      0.000
    CH17$1             0.073      0.003     23.636      0.000
    CH20$1            -0.585      0.003   -179.271      0.000
    CH27$1             0.313      0.003    100.412      0.000
    CH29$1             0.200      0.003     64.915      0.000
    CH30$1            -0.036      0.003    -11.704      0.000
    CH32$1             0.091      0.003     29.601      0.000
    CH33$1             0.537      0.003    166.330      0.000
    CH35$1            -0.248      0.003    -80.141      0.000
    CH37$1            -1.122      0.004   -289.159      0.000
    CH40$1            -0.016      0.003     -5.351      0.000
    CH41$1             0.134      0.003     43.546      0.000
    CH42$1            -0.149      0.003    -48.447      0.000
    CH43$1            -0.289      0.003    -92.995      0.000
    CH44$1             0.118      0.003     38.527      0.000
    CN1$1             -0.402      0.003   -127.251      0.000
    CN4$1             -1.120      0.004   -288.916      0.000
    CN6$1              0.906      0.004    253.901      0.000
    CN8$1              0.153      0.003     49.581      0.000
    CN11$1            -0.302      0.003    -97.060      0.000
    CN13$1             0.439      0.003    138.175      0.000
    CN14$1            -0.097      0.003    -31.757      0.000
    CN15$1             0.167      0.003     54.226      0.000
    CN16$1             0.285      0.003     91.675      0.000
    CN17$1            -0.022      0.003     -7.253      0.000
    CN18$1             0.205      0.003     66.438      0.000
    CN30$1            -0.087      0.003    -28.403      0.000
    CN43$1            -0.206      0.003    -66.540      0.000
    CN44$1             0.309      0.003     98.962      0.000
    CN45$1             0.390      0.003    123.661      0.000
    L4$1               0.533      0.003    165.190      0.000
    L6$1              -0.152      0.003    -49.414      0.000
    L7$1              -0.747      0.003   -219.936      0.000
    L10$1             -0.391      0.003   -123.995      0.000
    L11$1             -0.383      0.003   -121.717      0.000
    L12$1              0.025      0.003      8.026      0.000
    L13$1              0.150      0.003     48.867      0.000
    L17$1             -0.034      0.003    -11.004      0.000
    L18$1              0.287      0.003     92.284      0.000
    L19$1             -0.741      0.003   -218.518      0.000
    L20$1             -0.861      0.004   -244.923      0.000
    L21$1              0.016      0.003      5.223      0.000
    L22$1             -0.182      0.003    -59.149      0.000
    L25$1              0.300      0.003     96.213      0.000
    L26$1              0.189      0.003     61.151      0.000
    L29$1             -0.461      0.003   -144.644      0.000
    L31$1              0.404      0.003    127.983      0.000
    L32$1             -0.699      0.003   -208.522      0.000
    L33$1              0.132      0.003     42.828      0.000
    L35$1              0.012      0.003      3.859      0.000
    L36$1             -0.305      0.003    -97.804      0.000
    L37$1             -0.124      0.003    -40.409      0.000
    L39$1              0.270      0.003     86.916      0.000
    L41$1              0.027      0.003      8.955      0.000
    L42$1             -0.768      0.003   -224.757      0.000
    L44$1              0.459      0.003    144.220      0.000
    MT1$1             -0.629      0.003   -190.733      0.000
    MT2$1              0.559      0.003    172.289      0.000
    MT3$1              0.235      0.003     75.991      0.000
    MT4$1              0.555      0.003    171.157      0.000
    MT5$1              0.154      0.003     50.045      0.000
    MT6$1             -0.079      0.003    -25.758      0.000
    MT7$1             -0.239      0.003    -77.059      0.000
    MT10$1            -0.122      0.003    -39.851      0.000
    MT11$1             0.159      0.003     51.745      0.000
    MT13$1             0.282      0.003     90.565      0.000
    MT15$1             0.474      0.003    148.506      0.000
    MT26$1             0.785      0.003    228.613      0.000
    MT35$1             0.390      0.003    123.646      0.000
    MT39$1             0.742      0.003    218.693      0.000
    MT41$1             0.033      0.003     10.608      0.000
    MT42$1             0.326      0.003    104.381      0.000
    MT43$1             0.881      0.004    248.877      0.000
    MT44$1             0.433      0.003    136.484      0.000

 Variances
    GERAL              1.000      0.000    999.000    999.000


STDY Standardization

                                                    Two-Tailed
                    Estimate       S.E.  Est./S.E.    P-Value

 GERAL    BY
    CH1                0.407      0.003    147.932      0.000
    CH4                0.526      0.003    197.211      0.000
    CH6                0.384      0.003    132.631      0.000
    CH9                0.612      0.002    275.337      0.000
    CH10               0.507      0.003    202.198      0.000
    CH11               0.584      0.002    249.091      0.000
    CH16               0.529      0.003    191.087      0.000
    CH17               0.469      0.003    172.939      0.000
    CH20               0.643      0.002    304.049      0.000
    CH27               0.452      0.003    155.657      0.000
    CH29               0.394      0.003    135.205      0.000
    CH30               0.433      0.003    158.579      0.000
    CH32               0.362      0.003    125.139      0.000
    CH33               0.461      0.003    147.342      0.000
    CH35               0.457      0.003    172.052      0.000
    CH37               0.437      0.003    145.878      0.000
    CH40               0.383      0.003    135.236      0.000
    CH41               0.611      0.002    255.995      0.000
    CH42               0.459      0.003    173.664      0.000
    CH43               0.545      0.002    225.947      0.000
    CH44               0.506      0.003    191.347      0.000
    CN1                0.537      0.002    219.306      0.000
    CN4                0.451      0.003    134.991      0.000
    CN6                0.387      0.004    104.286      0.000
    CN8                0.400      0.003    139.592      0.000
    CN11               0.565      0.002    238.283      0.000
    CN13               0.482      0.003    160.289      0.000
    CN14               0.627      0.002    278.943      0.000
    CN15               0.411      0.003    143.382      0.000
    CN16               0.612      0.003    239.205      0.000
    CN17               0.588      0.002    248.917      0.000
    CN18               0.452      0.003    159.633      0.000
    CN30               0.636      0.002    287.298      0.000
    CN43               0.517      0.002    207.857      0.000
    CN44               0.583      0.003    223.469      0.000
    CN45               0.406      0.003    133.636      0.000
    L4                 0.482      0.003    157.499      0.000
    L6                 0.604      0.002    264.316      0.000
    L7                 0.547      0.003    211.538      0.000
    L10                0.552      0.002    227.247      0.000
    L11                0.630      0.002    286.378      0.000
    L12                0.447      0.003    163.641      0.000
    L13                0.431      0.003    154.396      0.000
    L17                0.519      0.003    204.895      0.000
    L18                0.512      0.003    184.466      0.000
    L19                0.437      0.003    144.100      0.000
    L20                0.615      0.002    267.594      0.000
    L21                0.608      0.002    259.703      0.000
    L22                0.567      0.002    236.895      0.000
    L25                0.434      0.003    150.325      0.000
    L26                0.520      0.003    194.751      0.000
    L29                0.579      0.002    238.936      0.000
    L31                0.427      0.003    142.945      0.000
    L32                0.503      0.003    189.518      0.000
    L33                0.481      0.003    177.763      0.000
    L35                0.449      0.003    164.806      0.000
    L36                0.588      0.002    252.652      0.000
    L37                0.651      0.002    301.088      0.000
    L39                0.397      0.003    134.231      0.000
    L41                0.411      0.003    147.125      0.000
    L42                0.601      0.002    256.138      0.000
    L44                0.418      0.003    134.667      0.000
    MT1                0.573      0.002    239.716      0.000
    MT2                0.502      0.003    166.626      0.000
    MT3                0.537      0.003    202.837      0.000
    MT4                0.468      0.003    148.714      0.000
    MT5                0.483      0.003    177.562      0.000
    MT6                0.627      0.002    281.633      0.000
    MT7                0.633      0.002    295.524      0.000
    MT10               0.565      0.002    236.151      0.000
    MT11               0.587      0.002    237.510      0.000
    MT13               0.521      0.003    190.578      0.000
    MT15               0.385      0.003    121.755      0.000
    MT26               0.341      0.004     93.499      0.000
    MT35               0.405      0.003    133.702      0.000
    MT39               0.387      0.004    107.237      0.000
    MT41               0.463      0.003    172.306      0.000
    MT42               0.474      0.003    165.696      0.000
    MT43               0.437      0.004    115.260      0.000
    MT44               0.351      0.003    110.973      0.000

 Thresholds
    CH1$1             -0.068      0.003    -22.164      0.000
    CH4$1             -0.964      0.004   -264.598      0.000
    CH6$1              0.160      0.003     52.121      0.000
    CH9$1             -0.285      0.003    -91.631      0.000
    CH10$1            -0.472      0.003   -147.836      0.000
    CH11$1            -0.729      0.003   -215.573      0.000
    CH16$1             0.351      0.003    111.919      0.000
    CH17$1             0.073      0.003     23.636      0.000
    CH20$1            -0.585      0.003   -179.271      0.000
    CH27$1             0.313      0.003    100.412      0.000
    CH29$1             0.200      0.003     64.915      0.000
    CH30$1            -0.036      0.003    -11.704      0.000
    CH32$1             0.091      0.003     29.601      0.000
    CH33$1             0.537      0.003    166.330      0.000
    CH35$1            -0.248      0.003    -80.141      0.000
    CH37$1            -1.122      0.004   -289.159      0.000
    CH40$1            -0.016      0.003     -5.351      0.000
    CH41$1             0.134      0.003     43.546      0.000
    CH42$1            -0.149      0.003    -48.447      0.000
    CH43$1            -0.289      0.003    -92.995      0.000
    CH44$1             0.118      0.003     38.527      0.000
    CN1$1             -0.402      0.003   -127.251      0.000
    CN4$1             -1.120      0.004   -288.916      0.000
    CN6$1              0.906      0.004    253.901      0.000
    CN8$1              0.153      0.003     49.581      0.000
    CN11$1            -0.302      0.003    -97.060      0.000
    CN13$1             0.439      0.003    138.175      0.000
    CN14$1            -0.097      0.003    -31.757      0.000
    CN15$1             0.167      0.003     54.226      0.000
    CN16$1             0.285      0.003     91.675      0.000
    CN17$1            -0.022      0.003     -7.253      0.000
    CN18$1             0.205      0.003     66.438      0.000
    CN30$1            -0.087      0.003    -28.403      0.000
    CN43$1            -0.206      0.003    -66.540      0.000
    CN44$1             0.309      0.003     98.962      0.000
    CN45$1             0.390      0.003    123.661      0.000
    L4$1               0.533      0.003    165.190      0.000
    L6$1              -0.152      0.003    -49.414      0.000
    L7$1              -0.747      0.003   -219.936      0.000
    L10$1             -0.391      0.003   -123.995      0.000
    L11$1             -0.383      0.003   -121.717      0.000
    L12$1              0.025      0.003      8.026      0.000
    L13$1              0.150      0.003     48.867      0.000
    L17$1             -0.034      0.003    -11.004      0.000
    L18$1              0.287      0.003     92.284      0.000
    L19$1             -0.741      0.003   -218.518      0.000
    L20$1             -0.861      0.004   -244.923      0.000
    L21$1              0.016      0.003      5.223      0.000
    L22$1             -0.182      0.003    -59.149      0.000
    L25$1              0.300      0.003     96.213      0.000
    L26$1              0.189      0.003     61.151      0.000
    L29$1             -0.461      0.003   -144.644      0.000
    L31$1              0.404      0.003    127.983      0.000
    L32$1             -0.699      0.003   -208.522      0.000
    L33$1              0.132      0.003     42.828      0.000
    L35$1              0.012      0.003      3.859      0.000
    L36$1             -0.305      0.003    -97.804      0.000
    L37$1             -0.124      0.003    -40.409      0.000
    L39$1              0.270      0.003     86.916      0.000
    L41$1              0.027      0.003      8.955      0.000
    L42$1             -0.768      0.003   -224.757      0.000
    L44$1              0.459      0.003    144.220      0.000
    MT1$1             -0.629      0.003   -190.733      0.000
    MT2$1              0.559      0.003    172.289      0.000
    MT3$1              0.235      0.003     75.991      0.000
    MT4$1              0.555      0.003    171.157      0.000
    MT5$1              0.154      0.003     50.045      0.000
    MT6$1             -0.079      0.003    -25.758      0.000
    MT7$1             -0.239      0.003    -77.059      0.000
    MT10$1            -0.122      0.003    -39.851      0.000
    MT11$1             0.159      0.003     51.745      0.000
    MT13$1             0.282      0.003     90.565      0.000
    MT15$1             0.474      0.003    148.506      0.000
    MT26$1             0.785      0.003    228.613      0.000
    MT35$1             0.390      0.003    123.646      0.000
    MT39$1             0.742      0.003    218.693      0.000
    MT41$1             0.033      0.003     10.608      0.000
    MT42$1             0.326      0.003    104.381      0.000
    MT43$1             0.881      0.004    248.877      0.000
    MT44$1             0.433      0.003    136.484      0.000

 Variances
    GERAL              1.000      0.000    999.000    999.000


STD Standardization

                                                    Two-Tailed
                    Estimate       S.E.  Est./S.E.    P-Value

 GERAL    BY
    CH1                0.407      0.003    147.932      0.000
    CH4                0.526      0.003    197.211      0.000
    CH6                0.384      0.003    132.631      0.000
    CH9                0.612      0.002    275.337      0.000
    CH10               0.507      0.003    202.198      0.000
    CH11               0.584      0.002    249.091      0.000
    CH16               0.529      0.003    191.087      0.000
    CH17               0.469      0.003    172.939      0.000
    CH20               0.643      0.002    304.049      0.000
    CH27               0.452      0.003    155.657      0.000
    CH29               0.394      0.003    135.205      0.000
    CH30               0.433      0.003    158.579      0.000
    CH32               0.362      0.003    125.139      0.000
    CH33               0.461      0.003    147.342      0.000
    CH35               0.457      0.003    172.052      0.000
    CH37               0.437      0.003    145.878      0.000
    CH40               0.383      0.003    135.236      0.000
    CH41               0.611      0.002    255.995      0.000
    CH42               0.459      0.003    173.664      0.000
    CH43               0.545      0.002    225.947      0.000
    CH44               0.506      0.003    191.347      0.000
    CN1                0.537      0.002    219.306      0.000
    CN4                0.451      0.003    134.991      0.000
    CN6                0.387      0.004    104.286      0.000
    CN8                0.400      0.003    139.592      0.000
    CN11               0.565      0.002    238.283      0.000
    CN13               0.482      0.003    160.289      0.000
    CN14               0.627      0.002    278.943      0.000
    CN15               0.411      0.003    143.382      0.000
    CN16               0.612      0.003    239.205      0.000
    CN17               0.588      0.002    248.917      0.000
    CN18               0.452      0.003    159.633      0.000
    CN30               0.636      0.002    287.298      0.000
    CN43               0.517      0.002    207.857      0.000
    CN44               0.583      0.003    223.469      0.000
    CN45               0.406      0.003    133.636      0.000
    L4                 0.482      0.003    157.499      0.000
    L6                 0.604      0.002    264.316      0.000
    L7                 0.547      0.003    211.538      0.000
    L10                0.552      0.002    227.247      0.000
    L11                0.630      0.002    286.378      0.000
    L12                0.447      0.003    163.641      0.000
    L13                0.431      0.003    154.396      0.000
    L17                0.519      0.003    204.895      0.000
    L18                0.512      0.003    184.466      0.000
    L19                0.437      0.003    144.100      0.000
    L20                0.615      0.002    267.594      0.000
    L21                0.608      0.002    259.703      0.000
    L22                0.567      0.002    236.895      0.000
    L25                0.434      0.003    150.325      0.000
    L26                0.520      0.003    194.751      0.000
    L29                0.579      0.002    238.936      0.000
    L31                0.427      0.003    142.945      0.000
    L32                0.503      0.003    189.518      0.000
    L33                0.481      0.003    177.763      0.000
    L35                0.449      0.003    164.806      0.000
    L36                0.588      0.002    252.652      0.000
    L37                0.651      0.002    301.088      0.000
    L39                0.397      0.003    134.231      0.000
    L41                0.411      0.003    147.125      0.000
    L42                0.601      0.002    256.138      0.000
    L44                0.418      0.003    134.667      0.000
    MT1                0.573      0.002    239.716      0.000
    MT2                0.502      0.003    166.626      0.000
    MT3                0.537      0.003    202.837      0.000
    MT4                0.468      0.003    148.714      0.000
    MT5                0.483      0.003    177.562      0.000
    MT6                0.627      0.002    281.633      0.000
    MT7                0.633      0.002    295.524      0.000
    MT10               0.565      0.002    236.151      0.000
    MT11               0.587      0.002    237.510      0.000
    MT13               0.521      0.003    190.578      0.000
    MT15               0.385      0.003    121.755      0.000
    MT26               0.341      0.004     93.499      0.000
    MT35               0.405      0.003    133.702      0.000
    MT39               0.387      0.004    107.237      0.000
    MT41               0.463      0.003    172.306      0.000
    MT42               0.474      0.003    165.696      0.000
    MT43               0.437      0.004    115.260      0.000
    MT44               0.351      0.003    110.973      0.000

 Thresholds
    CH1$1             -0.068      0.003    -22.164      0.000
    CH4$1             -0.964      0.004   -264.598      0.000
    CH6$1              0.160      0.003     52.121      0.000
    CH9$1             -0.285      0.003    -91.631      0.000
    CH10$1            -0.472      0.003   -147.836      0.000
    CH11$1            -0.729      0.003   -215.573      0.000
    CH16$1             0.351      0.003    111.919      0.000
    CH17$1             0.073      0.003     23.636      0.000
    CH20$1            -0.585      0.003   -179.271      0.000
    CH27$1             0.313      0.003    100.412      0.000
    CH29$1             0.200      0.003     64.915      0.000
    CH30$1            -0.036      0.003    -11.704      0.000
    CH32$1             0.091      0.003     29.601      0.000
    CH33$1             0.537      0.003    166.330      0.000
    CH35$1            -0.248      0.003    -80.141      0.000
    CH37$1            -1.122      0.004   -289.159      0.000
    CH40$1            -0.016      0.003     -5.351      0.000
    CH41$1             0.134      0.003     43.546      0.000
    CH42$1            -0.149      0.003    -48.447      0.000
    CH43$1            -0.289      0.003    -92.995      0.000
    CH44$1             0.118      0.003     38.527      0.000
    CN1$1             -0.402      0.003   -127.251      0.000
    CN4$1             -1.120      0.004   -288.916      0.000
    CN6$1              0.906      0.004    253.901      0.000
    CN8$1              0.153      0.003     49.581      0.000
    CN11$1            -0.302      0.003    -97.060      0.000
    CN13$1             0.439      0.003    138.175      0.000
    CN14$1            -0.097      0.003    -31.757      0.000
    CN15$1             0.167      0.003     54.226      0.000
    CN16$1             0.285      0.003     91.675      0.000
    CN17$1            -0.022      0.003     -7.253      0.000
    CN18$1             0.205      0.003     66.438      0.000
    CN30$1            -0.087      0.003    -28.403      0.000
    CN43$1            -0.206      0.003    -66.540      0.000
    CN44$1             0.309      0.003     98.962      0.000
    CN45$1             0.390      0.003    123.661      0.000
    L4$1               0.533      0.003    165.190      0.000
    L6$1              -0.152      0.003    -49.414      0.000
    L7$1              -0.747      0.003   -219.936      0.000
    L10$1             -0.391      0.003   -123.995      0.000
    L11$1             -0.383      0.003   -121.717      0.000
    L12$1              0.025      0.003      8.026      0.000
    L13$1              0.150      0.003     48.867      0.000
    L17$1             -0.034      0.003    -11.004      0.000
    L18$1              0.287      0.003     92.284      0.000
    L19$1             -0.741      0.003   -218.518      0.000
    L20$1             -0.861      0.004   -244.923      0.000
    L21$1              0.016      0.003      5.223      0.000
    L22$1             -0.182      0.003    -59.149      0.000
    L25$1              0.300      0.003     96.213      0.000
    L26$1              0.189      0.003     61.151      0.000
    L29$1             -0.461      0.003   -144.644      0.000
    L31$1              0.404      0.003    127.983      0.000
    L32$1             -0.699      0.003   -208.522      0.000
    L33$1              0.132      0.003     42.828      0.000
    L35$1              0.012      0.003      3.859      0.000
    L36$1             -0.305      0.003    -97.804      0.000
    L37$1             -0.124      0.003    -40.409      0.000
    L39$1              0.270      0.003     86.916      0.000
    L41$1              0.027      0.003      8.955      0.000
    L42$1             -0.768      0.003   -224.757      0.000
    L44$1              0.459      0.003    144.220      0.000
    MT1$1             -0.629      0.003   -190.733      0.000
    MT2$1              0.559      0.003    172.289      0.000
    MT3$1              0.235      0.003     75.991      0.000
    MT4$1              0.555      0.003    171.157      0.000
    MT5$1              0.154      0.003     50.045      0.000
    MT6$1             -0.079      0.003    -25.758      0.000
    MT7$1             -0.239      0.003    -77.059      0.000
    MT10$1            -0.122      0.003    -39.851      0.000
    MT11$1             0.159      0.003     51.745      0.000
    MT13$1             0.282      0.003     90.565      0.000
    MT15$1             0.474      0.003    148.506      0.000
    MT26$1             0.785      0.003    228.613      0.000
    MT35$1             0.390      0.003    123.646      0.000
    MT39$1             0.742      0.003    218.693      0.000
    MT41$1             0.033      0.003     10.608      0.000
    MT42$1             0.326      0.003    104.381      0.000
    MT43$1             0.881      0.004    248.877      0.000
    MT44$1             0.433      0.003    136.484      0.000

 Variances
    GERAL              1.000      0.000    999.000    999.000


R-SQUARE

    Observed                                        Two-Tailed   Residual
    Variable        Estimate       S.E.  Est./S.E.    P-Value    Variance

    CH1                0.166      0.002     73.966      0.000      0.834
    CH4                0.277      0.003     98.605      0.000      0.723
    CH6                0.148      0.002     66.316      0.000      0.852
    CH9                0.374      0.003    137.669      0.000      0.626
    CH10               0.257      0.003    101.099      0.000      0.743
    CH11               0.341      0.003    124.545      0.000      0.659
    CH16               0.280      0.003     95.544      0.000      0.720
    CH17               0.220      0.003     86.469      0.000      0.780
    CH20               0.414      0.003    152.024      0.000      0.586
    CH27               0.205      0.003     77.828      0.000      0.795
    CH29               0.155      0.002     67.602      0.000      0.845
    CH30               0.187      0.002     79.289      0.000      0.813
    CH32               0.131      0.002     62.569      0.000      0.869
    CH33               0.212      0.003     73.671      0.000      0.788
    CH35               0.209      0.002     86.026      0.000      0.791
    CH37               0.191      0.003     72.939      0.000      0.809
    CH40               0.147      0.002     67.618      0.000      0.853
    CH41               0.374      0.003    127.998      0.000      0.626
    CH42               0.211      0.002     86.832      0.000      0.789
    CH43               0.297      0.003    112.974      0.000      0.703
    CH44               0.256      0.003     95.673      0.000      0.744
    CN1                0.288      0.003    109.653      0.000      0.712
    CN4                0.203      0.003     67.495      0.000      0.797
    CN6                0.149      0.003     52.143      0.000      0.851
    CN8                0.160      0.002     69.796      0.000      0.840
    CN11               0.319      0.003    119.142      0.000      0.681
    CN13               0.232      0.003     80.144      0.000      0.768
    CN14               0.394      0.003    139.471      0.000      0.606
    CN15               0.169      0.002     71.691      0.000      0.831
    CN16               0.374      0.003    119.603      0.000      0.626
    CN17               0.346      0.003    124.458      0.000      0.654
    CN18               0.204      0.003     79.817      0.000      0.796
    CN30               0.404      0.003    143.649      0.000      0.596
    CN43               0.268      0.003    103.929      0.000      0.732
    CN44               0.340      0.003    111.734      0.000      0.660
    CN45               0.165      0.002     66.818      0.000      0.835
    L4                 0.232      0.003     78.750      0.000      0.768
    L6                 0.364      0.003    132.158      0.000      0.636
    L7                 0.299      0.003    105.769      0.000      0.701
    L10                0.305      0.003    113.623      0.000      0.695
    L11                0.396      0.003    143.189      0.000      0.604
    L12                0.200      0.002     81.820      0.000      0.800
    L13                0.186      0.002     77.198      0.000      0.814
    L17                0.269      0.003    102.447      0.000      0.731
    L18                0.262      0.003     92.233      0.000      0.738
    L19                0.191      0.003     72.050      0.000      0.809
    L20                0.379      0.003    133.797      0.000      0.621
    L21                0.369      0.003    129.852      0.000      0.631
    L22                0.321      0.003    118.447      0.000      0.679
    L25                0.189      0.003     75.162      0.000      0.811
    L26                0.270      0.003     97.376      0.000      0.730
    L29                0.335      0.003    119.468      0.000      0.665
    L31                0.182      0.003     71.473      0.000      0.818
    L32                0.253      0.003     94.759      0.000      0.747
    L33                0.232      0.003     88.881      0.000      0.768
    L35                0.202      0.002     82.403      0.000      0.798
    L36                0.346      0.003    126.326      0.000      0.654
    L37                0.424      0.003    150.544      0.000      0.576
    L39                0.157      0.002     67.116      0.000      0.843
    L41                0.169      0.002     73.562      0.000      0.831
    L42                0.361      0.003    128.069      0.000      0.639
    L44                0.175      0.003     67.334      0.000      0.825
    MT1                0.329      0.003    119.858      0.000      0.671
    MT2                0.252      0.003     83.313      0.000      0.748
    MT3                0.288      0.003    101.418      0.000      0.712
    MT4                0.219      0.003     74.357      0.000      0.781
    MT5                0.233      0.003     88.781      0.000      0.767
    MT6                0.393      0.003    140.817      0.000      0.607
    MT7                0.400      0.003    147.762      0.000      0.600
    MT10               0.319      0.003    118.076      0.000      0.681
    MT11               0.344      0.003    118.755      0.000      0.656
    MT13               0.271      0.003     95.289      0.000      0.729
    MT15               0.148      0.002     60.878      0.000      0.852
    MT26               0.116      0.002     46.749      0.000      0.884
    MT35               0.164      0.002     66.851      0.000      0.836
    MT39               0.149      0.003     53.619      0.000      0.851
    MT41               0.215      0.002     86.153      0.000      0.785
    MT42               0.224      0.003     82.848      0.000      0.776
    MT43               0.191      0.003     57.630      0.000      0.809
    MT44               0.123      0.002     55.486      0.000      0.877


QUALITY OF NUMERICAL RESULTS

     Condition Number for the Information Matrix              0.361E-05
       (ratio of smallest to largest eigenvalue)


     Beginning Time:  19:24:52
        Ending Time:  19:41:46
       Elapsed Time:  00:16:54



MUTHEN & MUTHEN
3463 Stoner Ave.
Los Angeles, CA  90066

Tel: (310) 391-9971
Fax: (310) 391-8971
Web: www.StatModel.com
Support: Support@StatModel.com

Copyright (c) 1998-2008 Muthen & Muthen
