Mplus VERSION 5.2
MUTHEN & MUTHEN
06/17/2013   8:05 PM

INPUT INSTRUCTIONS

  TITLE:        ENEM 2009
  DATA:        FILE IS DATA.txt;
  VARIABLE:        NAMES ARE cn1-cn45 ch1-ch45 l1-l45 mt1-mt45;
                  CATEGORICAL ARE ch1-ch45;
              USEVARIABLES ARE ch1-ch45;
  MODEL:
           CH BY ch1-ch45;


  OUTPUT: STANDARDIZED;










INPUT READING TERMINATED NORMALLY



ENEM 2009

SUMMARY OF ANALYSIS

Number of groups                                                 1
Number of observations                                      167220

Number of dependent variables                                   45
Number of independent variables                                  0
Number of continuous latent variables                            1

Observed dependent variables

  Binary and ordered categorical (ordinal)
   CH1         CH2         CH3         CH4         CH5         CH6
   CH7         CH8         CH9         CH10        CH11        CH12
   CH13        CH14        CH15        CH16        CH17        CH18
   CH19        CH20        CH21        CH22        CH23        CH24
   CH25        CH26        CH27        CH28        CH29        CH30
   CH31        CH32        CH33        CH34        CH35        CH36
   CH37        CH38        CH39        CH40        CH41        CH42
   CH43        CH44        CH45

Continuous latent variables
   CH


Estimator                                                    WLSMV
Maximum number of iterations                                  1000
Convergence criterion                                    0.500D-04
Maximum number of steepest descent iterations                   20
Parameterization                                             DELTA

Input data file(s)
  DATA.txt

Input data format  FREE


SUMMARY OF CATEGORICAL DATA PROPORTIONS

    CH1
      Category 1    0.473
      Category 2    0.527
    CH2
      Category 1    0.493
      Category 2    0.507
    CH3
      Category 1    0.575
      Category 2    0.425
    CH4
      Category 1    0.168
      Category 2    0.832
    CH5
      Category 1    0.545
      Category 2    0.455
    CH6
      Category 1    0.564
      Category 2    0.436
    CH7
      Category 1    0.690
      Category 2    0.310
    CH8
      Category 1    0.647
      Category 2    0.353
    CH9
      Category 1    0.388
      Category 2    0.612
    CH10
      Category 1    0.318
      Category 2    0.682
    CH11
      Category 1    0.233
      Category 2    0.767
    CH12
      Category 1    0.857
      Category 2    0.143
    CH13
      Category 1    0.654
      Category 2    0.346
    CH14
      Category 1    0.815
      Category 2    0.185
    CH15
      Category 1    0.709
      Category 2    0.291
    CH16
      Category 1    0.637
      Category 2    0.363
    CH17
      Category 1    0.529
      Category 2    0.471
    CH18
      Category 1    0.894
      Category 2    0.106
    CH19
      Category 1    0.587
      Category 2    0.413
    CH20
      Category 1    0.279
      Category 2    0.721
    CH21
      Category 1    0.748
      Category 2    0.252
    CH22
      Category 1    0.651
      Category 2    0.349
    CH23
      Category 1    0.502
      Category 2    0.498
    CH24
      Category 1    0.638
      Category 2    0.362
    CH25
      Category 1    0.850
      Category 2    0.150
    CH26
      Category 1    0.820
      Category 2    0.180
    CH27
      Category 1    0.623
      Category 2    0.377
    CH28
      Category 1    0.574
      Category 2    0.426
    CH29
      Category 1    0.579
      Category 2    0.421
    CH30
      Category 1    0.486
      Category 2    0.514
    CH31
      Category 1    0.879
      Category 2    0.121
    CH32
      Category 1    0.536
      Category 2    0.464
    CH33
      Category 1    0.705
      Category 2    0.295
    CH34
      Category 1    0.718
      Category 2    0.282
    CH35
      Category 1    0.402
      Category 2    0.598
    CH36
      Category 1    0.378
      Category 2    0.622
    CH37
      Category 1    0.131
      Category 2    0.869
    CH38
      Category 1    0.801
      Category 2    0.199
    CH39
      Category 1    0.471
      Category 2    0.529
    CH40
      Category 1    0.493
      Category 2    0.507
    CH41
      Category 1    0.553
      Category 2    0.447
    CH42
      Category 1    0.441
      Category 2    0.559
    CH43
      Category 1    0.386
      Category 2    0.614
    CH44
      Category 1    0.547
      Category 2    0.453
    CH45
      Category 1    0.676
      Category 2    0.324



THE MODEL ESTIMATION TERMINATED NORMALLY



TESTS OF MODEL FIT

Chi-Square Test of Model Fit

          Value                          40875.016*
          Degrees of Freedom                   910**
          P-Value                           0.0000

*   The chi-square value for MLM, MLMV, MLR, ULSMV, WLSM and WLSMV cannot be used
    for chi-square difference tests.  MLM, MLR and WLSM chi-square difference
    testing is described in the Mplus Technical Appendices at www.statmodel.com.
    See chi-square difference testing in the index of the Mplus User's Guide.

**  The degrees of freedom for MLMV, ULSMV and WLSMV are estimated according to
    a formula given in the Mplus Technical Appendices at www.statmodel.com.
    See degrees of freedom in the index of the Mplus User's Guide.

Chi-Square Test of Model Fit for the Baseline Model

          Value                         851666.299
          Degrees of Freedom                   503
          P-Value                           0.0000

CFI/TLI

          CFI                                0.953
          TLI                                0.974

Number of Free Parameters                       90

RMSEA (Root Mean Square Error Of Approximation)

          Estimate                           0.016

WRMR (Weighted Root Mean Square Residual)

          Value                              5.826



MODEL RESULTS

                                                    Two-Tailed
                    Estimate       S.E.  Est./S.E.    P-Value

 CH       BY
    CH1                1.000      0.000    999.000    999.000
    CH2                0.821      0.008    101.977      0.000
    CH3                0.777      0.008     94.454      0.000
    CH4                1.198      0.010    125.403      0.000
    CH5                0.496      0.008     64.269      0.000
    CH6                0.878      0.008    105.071      0.000
    CH7                0.819      0.009     91.127      0.000
    CH8                0.453      0.008     57.006      0.000
    CH9                1.359      0.010    141.326      0.000
    CH10               1.223      0.009    132.083      0.000
    CH11               1.278      0.010    134.484      0.000
    CH12               0.513      0.010     50.097      0.000
    CH13               0.726      0.008     86.197      0.000
    CH14               0.790      0.010     78.224      0.000
    CH15               0.525      0.009     61.554      0.000
    CH16               1.207      0.010    125.185      0.000
    CH17               1.088      0.009    123.002      0.000
    CH18               0.043      0.011      3.801      0.000
    CH19               0.342      0.008     45.265      0.000
    CH20               1.430      0.010    141.785      0.000
    CH21              -0.170      0.008    -21.493      0.000
    CH22               0.088      0.007     11.777      0.000
    CH23               0.689      0.008     85.913      0.000
    CH24               0.865      0.009     99.730      0.000
    CH25               0.295      0.010     30.537      0.000
    CH26               0.374      0.010     37.650      0.000
    CH27               1.027      0.009    112.928      0.000
    CH28               0.662      0.008     82.635      0.000
    CH29               0.916      0.009    105.882      0.000
    CH30               1.050      0.009    120.434      0.000
    CH31               0.427      0.011     39.688      0.000
    CH32               0.876      0.008    104.656      0.000
    CH33               1.040      0.010    108.284      0.000
    CH34               0.487      0.008     58.048      0.000
    CH35               1.095      0.009    123.426      0.000
    CH36               0.682      0.008     86.751      0.000
    CH37               1.064      0.009    112.091      0.000
    CH38               0.465      0.009     50.390      0.000
    CH39               0.746      0.008     91.384      0.000
    CH40               0.924      0.009    108.292      0.000
    CH41               1.407      0.010    139.472      0.000
    CH42               1.145      0.009    127.328      0.000
    CH43               1.268      0.009    135.152      0.000
    CH44               1.155      0.009    124.494      0.000
    CH45               0.599      0.008     70.984      0.000

 Thresholds
    CH1$1             -0.068      0.003    -22.164      0.000
    CH2$1             -0.018      0.003     -5.752      0.000
    CH3$1              0.189      0.003     61.400      0.000
    CH4$1             -0.964      0.004   -264.598      0.000
    CH5$1              0.112      0.003     36.513      0.000
    CH6$1              0.160      0.003     52.121      0.000
    CH7$1              0.497      0.003    155.028      0.000
    CH8$1              0.378      0.003    120.068      0.000
    CH9$1             -0.285      0.003    -91.631      0.000
    CH10$1            -0.472      0.003   -147.836      0.000
    CH11$1            -0.729      0.003   -215.573      0.000
    CH12$1             1.066      0.004    281.316      0.000
    CH13$1             0.397      0.003    125.822      0.000
    CH14$1             0.895      0.004    251.787      0.000
    CH15$1             0.550      0.003    169.785      0.000
    CH16$1             0.351      0.003    111.919      0.000
    CH17$1             0.073      0.003     23.636      0.000
    CH18$1             1.250      0.004    303.692      0.000
    CH19$1             0.220      0.003     71.088      0.000
    CH20$1            -0.585      0.003   -179.271      0.000
    CH21$1             0.669      0.003    201.165      0.000
    CH22$1             0.387      0.003    122.895      0.000
    CH23$1             0.006      0.003      1.844      0.065
    CH24$1             0.352      0.003    112.220      0.000
    CH25$1             1.035      0.004    276.460      0.000
    CH26$1             0.915      0.004    255.665      0.000
    CH27$1             0.313      0.003    100.412      0.000
    CH28$1             0.187      0.003     60.526      0.000
    CH29$1             0.200      0.003     64.915      0.000
    CH30$1            -0.036      0.003    -11.704      0.000
    CH31$1             1.168      0.004    294.944      0.000
    CH32$1             0.091      0.003     29.601      0.000
    CH33$1             0.537      0.003    166.330      0.000
    CH34$1             0.576      0.003    176.961      0.000
    CH35$1            -0.248      0.003    -80.141      0.000
    CH36$1            -0.312      0.003    -99.950      0.000
    CH37$1            -1.122      0.004   -289.159      0.000
    CH38$1             0.845      0.003    241.507      0.000
    CH39$1            -0.073      0.003    -23.768      0.000
    CH40$1            -0.016      0.003     -5.351      0.000
    CH41$1             0.134      0.003     43.546      0.000
    CH42$1            -0.149      0.003    -48.447      0.000
    CH43$1            -0.289      0.003    -92.995      0.000
    CH44$1             0.118      0.003     38.527      0.000
    CH45$1             0.455      0.003    143.067      0.000

 Variances
    CH                 0.207      0.003     80.428      0.000


IRT PARAMETERIZATION IN TWO-PARAMETER PROBIT METRIC
WHERE THE PROBIT IS DISCRIMINATION*(THETA - DIFFICULTY)

 Item Discriminations

 CH       BY
    CH1                0.511      0.004    127.525      0.000
    CH2                0.403      0.004    106.309      0.000
    CH3                0.378      0.004     98.697      0.000
    CH4                0.651      0.005    132.369      0.000
    CH5                0.232      0.004     65.571      0.000
    CH6                0.436      0.004    109.838      0.000
    CH7                0.402      0.004     92.394      0.000
    CH8                0.211      0.004     57.640      0.000
    CH9                0.787      0.005    159.933      0.000
    CH10               0.670      0.004    148.902      0.000
    CH11               0.715      0.005    149.617      0.000
    CH12               0.240      0.005     49.363      0.000
    CH13               0.350      0.004     88.098      0.000
    CH14               0.385      0.005     74.389      0.000
    CH15               0.246      0.004     62.193      0.000
    CH16               0.657      0.005    131.380      0.000
    CH17               0.570      0.004    132.217      0.000
    CH18               0.019      0.005      3.799      0.000
    CH19               0.158      0.003     45.162      0.000
    CH20               0.858      0.005    163.153      0.000
    CH21              -0.077      0.004    -21.571      0.000
    CH22               0.040      0.003     11.805      0.000
    CH23               0.330      0.004     90.017      0.000
    CH24               0.428      0.004    103.073      0.000
    CH25               0.135      0.004     30.500      0.000
    CH26               0.173      0.005     37.035      0.000
    CH27               0.529      0.004    118.782      0.000
    CH28               0.316      0.004     85.810      0.000
    CH29               0.459      0.004    112.166      0.000
    CH30               0.544      0.004    131.385      0.000
    CH31               0.198      0.005     39.156      0.000
    CH32               0.435      0.004    111.616      0.000
    CH33               0.538      0.005    108.917      0.000
    CH34               0.227      0.004     58.616      0.000
    CH35               0.575      0.004    136.323      0.000
    CH36               0.327      0.004     90.380      0.000
    CH37               0.554      0.005    115.217      0.000
    CH38               0.216      0.004     49.961      0.000
    CH39               0.361      0.004     96.499      0.000
    CH40               0.464      0.004    117.224      0.000
    CH41               0.834      0.006    150.411      0.000
    CH42               0.611      0.004    142.148      0.000
    CH43               0.707      0.005    153.444      0.000
    CH44               0.618      0.005    136.116      0.000
    CH45               0.284      0.004     71.938      0.000

 Item Difficulties
    CH1$1             -0.149      0.007    -21.832      0.000
    CH2$1             -0.047      0.008     -5.740      0.000
    CH3$1              0.535      0.010     54.029      0.000
    CH4$1             -1.767      0.012   -144.310      0.000
    CH5$1              0.497      0.015     32.223      0.000
    CH6$1              0.401      0.008     48.533      0.000
    CH7$1              1.333      0.015     87.953      0.000
    CH8$1              1.831      0.034     53.595      0.000
    CH9$1             -0.461      0.005    -83.864      0.000
    CH10$1            -0.848      0.007   -116.717      0.000
    CH11$1            -1.253      0.009   -146.630      0.000
    CH12$1             4.564      0.090     50.988      0.000
    CH13$1             1.202      0.016     77.314      0.000
    CH14$1             2.491      0.031     80.138      0.000
    CH15$1             2.301      0.038     61.165      0.000
    CH16$1             0.639      0.007     96.240      0.000
    CH17$1             0.146      0.006     23.538      0.000
    CH18$1            64.531     16.981      3.800      0.000
    CH19$1             1.413      0.036     38.738      0.000
    CH20$1            -0.899      0.006   -142.917      0.000
    CH21$1            -8.665      0.402    -21.544      0.000
    CH22$1             9.696      0.824     11.764      0.000
    CH23$1             0.018      0.010      1.844      0.065
    CH24$1             0.894      0.011     82.603      0.000
    CH25$1             7.718      0.251     30.779      0.000
    CH26$1             5.377      0.143     37.628      0.000
    CH27$1             0.670      0.008     84.013      0.000
    CH28$1             0.619      0.012     50.820      0.000
    CH29$1             0.481      0.008     58.500      0.000
    CH30$1            -0.075      0.006    -11.643      0.000
    CH31$1             6.014      0.150     40.123      0.000
    CH32$1             0.228      0.008     28.996      0.000
    CH33$1             1.135      0.011    107.011      0.000
    CH34$1             2.601      0.045     57.833      0.000
    CH35$1            -0.498      0.007    -71.830      0.000
    CH36$1            -1.005      0.014    -69.529      0.000
    CH37$1            -2.317      0.018   -126.531      0.000
    CH38$1             3.994      0.079     50.832      0.000
    CH39$1            -0.215      0.009    -23.160      0.000
    CH40$1            -0.039      0.007     -5.344      0.000
    CH41$1             0.209      0.005     43.266      0.000
    CH42$1            -0.286      0.006    -46.366      0.000
    CH43$1            -0.501      0.006    -83.851      0.000
    CH44$1             0.225      0.006     38.007      0.000
    CH45$1             1.669      0.025     68.085      0.000

 Variances
    CH                 1.000      0.000      0.000      1.000


STANDARDIZED MODEL RESULTS


STDYX Standardization

                                                    Two-Tailed
                    Estimate       S.E.  Est./S.E.    P-Value

 CH       BY
    CH1                0.455      0.003    160.856      0.000
    CH2                0.374      0.003    123.549      0.000
    CH3                0.354      0.003    112.816      0.000
    CH4                0.546      0.003    188.452      0.000
    CH5                0.226      0.003     69.092      0.000
    CH6                0.400      0.003    130.736      0.000
    CH7                0.373      0.003    107.315      0.000
    CH8                0.206      0.003     60.203      0.000
    CH9                0.618      0.002    258.991      0.000
    CH10               0.557      0.003    215.720      0.000
    CH11               0.582      0.003    226.103      0.000
    CH12               0.234      0.004     52.213      0.000
    CH13               0.330      0.003     98.886      0.000
    CH14               0.359      0.004     85.427      0.000
    CH15               0.239      0.004     65.962      0.000
    CH16               0.549      0.003    188.159      0.000
    CH17               0.495      0.003    175.198      0.000
    CH18               0.019      0.005      3.801      0.000
    CH19               0.156      0.003     46.282      0.000
    CH20               0.651      0.002    283.195      0.000
    CH21              -0.077      0.004    -21.700      0.000
    CH22               0.040      0.003     11.824      0.000
    CH23               0.314      0.003     99.842      0.000
    CH24               0.394      0.003    121.961      0.000
    CH25               0.134      0.004     31.058      0.000
    CH26               0.170      0.004     38.140      0.000
    CH27               0.467      0.003    151.978      0.000
    CH28               0.301      0.003     94.382      0.000
    CH29               0.417      0.003    135.774      0.000
    CH30               0.478      0.003    170.296      0.000
    CH31               0.194      0.005     40.690      0.000
    CH32               0.399      0.003    132.743      0.000
    CH33               0.473      0.003    140.391      0.000
    CH34               0.222      0.004     61.643      0.000
    CH35               0.498      0.003    181.390      0.000
    CH36               0.310      0.003    100.015      0.000
    CH37               0.484      0.003    150.524      0.000
    CH38               0.211      0.004     52.299      0.000
    CH39               0.340      0.003    109.090      0.000
    CH40               0.421      0.003    142.409      0.000
    CH41               0.640      0.003    255.016      0.000
    CH42               0.521      0.003    195.210      0.000
    CH43               0.577      0.003    230.151      0.000
    CH44               0.526      0.003    188.064      0.000
    CH45               0.273      0.004     77.721      0.000

 Thresholds
    CH1$1             -0.068      0.003    -22.164      0.000
    CH2$1             -0.018      0.003     -5.752      0.000
    CH3$1              0.189      0.003     61.400      0.000
    CH4$1             -0.964      0.004   -264.598      0.000
    CH5$1              0.112      0.003     36.513      0.000
    CH6$1              0.160      0.003     52.121      0.000
    CH7$1              0.497      0.003    155.028      0.000
    CH8$1              0.378      0.003    120.068      0.000
    CH9$1             -0.285      0.003    -91.631      0.000
    CH10$1            -0.472      0.003   -147.836      0.000
    CH11$1            -0.729      0.003   -215.573      0.000
    CH12$1             1.066      0.004    281.316      0.000
    CH13$1             0.397      0.003    125.822      0.000
    CH14$1             0.895      0.004    251.787      0.000
    CH15$1             0.550      0.003    169.785      0.000
    CH16$1             0.351      0.003    111.919      0.000
    CH17$1             0.073      0.003     23.636      0.000
    CH18$1             1.250      0.004    303.692      0.000
    CH19$1             0.220      0.003     71.088      0.000
    CH20$1            -0.585      0.003   -179.271      0.000
    CH21$1             0.669      0.003    201.165      0.000
    CH22$1             0.387      0.003    122.895      0.000
    CH23$1             0.006      0.003      1.844      0.065
    CH24$1             0.352      0.003    112.220      0.000
    CH25$1             1.035      0.004    276.460      0.000
    CH26$1             0.915      0.004    255.665      0.000
    CH27$1             0.313      0.003    100.412      0.000
    CH28$1             0.187      0.003     60.526      0.000
    CH29$1             0.200      0.003     64.915      0.000
    CH30$1            -0.036      0.003    -11.704      0.000
    CH31$1             1.168      0.004    294.944      0.000
    CH32$1             0.091      0.003     29.601      0.000
    CH33$1             0.537      0.003    166.330      0.000
    CH34$1             0.576      0.003    176.961      0.000
    CH35$1            -0.248      0.003    -80.141      0.000
    CH36$1            -0.312      0.003    -99.950      0.000
    CH37$1            -1.122      0.004   -289.159      0.000
    CH38$1             0.845      0.003    241.507      0.000
    CH39$1            -0.073      0.003    -23.768      0.000
    CH40$1            -0.016      0.003     -5.351      0.000
    CH41$1             0.134      0.003     43.546      0.000
    CH42$1            -0.149      0.003    -48.447      0.000
    CH43$1            -0.289      0.003    -92.995      0.000
    CH44$1             0.118      0.003     38.527      0.000
    CH45$1             0.455      0.003    143.067      0.000

 Variances
    CH                 1.000      0.000    999.000    999.000


STDY Standardization

                                                    Two-Tailed
                    Estimate       S.E.  Est./S.E.    P-Value

 CH       BY
    CH1                0.455      0.003    160.856      0.000
    CH2                0.374      0.003    123.549      0.000
    CH3                0.354      0.003    112.816      0.000
    CH4                0.546      0.003    188.452      0.000
    CH5                0.226      0.003     69.092      0.000
    CH6                0.400      0.003    130.736      0.000
    CH7                0.373      0.003    107.315      0.000
    CH8                0.206      0.003     60.203      0.000
    CH9                0.618      0.002    258.991      0.000
    CH10               0.557      0.003    215.720      0.000
    CH11               0.582      0.003    226.103      0.000
    CH12               0.234      0.004     52.213      0.000
    CH13               0.330      0.003     98.886      0.000
    CH14               0.359      0.004     85.427      0.000
    CH15               0.239      0.004     65.962      0.000
    CH16               0.549      0.003    188.159      0.000
    CH17               0.495      0.003    175.198      0.000
    CH18               0.019      0.005      3.801      0.000
    CH19               0.156      0.003     46.282      0.000
    CH20               0.651      0.002    283.195      0.000
    CH21              -0.077      0.004    -21.700      0.000
    CH22               0.040      0.003     11.824      0.000
    CH23               0.314      0.003     99.842      0.000
    CH24               0.394      0.003    121.961      0.000
    CH25               0.134      0.004     31.058      0.000
    CH26               0.170      0.004     38.140      0.000
    CH27               0.467      0.003    151.978      0.000
    CH28               0.301      0.003     94.382      0.000
    CH29               0.417      0.003    135.774      0.000
    CH30               0.478      0.003    170.296      0.000
    CH31               0.194      0.005     40.690      0.000
    CH32               0.399      0.003    132.743      0.000
    CH33               0.473      0.003    140.391      0.000
    CH34               0.222      0.004     61.643      0.000
    CH35               0.498      0.003    181.390      0.000
    CH36               0.310      0.003    100.015      0.000
    CH37               0.484      0.003    150.524      0.000
    CH38               0.211      0.004     52.299      0.000
    CH39               0.340      0.003    109.090      0.000
    CH40               0.421      0.003    142.409      0.000
    CH41               0.640      0.003    255.016      0.000
    CH42               0.521      0.003    195.210      0.000
    CH43               0.577      0.003    230.151      0.000
    CH44               0.526      0.003    188.064      0.000
    CH45               0.273      0.004     77.721      0.000

 Thresholds
    CH1$1             -0.068      0.003    -22.164      0.000
    CH2$1             -0.018      0.003     -5.752      0.000
    CH3$1              0.189      0.003     61.400      0.000
    CH4$1             -0.964      0.004   -264.598      0.000
    CH5$1              0.112      0.003     36.513      0.000
    CH6$1              0.160      0.003     52.121      0.000
    CH7$1              0.497      0.003    155.028      0.000
    CH8$1              0.378      0.003    120.068      0.000
    CH9$1             -0.285      0.003    -91.631      0.000
    CH10$1            -0.472      0.003   -147.836      0.000
    CH11$1            -0.729      0.003   -215.573      0.000
    CH12$1             1.066      0.004    281.316      0.000
    CH13$1             0.397      0.003    125.822      0.000
    CH14$1             0.895      0.004    251.787      0.000
    CH15$1             0.550      0.003    169.785      0.000
    CH16$1             0.351      0.003    111.919      0.000
    CH17$1             0.073      0.003     23.636      0.000
    CH18$1             1.250      0.004    303.692      0.000
    CH19$1             0.220      0.003     71.088      0.000
    CH20$1            -0.585      0.003   -179.271      0.000
    CH21$1             0.669      0.003    201.165      0.000
    CH22$1             0.387      0.003    122.895      0.000
    CH23$1             0.006      0.003      1.844      0.065
    CH24$1             0.352      0.003    112.220      0.000
    CH25$1             1.035      0.004    276.460      0.000
    CH26$1             0.915      0.004    255.665      0.000
    CH27$1             0.313      0.003    100.412      0.000
    CH28$1             0.187      0.003     60.526      0.000
    CH29$1             0.200      0.003     64.915      0.000
    CH30$1            -0.036      0.003    -11.704      0.000
    CH31$1             1.168      0.004    294.944      0.000
    CH32$1             0.091      0.003     29.601      0.000
    CH33$1             0.537      0.003    166.330      0.000
    CH34$1             0.576      0.003    176.961      0.000
    CH35$1            -0.248      0.003    -80.141      0.000
    CH36$1            -0.312      0.003    -99.950      0.000
    CH37$1            -1.122      0.004   -289.159      0.000
    CH38$1             0.845      0.003    241.507      0.000
    CH39$1            -0.073      0.003    -23.768      0.000
    CH40$1            -0.016      0.003     -5.351      0.000
    CH41$1             0.134      0.003     43.546      0.000
    CH42$1            -0.149      0.003    -48.447      0.000
    CH43$1            -0.289      0.003    -92.995      0.000
    CH44$1             0.118      0.003     38.527      0.000
    CH45$1             0.455      0.003    143.067      0.000

 Variances
    CH                 1.000      0.000    999.000    999.000


STD Standardization

                                                    Two-Tailed
                    Estimate       S.E.  Est./S.E.    P-Value

 CH       BY
    CH1                0.455      0.003    160.856      0.000
    CH2                0.374      0.003    123.549      0.000
    CH3                0.354      0.003    112.816      0.000
    CH4                0.546      0.003    188.452      0.000
    CH5                0.226      0.003     69.092      0.000
    CH6                0.400      0.003    130.736      0.000
    CH7                0.373      0.003    107.315      0.000
    CH8                0.206      0.003     60.203      0.000
    CH9                0.618      0.002    258.991      0.000
    CH10               0.557      0.003    215.720      0.000
    CH11               0.582      0.003    226.103      0.000
    CH12               0.234      0.004     52.213      0.000
    CH13               0.330      0.003     98.886      0.000
    CH14               0.359      0.004     85.427      0.000
    CH15               0.239      0.004     65.962      0.000
    CH16               0.549      0.003    188.159      0.000
    CH17               0.495      0.003    175.198      0.000
    CH18               0.019      0.005      3.801      0.000
    CH19               0.156      0.003     46.282      0.000
    CH20               0.651      0.002    283.195      0.000
    CH21              -0.077      0.004    -21.700      0.000
    CH22               0.040      0.003     11.824      0.000
    CH23               0.314      0.003     99.842      0.000
    CH24               0.394      0.003    121.961      0.000
    CH25               0.134      0.004     31.058      0.000
    CH26               0.170      0.004     38.140      0.000
    CH27               0.467      0.003    151.978      0.000
    CH28               0.301      0.003     94.382      0.000
    CH29               0.417      0.003    135.774      0.000
    CH30               0.478      0.003    170.296      0.000
    CH31               0.194      0.005     40.690      0.000
    CH32               0.399      0.003    132.743      0.000
    CH33               0.473      0.003    140.391      0.000
    CH34               0.222      0.004     61.643      0.000
    CH35               0.498      0.003    181.390      0.000
    CH36               0.310      0.003    100.015      0.000
    CH37               0.484      0.003    150.524      0.000
    CH38               0.211      0.004     52.299      0.000
    CH39               0.340      0.003    109.090      0.000
    CH40               0.421      0.003    142.409      0.000
    CH41               0.640      0.003    255.016      0.000
    CH42               0.521      0.003    195.210      0.000
    CH43               0.577      0.003    230.151      0.000
    CH44               0.526      0.003    188.064      0.000
    CH45               0.273      0.004     77.721      0.000

 Thresholds
    CH1$1             -0.068      0.003    -22.164      0.000
    CH2$1             -0.018      0.003     -5.752      0.000
    CH3$1              0.189      0.003     61.400      0.000
    CH4$1             -0.964      0.004   -264.598      0.000
    CH5$1              0.112      0.003     36.513      0.000
    CH6$1              0.160      0.003     52.121      0.000
    CH7$1              0.497      0.003    155.028      0.000
    CH8$1              0.378      0.003    120.068      0.000
    CH9$1             -0.285      0.003    -91.631      0.000
    CH10$1            -0.472      0.003   -147.836      0.000
    CH11$1            -0.729      0.003   -215.573      0.000
    CH12$1             1.066      0.004    281.316      0.000
    CH13$1             0.397      0.003    125.822      0.000
    CH14$1             0.895      0.004    251.787      0.000
    CH15$1             0.550      0.003    169.785      0.000
    CH16$1             0.351      0.003    111.919      0.000
    CH17$1             0.073      0.003     23.636      0.000
    CH18$1             1.250      0.004    303.692      0.000
    CH19$1             0.220      0.003     71.088      0.000
    CH20$1            -0.585      0.003   -179.271      0.000
    CH21$1             0.669      0.003    201.165      0.000
    CH22$1             0.387      0.003    122.895      0.000
    CH23$1             0.006      0.003      1.844      0.065
    CH24$1             0.352      0.003    112.220      0.000
    CH25$1             1.035      0.004    276.460      0.000
    CH26$1             0.915      0.004    255.665      0.000
    CH27$1             0.313      0.003    100.412      0.000
    CH28$1             0.187      0.003     60.526      0.000
    CH29$1             0.200      0.003     64.915      0.000
    CH30$1            -0.036      0.003    -11.704      0.000
    CH31$1             1.168      0.004    294.944      0.000
    CH32$1             0.091      0.003     29.601      0.000
    CH33$1             0.537      0.003    166.330      0.000
    CH34$1             0.576      0.003    176.961      0.000
    CH35$1            -0.248      0.003    -80.141      0.000
    CH36$1            -0.312      0.003    -99.950      0.000
    CH37$1            -1.122      0.004   -289.159      0.000
    CH38$1             0.845      0.003    241.507      0.000
    CH39$1            -0.073      0.003    -23.768      0.000
    CH40$1            -0.016      0.003     -5.351      0.000
    CH41$1             0.134      0.003     43.546      0.000
    CH42$1            -0.149      0.003    -48.447      0.000
    CH43$1            -0.289      0.003    -92.995      0.000
    CH44$1             0.118      0.003     38.527      0.000
    CH45$1             0.455      0.003    143.067      0.000

 Variances
    CH                 1.000      0.000    999.000    999.000


R-SQUARE

    Observed                                        Two-Tailed   Residual
    Variable        Estimate       S.E.  Est./S.E.    P-Value    Variance

    CH1                0.207      0.003     80.428      0.000      0.793
    CH2                0.140      0.002     61.775      0.000      0.860
    CH3                0.125      0.002     56.408      0.000      0.875
    CH4                0.298      0.003     94.226      0.000      0.702
    CH5                0.051      0.001     34.546      0.000      0.949
    CH6                0.160      0.002     65.368      0.000      0.840
    CH7                0.139      0.003     53.658      0.000      0.861
    CH8                0.043      0.001     30.102      0.000      0.957
    CH9                0.382      0.003    129.496      0.000      0.618
    CH10               0.310      0.003    107.860      0.000      0.690
    CH11               0.338      0.003    113.052      0.000      0.662
    CH12               0.055      0.002     26.106      0.000      0.945
    CH13               0.109      0.002     49.443      0.000      0.891
    CH14               0.129      0.003     42.714      0.000      0.871
    CH15               0.057      0.002     32.981      0.000      0.943
    CH16               0.302      0.003     94.080      0.000      0.698
    CH17               0.245      0.003     87.599      0.000      0.755
    CH18               0.000      0.000      1.900      0.057      1.000
    CH19               0.024      0.001     23.141      0.000      0.976
    CH20               0.424      0.003    141.597      0.000      0.576
    CH21               0.006      0.001     10.850      0.000      0.994
    CH22               0.002      0.000      5.912      0.000      0.998
    CH23               0.098      0.002     49.921      0.000      0.902
    CH24               0.155      0.003     60.981      0.000      0.845
    CH25               0.018      0.001     15.529      0.000      0.982
    CH26               0.029      0.002     19.070      0.000      0.971
    CH27               0.218      0.003     75.989      0.000      0.782
    CH28               0.091      0.002     47.191      0.000      0.909
    CH29               0.174      0.003     67.887      0.000      0.826
    CH30               0.228      0.003     85.148      0.000      0.772
    CH31               0.038      0.002     20.345      0.000      0.962
    CH32               0.159      0.002     66.372      0.000      0.841
    CH33               0.224      0.003     70.196      0.000      0.776
    CH34               0.049      0.002     30.822      0.000      0.951
    CH35               0.248      0.003     90.695      0.000      0.752
    CH36               0.096      0.002     50.008      0.000      0.904
    CH37               0.235      0.003     75.262      0.000      0.765
    CH38               0.045      0.002     26.150      0.000      0.955
    CH39               0.115      0.002     54.545      0.000      0.885
    CH40               0.177      0.002     71.204      0.000      0.823
    CH41               0.410      0.003    127.508      0.000      0.590
    CH42               0.272      0.003     97.605      0.000      0.728
    CH43               0.333      0.003    115.076      0.000      0.667
    CH44               0.276      0.003     94.032      0.000      0.724
    CH45               0.074      0.002     38.861      0.000      0.926


QUALITY OF NUMERICAL RESULTS

     Condition Number for the Information Matrix              0.704E-04
       (ratio of smallest to largest eigenvalue)


     Beginning Time:  20:05:34
        Ending Time:  20:08:20
       Elapsed Time:  00:02:46



MUTHEN & MUTHEN
3463 Stoner Ave.
Los Angeles, CA  90066

Tel: (310) 391-9971
Fax: (310) 391-8971
Web: www.StatModel.com
Support: Support@StatModel.com

Copyright (c) 1998-2008 Muthen & Muthen
