TITLE:	ENEM 2010
DATA:	FILE IS DATA.txt;
VARIABLE:	NAMES ARE cn1-cn45 ch1-ch45 l1-l45 mt1-mt45;
        	CATEGORICAL ARE l4 l6 l7 l10-l13 
            l17-l22 l25 l26 l29 l31-l33 l35-l37 l39 l41 l42 l44;
            USEVARIABLES ARE l4 l6 l7 l10-l13 
            l17-l22 l25 l26 l29 l31-l33 l35-l37 l39 l41 l42 l44;
MODEL:
          L BY l4 l6 l7 l10-l13
           l17-l22 l25 l26 l29 l31-l33 l35-l37 l39 l41 l42 l44;
          

OUTPUT: STANDARDIZED;







