TITLE:	ENEM 2010
DATA:	FILE IS DATA.txt;
VARIABLE:	NAMES ARE cn1-cn45 ch1-ch45 l1-l45 mt1-mt45;
        	CATEGORICAL ARE mt1-mt45;
            USEVARIABLES ARE mt1-mt45;
MODEL:
          MT BY mt1-mt45;
          

OUTPUT: STANDARDIZED;







