Mplus VERSION 5.2
MUTHEN & MUTHEN
06/15/2013   9:13 PM

INPUT INSTRUCTIONS

  TITLE:        ENEM 2009
  DATA:        FILE IS DATA.txt;
  VARIABLE:        NAMES ARE cn1-cn45 ch1-ch45 l1-l10 l12-l45 mt1-mt45;
                  CATEGORICAL ch2 ch6-ch9 ch12 ch14-ch17 ch19 ch23 ch24 ch27
             ch29-ch31 ch33 ch34 ch36-ch40
             cn1 cn2 cn4-cn6 cn8 cn10 cn11
                cn13 cn16 cn19-cn22 cn33 cn37
              l2 l5 l7 l8-l10 l12 l14 l15 l17 l19 l20 l22
               l23 l25 l26 l28-l34 l36-l38 l42-l44
              mt1 mt2 mt5 mt7 mt10 mt13 mt17 mt19 mt24;
               USEVARIABLES ch2 ch6-ch9 ch12 ch14-ch17 ch19 ch23 ch24 ch27
             ch29-ch31 ch33 ch34 ch36-ch40
             cn1 cn2 cn4-cn6 cn8 cn10 cn11
                cn13 cn16 cn19-cn22 cn33 cn37
               l2 l5 l7 l8-l10 l12 l14 l15 l17 l19 l20 l22
               l23 l25 l26 l28-l34 l36-l38 l42-l44
               mt1 mt2 mt5 mt7 mt10 mt13 mt17 mt19 mt24;
  MODEL:
            GERAL BY ch2 ch6-ch9 ch12 ch14-ch17 ch19 ch23 ch24 ch27
             ch29-ch31 ch33 ch34 ch36-ch40
             cn1 cn2 cn4-cn6 cn8 cn10 cn11
                cn13 cn16 cn19-cn22 cn33 cn37
              l2 l5 l7 l8-l10 l12 l14 l15 l17 l19 l20 l22
               l23 l25 l26 l28-l34 l36-l38 l42-l44
              mt1 mt2 mt5 mt7 mt10 mt13 mt17 mt19 mt24;
            MT BY mt1 mt2 mt5 mt7 mt10 mt13 mt17 mt19 mt24 cn21 cn33 ch39;
            CN BY cn1 cn8 cn13 cn20 cn22;
            CH BY ch7 ch8 ch17 ch19 ch23 ch24 ch27
             ch29-ch31 ch33 ch34 ch36-ch40;
            L BY l2 l5 l7 l10 l12 l14 l15 l17 l20
               l23 l25 l26 l28-l31 l33 l34 l36-l38 l43-l44 cn13 cn33 mt1;
               GERAL WITH MT@0;
               GERAL WITH CN@0;
               GERAL WITH CH@0;
               GERAL WITH L@0;
               MT WITH CN@0;
               MT WITH CH@0;
               MT WITH L@0;
               CN WITH CH@0;
               CN WITH L@0;
               CH WITH L@0;

  OUTPUT: STANDARDIZED;
  MODINDICES (3000);








INPUT READING TERMINATED NORMALLY



ENEM 2009

SUMMARY OF ANALYSIS

Number of groups                                                 1
Number of observations                                      288117

Number of dependent variables                                   78
Number of independent variables                                  0
Number of continuous latent variables                            5

Observed dependent variables

  Binary and ordered categorical (ordinal)
   CH2         CH6         CH7         CH8         CH9         CH12
   CH14        CH15        CH16        CH17        CH19        CH23
   CH24        CH27        CH29        CH30        CH31        CH33
   CH34        CH36        CH37        CH38        CH39        CH40
   CN1         CN2         CN4         CN5         CN6         CN8
   CN10        CN11        CN13        CN16        CN19        CN20
   CN21        CN22        CN33        CN37        L2          L5
   L7          L8          L9          L10         L12         L14
   L15         L17         L19         L20         L22         L23
   L25         L26         L28         L29         L30         L31
   L32         L33         L34         L36         L37         L38
   L42         L43         L44         MT1         MT2         MT5
   MT7         MT10        MT13        MT17        MT19        MT24

Continuous latent variables
   GERAL       MT          CN          CH          L


Estimator                                                    WLSMV
Maximum number of iterations                                  1000
Convergence criterion                                    0.500D-04
Maximum number of steepest descent iterations                   20
Parameterization                                             DELTA

Input data file(s)
  DATA.txt

Input data format  FREE


SUMMARY OF CATEGORICAL DATA PROPORTIONS

    CH2
      Category 1    0.411
      Category 2    0.589
    CH6
      Category 1    0.533
      Category 2    0.467
    CH7
      Category 1    0.717
      Category 2    0.283
    CH8
      Category 1    0.711
      Category 2    0.289
    CH9
      Category 1    0.286
      Category 2    0.714
    CH12
      Category 1    0.546
      Category 2    0.454
    CH14
      Category 1    0.483
      Category 2    0.517
    CH15
      Category 1    0.524
      Category 2    0.476
    CH16
      Category 1    0.401
      Category 2    0.599
    CH17
      Category 1    0.583
      Category 2    0.417
    CH19
      Category 1    0.601
      Category 2    0.399
    CH23
      Category 1    0.624
      Category 2    0.376
    CH24
      Category 1    0.707
      Category 2    0.293
    CH27
      Category 1    0.595
      Category 2    0.405
    CH29
      Category 1    0.526
      Category 2    0.474
    CH30
      Category 1    0.581
      Category 2    0.419
    CH31
      Category 1    0.703
      Category 2    0.297
    CH33
      Category 1    0.576
      Category 2    0.424
    CH34
      Category 1    0.427
      Category 2    0.573
    CH36
      Category 1    0.619
      Category 2    0.381
    CH37
      Category 1    0.785
      Category 2    0.215
    CH38
      Category 1    0.685
      Category 2    0.315
    CH39
      Category 1    0.675
      Category 2    0.325
    CH40
      Category 1    0.743
      Category 2    0.257
    CN1
      Category 1    0.111
      Category 2    0.889
    CN2
      Category 1    0.601
      Category 2    0.399
    CN4
      Category 1    0.352
      Category 2    0.648
    CN5
      Category 1    0.415
      Category 2    0.585
    CN6
      Category 1    0.418
      Category 2    0.582
    CN8
      Category 1    0.447
      Category 2    0.553
    CN10
      Category 1    0.717
      Category 2    0.283
    CN11
      Category 1    0.516
      Category 2    0.484
    CN13
      Category 1    0.247
      Category 2    0.753
    CN16
      Category 1    0.539
      Category 2    0.461
    CN19
      Category 1    0.658
      Category 2    0.342
    CN20
      Category 1    0.337
      Category 2    0.663
    CN21
      Category 1    0.681
      Category 2    0.319
    CN22
      Category 1    0.407
      Category 2    0.593
    CN33
      Category 1    0.793
      Category 2    0.207
    CN37
      Category 1    0.697
      Category 2    0.303
    L2
      Category 1    0.349
      Category 2    0.651
    L5
      Category 1    0.452
      Category 2    0.548
    L7
      Category 1    0.059
      Category 2    0.941
    L8
      Category 1    0.704
      Category 2    0.296
    L9
      Category 1    0.673
      Category 2    0.327
    L10
      Category 1    0.280
      Category 2    0.720
    L12
      Category 1    0.371
      Category 2    0.629
    L14
      Category 1    0.459
      Category 2    0.541
    L15
      Category 1    0.226
      Category 2    0.774
    L17
      Category 1    0.203
      Category 2    0.797
    L19
      Category 1    0.592
      Category 2    0.408
    L20
      Category 1    0.379
      Category 2    0.621
    L22
      Category 1    0.687
      Category 2    0.313
    L23
      Category 1    0.474
      Category 2    0.526
    L25
      Category 1    0.520
      Category 2    0.480
    L26
      Category 1    0.423
      Category 2    0.577
    L28
      Category 1    0.408
      Category 2    0.592
    L29
      Category 1    0.570
      Category 2    0.430
    L30
      Category 1    0.492
      Category 2    0.508
    L31
      Category 1    0.578
      Category 2    0.422
    L32
      Category 1    0.756
      Category 2    0.244
    L33
      Category 1    0.602
      Category 2    0.398
    L34
      Category 1    0.586
      Category 2    0.414
    L36
      Category 1    0.553
      Category 2    0.447
    L37
      Category 1    0.433
      Category 2    0.567
    L38
      Category 1    0.478
      Category 2    0.522
    L42
      Category 1    0.687
      Category 2    0.313
    L43
      Category 1    0.679
      Category 2    0.321
    L44
      Category 1    0.641
      Category 2    0.359
    MT1
      Category 1    0.731
      Category 2    0.269
    MT2
      Category 1    0.899
      Category 2    0.101
    MT5
      Category 1    0.598
      Category 2    0.402
    MT7
      Category 1    0.660
      Category 2    0.340
    MT10
      Category 1    0.483
      Category 2    0.517
    MT13
      Category 1    0.638
      Category 2    0.362
    MT17
      Category 1    0.714
      Category 2    0.286
    MT19
      Category 1    0.741
      Category 2    0.259
    MT24
      Category 1    0.825
      Category 2    0.175



THE MODEL ESTIMATION TERMINATED NORMALLY



TESTS OF MODEL FIT

Chi-Square Test of Model Fit

          Value                         173029.673*
          Degrees of Freedom                  2682**
          P-Value                           0.0000

*   The chi-square value for MLM, MLMV, MLR, ULSMV, WLSM and WLSMV cannot be used
    for chi-square difference tests.  MLM, MLR and WLSM chi-square difference
    testing is described in the Mplus Technical Appendices at www.statmodel.com.
    See chi-square difference testing in the index of the Mplus User's Guide.

**  The degrees of freedom for MLMV, ULSMV and WLSMV are estimated according to
    a formula given in the Mplus Technical Appendices at www.statmodel.com.
    See degrees of freedom in the index of the Mplus User's Guide.

Chi-Square Test of Model Fit for the Baseline Model

          Value                         **********
          Degrees of Freedom                   590
          P-Value                           0.0000

CFI/TLI

          CFI                                0.948
          TLI                                0.988

Number of Free Parameters                      216

RMSEA (Root Mean Square Error Of Approximation)

          Estimate                           0.015

WRMR (Weighted Root Mean Square Residual)

          Value                              6.798



MODEL RESULTS

                                                    Two-Tailed
                    Estimate       S.E.  Est./S.E.    P-Value

 GERAL    BY
    CH2                1.000      0.000    999.000    999.000
    CH6                1.041      0.006    173.361      0.000
    CH7                1.013      0.006    162.641      0.000
    CH8                0.898      0.006    145.816      0.000
    CH9                0.969      0.006    169.432      0.000
    CH12               1.020      0.006    174.770      0.000
    CH14               1.110      0.006    186.031      0.000
    CH15               1.245      0.006    200.235      0.000
    CH16               1.083      0.006    188.545      0.000
    CH17               1.394      0.007    209.921      0.000
    CH19               0.964      0.006    161.839      0.000
    CH23               1.095      0.006    177.337      0.000
    CH24               0.806      0.006    133.479      0.000
    CH27               0.898      0.006    153.863      0.000
    CH29               0.912      0.006    158.060      0.000
    CH30               1.160      0.006    187.466      0.000
    CH31               0.929      0.006    149.726      0.000
    CH33               1.147      0.006    186.717      0.000
    CH34               1.030      0.006    178.320      0.000
    CH36               1.029      0.006    169.147      0.000
    CH37               0.851      0.007    126.108      0.000
    CH38               0.790      0.006    131.386      0.000
    CH39               0.941      0.006    152.212      0.000
    CH40               0.869      0.006    137.370      0.000
    CN1                0.937      0.006    151.583      0.000
    CN2                1.344      0.007    204.678      0.000
    CN4                0.848      0.005    155.265      0.000
    CN5                0.962      0.006    171.348      0.000
    CN6                0.826      0.005    152.128      0.000
    CN8                0.906      0.006    163.703      0.000
    CN10               0.942      0.006    149.623      0.000
    CN11               1.151      0.006    190.185      0.000
    CN13               1.085      0.006    187.555      0.000
    CN16               1.026      0.006    173.883      0.000
    CN19               1.018      0.006    165.751      0.000
    CN20               0.770      0.006    137.172      0.000
    CN21               0.710      0.006    120.464      0.000
    CN22               1.242      0.006    201.759      0.000
    CN33               0.846      0.007    124.634      0.000
    CN37               0.874      0.006    143.512      0.000
    L2                 1.108      0.006    190.912      0.000
    L5                 1.110      0.006    190.452      0.000
    L7                 0.714      0.007    104.702      0.000
    L8                 0.887      0.006    144.725      0.000
    L9                 0.961      0.006    157.345      0.000
    L10                1.031      0.006    177.661      0.000
    L12                1.054      0.006    183.957      0.000
    L14                1.026      0.006    174.870      0.000
    L15                1.116      0.006    189.328      0.000
    L17                0.723      0.006    125.359      0.000
    L19                0.980      0.006    165.786      0.000
    L20                1.179      0.006    200.518      0.000
    L22                1.127      0.006    175.939      0.000
    L23                0.823      0.006    147.477      0.000
    L25                0.999      0.006    171.747      0.000
    L26                0.946      0.006    166.590      0.000
    L28                0.820      0.005    151.193      0.000
    L29                1.090      0.006    182.238      0.000
    L30                0.934      0.006    164.762      0.000
    L31                0.830      0.006    144.849      0.000
    L32                0.905      0.006    139.783      0.000
    L33                0.877      0.006    151.307      0.000
    L34                0.866      0.006    148.821      0.000
    L36                0.950      0.006    163.010      0.000
    L37                0.881      0.006    156.642      0.000
    L38                0.852      0.006    153.752      0.000
    L42                0.855      0.006    140.789      0.000
    L43                0.978      0.006    158.957      0.000
    L44                0.750      0.006    129.238      0.000
    MT1                0.983      0.006    153.085      0.000
    MT2                0.458      0.008     55.869      0.000
    MT5                0.916      0.006    156.359      0.000
    MT7                0.656      0.006    114.264      0.000
    MT10               0.874      0.006    155.489      0.000
    MT13               0.767      0.006    132.775      0.000
    MT17               0.575      0.006     97.486      0.000
    MT19               0.679      0.006    109.927      0.000
    MT24               0.745      0.007    107.156      0.000

 MT       BY
    MT1                1.000      0.000    999.000    999.000
    MT2                1.028      0.019     53.697      0.000
    MT5                0.843      0.014     61.380      0.000
    MT7                0.759      0.014     54.565      0.000
    MT10               0.569      0.012     47.416      0.000
    MT13               0.732      0.013     54.603      0.000
    MT17               0.798      0.015     54.825      0.000
    MT19               1.100      0.017     65.664      0.000
    MT24               1.283      0.019     66.691      0.000
    CN21               0.698      0.014     51.255      0.000
    CN33               0.617      0.014     45.149      0.000
    CH39               0.598      0.013     46.862      0.000

 CN       BY
    CN1                1.000      0.000    999.000    999.000
    CN8                0.625      0.022     28.643      0.000
    CN13               0.904      0.029     31.233      0.000
    CN20               0.996      0.031     31.733      0.000
    CN22               0.736      0.024     30.929      0.000

 CH       BY
    CH7                1.000      0.000    999.000    999.000
    CH8                0.725      0.039     18.454      0.000
    CH17               0.893      0.038     23.230      0.000
    CH19               0.851      0.040     21.036      0.000
    CH23               1.684      0.061     27.791      0.000
    CH24               0.853      0.042     20.074      0.000
    CH27               1.418      0.055     25.954      0.000
    CH29               0.999      0.044     22.765      0.000
    CH30               1.590      0.058     27.512      0.000
    CH31               2.146      0.075     28.562      0.000
    CH33               1.868      0.066     28.173      0.000
    CH34               1.917      0.068     28.019      0.000
    CH36               1.946      0.069     28.200      0.000
    CH37               2.202      0.077     28.479      0.000
    CH38               1.810      0.066     27.528      0.000
    CH39               1.855      0.067     27.779      0.000
    CH40               1.565      0.059     26.541      0.000

 L        BY
    L2                 1.000      0.000    999.000    999.000
    L5                 0.833      0.034     24.430      0.000
    L7                 3.191      0.097     32.983      0.000
    L10                2.886      0.083     34.607      0.000
    L12                1.761      0.054     32.755      0.000
    L14                2.022      0.061     33.329      0.000
    L15                3.875      0.110     35.203      0.000
    L17                3.260      0.095     34.432      0.000
    L20                2.398      0.071     33.994      0.000
    L23                1.610      0.052     31.101      0.000
    L25                1.371      0.046     29.502      0.000
    L26                2.537      0.075     33.953      0.000
    L28                1.586      0.051     31.075      0.000
    L29                1.524      0.050     30.763      0.000
    L30                1.676      0.053     31.415      0.000
    L31                1.057      0.041     25.942      0.000
    L33                0.240      0.030      8.085      0.000
    L34                1.017      0.040     25.636      0.000
    L36                1.473      0.048     30.438      0.000
    L37                2.060      0.063     32.778      0.000
    L38                2.394      0.071     33.757      0.000
    L43                0.663      0.035     19.112      0.000
    L44                1.307      0.046     28.364      0.000
    CN13               1.605      0.052     30.721      0.000
    CN33              -1.244      0.048    -25.769      0.000
    MT1               -1.275      0.047    -27.075      0.000

 GERAL    WITH
    MT                 0.000      0.000    999.000    999.000
    CN                 0.000      0.000    999.000    999.000
    CH                 0.000      0.000    999.000    999.000
    L                  0.000      0.000    999.000    999.000

 MT       WITH
    CN                 0.000      0.000    999.000    999.000
    CH                 0.000      0.000    999.000    999.000
    L                  0.000      0.000    999.000    999.000

 CN       WITH
    CH                 0.000      0.000    999.000    999.000
    L                  0.000      0.000    999.000    999.000

 CH       WITH
    L                  0.000      0.000    999.000    999.000

 Thresholds
    CH2$1             -0.224      0.002    -95.148      0.000
    CH6$1              0.082      0.002     35.038      0.000
    CH7$1              0.575      0.002    231.826      0.000
    CH8$1              0.557      0.002    225.288      0.000
    CH9$1             -0.564      0.002   -227.835      0.000
    CH12$1             0.116      0.002     49.663      0.000
    CH14$1            -0.043      0.002    -18.494      0.000
    CH15$1             0.059      0.002     25.442      0.000
    CH16$1            -0.250      0.002   -105.808      0.000
    CH17$1             0.210      0.002     89.316      0.000
    CH19$1             0.256      0.002    108.423      0.000
    CH23$1             0.315      0.002    132.642      0.000
    CH24$1             0.545      0.002    221.092      0.000
    CH27$1             0.241      0.002    101.930      0.000
    CH29$1             0.065      0.002     27.703      0.000
    CH30$1             0.205      0.002     86.944      0.000
    CH31$1             0.532      0.002    216.448      0.000
    CH33$1             0.192      0.002     81.670      0.000
    CH34$1            -0.184      0.002    -78.170      0.000
    CH36$1             0.303      0.002    127.734      0.000
    CH37$1             0.791      0.003    301.779      0.000
    CH38$1             0.482      0.002    197.755      0.000
    CH39$1             0.455      0.002    187.640      0.000
    CH40$1             0.652      0.003    258.207      0.000
    CN1$1             -1.224      0.003   -395.272      0.000
    CN2$1              0.257      0.002    108.757      0.000
    CN4$1             -0.381      0.002   -158.882      0.000
    CN5$1             -0.215      0.002    -91.156      0.000
    CN6$1             -0.207      0.002    -87.844      0.000
    CN8$1             -0.134      0.002    -57.281      0.000
    CN10$1             0.573      0.002    230.918      0.000
    CN11$1             0.041      0.002     17.663      0.000
    CN13$1            -0.683      0.003   -268.402      0.000
    CN16$1             0.099      0.002     42.148      0.000
    CN19$1             0.408      0.002    169.521      0.000
    CN20$1            -0.419      0.002   -173.928      0.000
    CN21$1             0.472      0.002    193.927      0.000
    CN22$1            -0.235      0.002    -99.716      0.000
    CN33$1             0.816      0.003    308.881      0.000
    CN37$1             0.515      0.002    210.201      0.000
    L2$1              -0.388      0.002   -161.822      0.000
    L5$1              -0.121      0.002    -51.637      0.000
    L7$1              -1.562      0.004   -418.651      0.000
    L8$1               0.535      0.002    217.463      0.000
    L9$1               0.449      0.002    185.445      0.000
    L10$1             -0.582      0.002   -234.240      0.000
    L12$1             -0.328      0.002   -137.895      0.000
    L14$1             -0.104      0.002    -44.405      0.000
    L15$1             -0.753      0.003   -290.551      0.000
    L17$1             -0.829      0.003   -312.799      0.000
    L19$1              0.233      0.002     98.675      0.000
    L20$1             -0.309      0.002   -129.962      0.000
    L22$1              0.488      0.002    200.072      0.000
    L23$1             -0.066      0.002    -28.362      0.000
    L25$1              0.050      0.002     21.597      0.000
    L26$1             -0.193      0.002    -82.161      0.000
    L28$1             -0.234      0.002    -99.121      0.000
    L29$1              0.176      0.002     75.008      0.000
    L30$1             -0.019      0.002     -8.065      0.000
    L31$1              0.198      0.002     84.177      0.000
    L32$1              0.693      0.003    271.831      0.000
    L33$1              0.258      0.002    109.184      0.000
    L34$1              0.217      0.002     92.242      0.000
    L36$1              0.134      0.002     57.196      0.000
    L37$1             -0.168      0.002    -71.603      0.000
    L38$1             -0.056      0.002    -24.011      0.000
    L42$1              0.489      0.002    200.351      0.000
    L43$1              0.466      0.002    191.745      0.000
    L44$1              0.360      0.002    150.576      0.000
    MT1$1              0.615      0.003    245.673      0.000
    MT2$1              1.278      0.003    401.964      0.000
    MT5$1              0.249      0.002    105.292      0.000
    MT7$1              0.412      0.002    171.019      0.000
    MT10$1            -0.043      0.002    -18.292      0.000
    MT13$1             0.353      0.002    147.831      0.000
    MT17$1             0.566      0.002    228.432      0.000
    MT19$1             0.645      0.003    255.963      0.000
    MT24$1             0.934      0.003    340.144      0.000

 Variances
    GERAL              0.232      0.002    121.208      0.000
    MT                 0.115      0.002     46.560      0.000
    CN                 0.105      0.005     22.647      0.000
    CH                 0.018      0.001     15.722      0.000
    L                  0.015      0.001     18.125      0.000


STANDARDIZED MODEL RESULTS


STDYX Standardization

                                                    Two-Tailed
                    Estimate       S.E.  Est./S.E.    P-Value

 GERAL    BY
    CH2                0.481      0.002    242.415      0.000
    CH6                0.501      0.002    238.358      0.000
    CH7                0.487      0.002    203.985      0.000
    CH8                0.432      0.002    176.111      0.000
    CH9                0.466      0.002    224.771      0.000
    CH12               0.491      0.002    237.316      0.000
    CH14               0.534      0.002    272.565      0.000
    CH15               0.599      0.002    322.475      0.000
    CH16               0.521      0.002    278.184      0.000
    CH17               0.671      0.002    373.664      0.000
    CH19               0.464      0.002    207.804      0.000
    CH23               0.527      0.002    242.494      0.000
    CH24               0.388      0.002    156.300      0.000
    CH27               0.432      0.002    189.880      0.000
    CH29               0.439      0.002    200.557      0.000
    CH30               0.558      0.002    274.303      0.000
    CH31               0.447      0.002    181.330      0.000
    CH33               0.552      0.002    270.431      0.000
    CH34               0.496      0.002    245.135      0.000
    CH36               0.495      0.002    222.907      0.000
    CH37               0.410      0.003    142.966      0.000
    CH38               0.380      0.003    151.843      0.000
    CH39               0.453      0.002    186.364      0.000
    CH40               0.418      0.003    160.027      0.000
    CN1                0.451      0.002    187.832      0.000
    CN2                0.647      0.002    350.445      0.000
    CN4                0.408      0.002    193.860      0.000
    CN5                0.463      0.002    228.739      0.000
    CN6                0.397      0.002    186.812      0.000
    CN8                0.436      0.002    208.399      0.000
    CN10               0.453      0.002    182.402      0.000
    CN11               0.554      0.002    286.114      0.000
    CN13               0.522      0.002    275.233      0.000
    CN16               0.494      0.002    239.219      0.000
    CN19               0.490      0.002    217.728      0.000
    CN20               0.370      0.002    163.263      0.000
    CN21               0.342      0.003    134.824      0.000
    CN22               0.598      0.002    336.350      0.000
    CN33               0.407      0.003    141.533      0.000
    CN37               0.421      0.002    172.976      0.000
    L2                 0.533      0.002    286.595      0.000
    L5                 0.534      0.002    278.711      0.000
    L7                 0.344      0.003    114.313      0.000
    L8                 0.427      0.002    176.033      0.000
    L9                 0.462      0.002    197.716      0.000
    L10                0.496      0.002    249.305      0.000
    L12                0.507      0.002    264.803      0.000
    L14                0.494      0.002    241.743      0.000
    L15                0.537      0.002    283.185      0.000
    L17                0.348      0.002    143.354      0.000
    L19                0.472      0.002    217.228      0.000
    L20                0.567      0.002    321.428      0.000
    L22                0.542      0.002    241.039      0.000
    L23                0.396      0.002    180.076      0.000
    L25                0.480      0.002    232.680      0.000
    L26                0.455      0.002    218.677      0.000
    L28                0.395      0.002    186.389      0.000
    L29                0.524      0.002    257.861      0.000
    L30                0.450      0.002    214.708      0.000
    L31                0.399      0.002    175.585      0.000
    L32                0.435      0.003    166.076      0.000
    L33                0.422      0.002    186.095      0.000
    L34                0.417      0.002    184.309      0.000
    L36                0.457      0.002    212.495      0.000
    L37                0.424      0.002    198.095      0.000
    L38                0.410      0.002    190.551      0.000
    L42                0.411      0.002    167.920      0.000
    L43                0.471      0.002    201.438      0.000
    L44                0.361      0.002    149.260      0.000
    MT1                0.473      0.002    190.097      0.000
    MT2                0.221      0.004     57.097      0.000
    MT5                0.441      0.002    197.262      0.000
    MT7                0.316      0.002    127.292      0.000
    MT10               0.421      0.002    195.557      0.000
    MT13               0.369      0.002    154.612      0.000
    MT17               0.277      0.003    105.168      0.000
    MT19               0.327      0.003    120.984      0.000
    MT24               0.358      0.003    117.275      0.000

 MT       BY
    MT1                0.339      0.004     93.120      0.000
    MT2                0.349      0.005     66.693      0.000
    MT5                0.286      0.004     80.891      0.000
    MT7                0.257      0.004     67.648      0.000
    MT10               0.193      0.004     54.698      0.000
    MT13               0.248      0.004     66.962      0.000
    MT17               0.271      0.004     67.733      0.000
    MT19               0.373      0.004     94.230      0.000
    MT24               0.435      0.004    100.523      0.000
    CN21               0.237      0.004     62.348      0.000
    CN33               0.210      0.004     52.036      0.000
    CH39               0.203      0.004     54.754      0.000

 CN       BY
    CN1                0.324      0.007     45.294      0.000
    CN8                0.202      0.005     38.126      0.000
    CN13               0.293      0.006     48.499      0.000
    CN20               0.322      0.006     51.408      0.000
    CN22               0.238      0.005     45.525      0.000

 CH       BY
    CH7                0.134      0.004     31.444      0.000
    CH8                0.097      0.004     22.304      0.000
    CH17               0.120      0.004     32.906      0.000
    CH19               0.114      0.004     27.920      0.000
    CH23               0.226      0.004     57.165      0.000
    CH24               0.115      0.004     26.141      0.000
    CH27               0.191      0.004     46.301      0.000
    CH29               0.134      0.004     32.928      0.000
    CH30               0.214      0.004     55.086      0.000
    CH31               0.288      0.004     67.580      0.000
    CH33               0.251      0.004     64.626      0.000
    CH34               0.257      0.004     63.618      0.000
    CH36               0.261      0.004     65.129      0.000
    CH37               0.296      0.005     64.282      0.000
    CH38               0.243      0.004     56.525      0.000
    CH39               0.249      0.004     58.340      0.000
    CH40               0.210      0.004     47.840      0.000

 L        BY
    L2                 0.122      0.003     36.249      0.000
    L5                 0.101      0.003     30.511      0.000
    L7                 0.389      0.006     67.096      0.000
    L10                0.351      0.003    102.611      0.000
    L12                0.214      0.003     64.869      0.000
    L14                0.246      0.003     75.037      0.000
    L15                0.472      0.003    136.200      0.000
    L17                0.397      0.004    102.445      0.000
    L20                0.292      0.003     91.736      0.000
    L23                0.196      0.003     57.504      0.000
    L25                0.167      0.003     49.347      0.000
    L26                0.309      0.003     94.242      0.000
    L28                0.193      0.003     56.015      0.000
    L29                0.186      0.003     56.046      0.000
    L30                0.204      0.003     60.785      0.000
    L31                0.129      0.004     36.737      0.000
    L33                0.029      0.004      8.228      0.000
    L34                0.124      0.003     35.517      0.000
    L36                0.179      0.003     53.156      0.000
    L37                0.251      0.003     74.327      0.000
    L38                0.292      0.003     87.813      0.000
    L43                0.081      0.004     22.233      0.000
    L44                0.159      0.004     44.134      0.000
    CN13               0.195      0.003     56.165      0.000
    CN33              -0.152      0.004    -37.484      0.000
    MT1               -0.155      0.004    -41.645      0.000

 GERAL    WITH
    MT                 0.000      0.000    999.000    999.000
    CN                 0.000      0.000    999.000    999.000
    CH                 0.000      0.000    999.000    999.000
    L                  0.000      0.000    999.000    999.000

 MT       WITH
    CN                 0.000      0.000    999.000    999.000
    CH                 0.000      0.000    999.000    999.000
    L                  0.000      0.000    999.000    999.000

 CN       WITH
    CH                 0.000      0.000    999.000    999.000
    L                  0.000      0.000    999.000    999.000

 CH       WITH
    L                  0.000      0.000    999.000    999.000

 Thresholds
    CH2$1             -0.224      0.002    -95.148      0.000
    CH6$1              0.082      0.002     35.038      0.000
    CH7$1              0.575      0.002    231.826      0.000
    CH8$1              0.557      0.002    225.288      0.000
    CH9$1             -0.564      0.002   -227.835      0.000
    CH12$1             0.116      0.002     49.663      0.000
    CH14$1            -0.043      0.002    -18.494      0.000
    CH15$1             0.059      0.002     25.442      0.000
    CH16$1            -0.250      0.002   -105.808      0.000
    CH17$1             0.210      0.002     89.316      0.000
    CH19$1             0.256      0.002    108.423      0.000
    CH23$1             0.315      0.002    132.642      0.000
    CH24$1             0.545      0.002    221.092      0.000
    CH27$1             0.241      0.002    101.930      0.000
    CH29$1             0.065      0.002     27.703      0.000
    CH30$1             0.205      0.002     86.944      0.000
    CH31$1             0.532      0.002    216.448      0.000
    CH33$1             0.192      0.002     81.670      0.000
    CH34$1            -0.184      0.002    -78.170      0.000
    CH36$1             0.303      0.002    127.734      0.000
    CH37$1             0.791      0.003    301.779      0.000
    CH38$1             0.482      0.002    197.755      0.000
    CH39$1             0.455      0.002    187.640      0.000
    CH40$1             0.652      0.003    258.207      0.000
    CN1$1             -1.224      0.003   -395.272      0.000
    CN2$1              0.257      0.002    108.757      0.000
    CN4$1             -0.381      0.002   -158.882      0.000
    CN5$1             -0.215      0.002    -91.156      0.000
    CN6$1             -0.207      0.002    -87.844      0.000
    CN8$1             -0.134      0.002    -57.281      0.000
    CN10$1             0.573      0.002    230.918      0.000
    CN11$1             0.041      0.002     17.663      0.000
    CN13$1            -0.683      0.003   -268.402      0.000
    CN16$1             0.099      0.002     42.148      0.000
    CN19$1             0.408      0.002    169.521      0.000
    CN20$1            -0.419      0.002   -173.928      0.000
    CN21$1             0.472      0.002    193.927      0.000
    CN22$1            -0.235      0.002    -99.716      0.000
    CN33$1             0.816      0.003    308.881      0.000
    CN37$1             0.515      0.002    210.201      0.000
    L2$1              -0.388      0.002   -161.822      0.000
    L5$1              -0.121      0.002    -51.637      0.000
    L7$1              -1.562      0.004   -418.651      0.000
    L8$1               0.535      0.002    217.463      0.000
    L9$1               0.449      0.002    185.445      0.000
    L10$1             -0.582      0.002   -234.240      0.000
    L12$1             -0.328      0.002   -137.895      0.000
    L14$1             -0.104      0.002    -44.405      0.000
    L15$1             -0.753      0.003   -290.551      0.000
    L17$1             -0.829      0.003   -312.799      0.000
    L19$1              0.233      0.002     98.675      0.000
    L20$1             -0.309      0.002   -129.962      0.000
    L22$1              0.488      0.002    200.072      0.000
    L23$1             -0.066      0.002    -28.362      0.000
    L25$1              0.050      0.002     21.597      0.000
    L26$1             -0.193      0.002    -82.161      0.000
    L28$1             -0.234      0.002    -99.121      0.000
    L29$1              0.176      0.002     75.008      0.000
    L30$1             -0.019      0.002     -8.065      0.000
    L31$1              0.198      0.002     84.177      0.000
    L32$1              0.693      0.003    271.831      0.000
    L33$1              0.258      0.002    109.184      0.000
    L34$1              0.217      0.002     92.242      0.000
    L36$1              0.134      0.002     57.196      0.000
    L37$1             -0.168      0.002    -71.603      0.000
    L38$1             -0.056      0.002    -24.011      0.000
    L42$1              0.489      0.002    200.351      0.000
    L43$1              0.466      0.002    191.745      0.000
    L44$1              0.360      0.002    150.576      0.000
    MT1$1              0.615      0.003    245.673      0.000
    MT2$1              1.278      0.003    401.964      0.000
    MT5$1              0.249      0.002    105.292      0.000
    MT7$1              0.412      0.002    171.019      0.000
    MT10$1            -0.043      0.002    -18.292      0.000
    MT13$1             0.353      0.002    147.831      0.000
    MT17$1             0.566      0.002    228.432      0.000
    MT19$1             0.645      0.003    255.963      0.000
    MT24$1             0.934      0.003    340.144      0.000

 Variances
    GERAL              1.000      0.000    999.000    999.000
    MT                 1.000      0.000    999.000    999.000
    CN                 1.000      0.000    999.000    999.000
    CH                 1.000      0.000    999.000    999.000
    L                  1.000      0.000    999.000    999.000


STDY Standardization

                                                    Two-Tailed
                    Estimate       S.E.  Est./S.E.    P-Value

 GERAL    BY
    CH2                0.481      0.002    242.415      0.000
    CH6                0.501      0.002    238.358      0.000
    CH7                0.487      0.002    203.985      0.000
    CH8                0.432      0.002    176.111      0.000
    CH9                0.466      0.002    224.771      0.000
    CH12               0.491      0.002    237.316      0.000
    CH14               0.534      0.002    272.565      0.000
    CH15               0.599      0.002    322.475      0.000
    CH16               0.521      0.002    278.184      0.000
    CH17               0.671      0.002    373.664      0.000
    CH19               0.464      0.002    207.804      0.000
    CH23               0.527      0.002    242.494      0.000
    CH24               0.388      0.002    156.300      0.000
    CH27               0.432      0.002    189.880      0.000
    CH29               0.439      0.002    200.557      0.000
    CH30               0.558      0.002    274.303      0.000
    CH31               0.447      0.002    181.330      0.000
    CH33               0.552      0.002    270.431      0.000
    CH34               0.496      0.002    245.135      0.000
    CH36               0.495      0.002    222.907      0.000
    CH37               0.410      0.003    142.966      0.000
    CH38               0.380      0.003    151.843      0.000
    CH39               0.453      0.002    186.364      0.000
    CH40               0.418      0.003    160.027      0.000
    CN1                0.451      0.002    187.832      0.000
    CN2                0.647      0.002    350.445      0.000
    CN4                0.408      0.002    193.860      0.000
    CN5                0.463      0.002    228.739      0.000
    CN6                0.397      0.002    186.812      0.000
    CN8                0.436      0.002    208.399      0.000
    CN10               0.453      0.002    182.402      0.000
    CN11               0.554      0.002    286.114      0.000
    CN13               0.522      0.002    275.233      0.000
    CN16               0.494      0.002    239.219      0.000
    CN19               0.490      0.002    217.728      0.000
    CN20               0.370      0.002    163.263      0.000
    CN21               0.342      0.003    134.824      0.000
    CN22               0.598      0.002    336.350      0.000
    CN33               0.407      0.003    141.533      0.000
    CN37               0.421      0.002    172.976      0.000
    L2                 0.533      0.002    286.595      0.000
    L5                 0.534      0.002    278.711      0.000
    L7                 0.344      0.003    114.313      0.000
    L8                 0.427      0.002    176.033      0.000
    L9                 0.462      0.002    197.716      0.000
    L10                0.496      0.002    249.305      0.000
    L12                0.507      0.002    264.803      0.000
    L14                0.494      0.002    241.743      0.000
    L15                0.537      0.002    283.185      0.000
    L17                0.348      0.002    143.354      0.000
    L19                0.472      0.002    217.228      0.000
    L20                0.567      0.002    321.428      0.000
    L22                0.542      0.002    241.039      0.000
    L23                0.396      0.002    180.076      0.000
    L25                0.480      0.002    232.680      0.000
    L26                0.455      0.002    218.677      0.000
    L28                0.395      0.002    186.389      0.000
    L29                0.524      0.002    257.861      0.000
    L30                0.450      0.002    214.708      0.000
    L31                0.399      0.002    175.585      0.000
    L32                0.435      0.003    166.076      0.000
    L33                0.422      0.002    186.095      0.000
    L34                0.417      0.002    184.309      0.000
    L36                0.457      0.002    212.495      0.000
    L37                0.424      0.002    198.095      0.000
    L38                0.410      0.002    190.551      0.000
    L42                0.411      0.002    167.920      0.000
    L43                0.471      0.002    201.438      0.000
    L44                0.361      0.002    149.260      0.000
    MT1                0.473      0.002    190.097      0.000
    MT2                0.221      0.004     57.097      0.000
    MT5                0.441      0.002    197.262      0.000
    MT7                0.316      0.002    127.292      0.000
    MT10               0.421      0.002    195.557      0.000
    MT13               0.369      0.002    154.612      0.000
    MT17               0.277      0.003    105.168      0.000
    MT19               0.327      0.003    120.984      0.000
    MT24               0.358      0.003    117.275      0.000

 MT       BY
    MT1                0.339      0.004     93.120      0.000
    MT2                0.349      0.005     66.693      0.000
    MT5                0.286      0.004     80.891      0.000
    MT7                0.257      0.004     67.648      0.000
    MT10               0.193      0.004     54.698      0.000
    MT13               0.248      0.004     66.962      0.000
    MT17               0.271      0.004     67.733      0.000
    MT19               0.373      0.004     94.230      0.000
    MT24               0.435      0.004    100.523      0.000
    CN21               0.237      0.004     62.348      0.000
    CN33               0.210      0.004     52.036      0.000
    CH39               0.203      0.004     54.754      0.000

 CN       BY
    CN1                0.324      0.007     45.294      0.000
    CN8                0.202      0.005     38.126      0.000
    CN13               0.293      0.006     48.499      0.000
    CN20               0.322      0.006     51.408      0.000
    CN22               0.238      0.005     45.525      0.000

 CH       BY
    CH7                0.134      0.004     31.444      0.000
    CH8                0.097      0.004     22.304      0.000
    CH17               0.120      0.004     32.906      0.000
    CH19               0.114      0.004     27.920      0.000
    CH23               0.226      0.004     57.165      0.000
    CH24               0.115      0.004     26.141      0.000
    CH27               0.191      0.004     46.301      0.000
    CH29               0.134      0.004     32.928      0.000
    CH30               0.214      0.004     55.086      0.000
    CH31               0.288      0.004     67.580      0.000
    CH33               0.251      0.004     64.626      0.000
    CH34               0.257      0.004     63.618      0.000
    CH36               0.261      0.004     65.129      0.000
    CH37               0.296      0.005     64.282      0.000
    CH38               0.243      0.004     56.525      0.000
    CH39               0.249      0.004     58.340      0.000
    CH40               0.210      0.004     47.840      0.000

 L        BY
    L2                 0.122      0.003     36.249      0.000
    L5                 0.101      0.003     30.511      0.000
    L7                 0.389      0.006     67.096      0.000
    L10                0.351      0.003    102.611      0.000
    L12                0.214      0.003     64.869      0.000
    L14                0.246      0.003     75.037      0.000
    L15                0.472      0.003    136.200      0.000
    L17                0.397      0.004    102.445      0.000
    L20                0.292      0.003     91.736      0.000
    L23                0.196      0.003     57.504      0.000
    L25                0.167      0.003     49.347      0.000
    L26                0.309      0.003     94.242      0.000
    L28                0.193      0.003     56.015      0.000
    L29                0.186      0.003     56.046      0.000
    L30                0.204      0.003     60.785      0.000
    L31                0.129      0.004     36.737      0.000
    L33                0.029      0.004      8.228      0.000
    L34                0.124      0.003     35.517      0.000
    L36                0.179      0.003     53.156      0.000
    L37                0.251      0.003     74.327      0.000
    L38                0.292      0.003     87.813      0.000
    L43                0.081      0.004     22.233      0.000
    L44                0.159      0.004     44.134      0.000
    CN13               0.195      0.003     56.165      0.000
    CN33              -0.152      0.004    -37.484      0.000
    MT1               -0.155      0.004    -41.645      0.000

 GERAL    WITH
    MT                 0.000      0.000    999.000    999.000
    CN                 0.000      0.000    999.000    999.000
    CH                 0.000      0.000    999.000    999.000
    L                  0.000      0.000    999.000    999.000

 MT       WITH
    CN                 0.000      0.000    999.000    999.000
    CH                 0.000      0.000    999.000    999.000
    L                  0.000      0.000    999.000    999.000

 CN       WITH
    CH                 0.000      0.000    999.000    999.000
    L                  0.000      0.000    999.000    999.000

 CH       WITH
    L                  0.000      0.000    999.000    999.000

 Thresholds
    CH2$1             -0.224      0.002    -95.148      0.000
    CH6$1              0.082      0.002     35.038      0.000
    CH7$1              0.575      0.002    231.826      0.000
    CH8$1              0.557      0.002    225.288      0.000
    CH9$1             -0.564      0.002   -227.835      0.000
    CH12$1             0.116      0.002     49.663      0.000
    CH14$1            -0.043      0.002    -18.494      0.000
    CH15$1             0.059      0.002     25.442      0.000
    CH16$1            -0.250      0.002   -105.808      0.000
    CH17$1             0.210      0.002     89.316      0.000
    CH19$1             0.256      0.002    108.423      0.000
    CH23$1             0.315      0.002    132.642      0.000
    CH24$1             0.545      0.002    221.092      0.000
    CH27$1             0.241      0.002    101.930      0.000
    CH29$1             0.065      0.002     27.703      0.000
    CH30$1             0.205      0.002     86.944      0.000
    CH31$1             0.532      0.002    216.448      0.000
    CH33$1             0.192      0.002     81.670      0.000
    CH34$1            -0.184      0.002    -78.170      0.000
    CH36$1             0.303      0.002    127.734      0.000
    CH37$1             0.791      0.003    301.779      0.000
    CH38$1             0.482      0.002    197.755      0.000
    CH39$1             0.455      0.002    187.640      0.000
    CH40$1             0.652      0.003    258.207      0.000
    CN1$1             -1.224      0.003   -395.272      0.000
    CN2$1              0.257      0.002    108.757      0.000
    CN4$1             -0.381      0.002   -158.882      0.000
    CN5$1             -0.215      0.002    -91.156      0.000
    CN6$1             -0.207      0.002    -87.844      0.000
    CN8$1             -0.134      0.002    -57.281      0.000
    CN10$1             0.573      0.002    230.918      0.000
    CN11$1             0.041      0.002     17.663      0.000
    CN13$1            -0.683      0.003   -268.402      0.000
    CN16$1             0.099      0.002     42.148      0.000
    CN19$1             0.408      0.002    169.521      0.000
    CN20$1            -0.419      0.002   -173.928      0.000
    CN21$1             0.472      0.002    193.927      0.000
    CN22$1            -0.235      0.002    -99.716      0.000
    CN33$1             0.816      0.003    308.881      0.000
    CN37$1             0.515      0.002    210.201      0.000
    L2$1              -0.388      0.002   -161.822      0.000
    L5$1              -0.121      0.002    -51.637      0.000
    L7$1              -1.562      0.004   -418.651      0.000
    L8$1               0.535      0.002    217.463      0.000
    L9$1               0.449      0.002    185.445      0.000
    L10$1             -0.582      0.002   -234.240      0.000
    L12$1             -0.328      0.002   -137.895      0.000
    L14$1             -0.104      0.002    -44.405      0.000
    L15$1             -0.753      0.003   -290.551      0.000
    L17$1             -0.829      0.003   -312.799      0.000
    L19$1              0.233      0.002     98.675      0.000
    L20$1             -0.309      0.002   -129.962      0.000
    L22$1              0.488      0.002    200.072      0.000
    L23$1             -0.066      0.002    -28.362      0.000
    L25$1              0.050      0.002     21.597      0.000
    L26$1             -0.193      0.002    -82.161      0.000
    L28$1             -0.234      0.002    -99.121      0.000
    L29$1              0.176      0.002     75.008      0.000
    L30$1             -0.019      0.002     -8.065      0.000
    L31$1              0.198      0.002     84.177      0.000
    L32$1              0.693      0.003    271.831      0.000
    L33$1              0.258      0.002    109.184      0.000
    L34$1              0.217      0.002     92.242      0.000
    L36$1              0.134      0.002     57.196      0.000
    L37$1             -0.168      0.002    -71.603      0.000
    L38$1             -0.056      0.002    -24.011      0.000
    L42$1              0.489      0.002    200.351      0.000
    L43$1              0.466      0.002    191.745      0.000
    L44$1              0.360      0.002    150.576      0.000
    MT1$1              0.615      0.003    245.673      0.000
    MT2$1              1.278      0.003    401.964      0.000
    MT5$1              0.249      0.002    105.292      0.000
    MT7$1              0.412      0.002    171.019      0.000
    MT10$1            -0.043      0.002    -18.292      0.000
    MT13$1             0.353      0.002    147.831      0.000
    MT17$1             0.566      0.002    228.432      0.000
    MT19$1             0.645      0.003    255.963      0.000
    MT24$1             0.934      0.003    340.144      0.000

 Variances
    GERAL              1.000      0.000    999.000    999.000
    MT                 1.000      0.000    999.000    999.000
    CN                 1.000      0.000    999.000    999.000
    CH                 1.000      0.000    999.000    999.000
    L                  1.000      0.000    999.000    999.000


STD Standardization

                                                    Two-Tailed
                    Estimate       S.E.  Est./S.E.    P-Value

 GERAL    BY
    CH2                0.481      0.002    242.415      0.000
    CH6                0.501      0.002    238.358      0.000
    CH7                0.487      0.002    203.985      0.000
    CH8                0.432      0.002    176.111      0.000
    CH9                0.466      0.002    224.771      0.000
    CH12               0.491      0.002    237.316      0.000
    CH14               0.534      0.002    272.565      0.000
    CH15               0.599      0.002    322.475      0.000
    CH16               0.521      0.002    278.184      0.000
    CH17               0.671      0.002    373.664      0.000
    CH19               0.464      0.002    207.804      0.000
    CH23               0.527      0.002    242.494      0.000
    CH24               0.388      0.002    156.300      0.000
    CH27               0.432      0.002    189.880      0.000
    CH29               0.439      0.002    200.557      0.000
    CH30               0.558      0.002    274.303      0.000
    CH31               0.447      0.002    181.330      0.000
    CH33               0.552      0.002    270.431      0.000
    CH34               0.496      0.002    245.135      0.000
    CH36               0.495      0.002    222.907      0.000
    CH37               0.410      0.003    142.966      0.000
    CH38               0.380      0.003    151.843      0.000
    CH39               0.453      0.002    186.364      0.000
    CH40               0.418      0.003    160.027      0.000
    CN1                0.451      0.002    187.832      0.000
    CN2                0.647      0.002    350.445      0.000
    CN4                0.408      0.002    193.860      0.000
    CN5                0.463      0.002    228.739      0.000
    CN6                0.397      0.002    186.812      0.000
    CN8                0.436      0.002    208.399      0.000
    CN10               0.453      0.002    182.402      0.000
    CN11               0.554      0.002    286.114      0.000
    CN13               0.522      0.002    275.233      0.000
    CN16               0.494      0.002    239.219      0.000
    CN19               0.490      0.002    217.728      0.000
    CN20               0.370      0.002    163.263      0.000
    CN21               0.342      0.003    134.824      0.000
    CN22               0.598      0.002    336.350      0.000
    CN33               0.407      0.003    141.533      0.000
    CN37               0.421      0.002    172.976      0.000
    L2                 0.533      0.002    286.595      0.000
    L5                 0.534      0.002    278.711      0.000
    L7                 0.344      0.003    114.313      0.000
    L8                 0.427      0.002    176.033      0.000
    L9                 0.462      0.002    197.716      0.000
    L10                0.496      0.002    249.305      0.000
    L12                0.507      0.002    264.803      0.000
    L14                0.494      0.002    241.743      0.000
    L15                0.537      0.002    283.185      0.000
    L17                0.348      0.002    143.354      0.000
    L19                0.472      0.002    217.228      0.000
    L20                0.567      0.002    321.428      0.000
    L22                0.542      0.002    241.039      0.000
    L23                0.396      0.002    180.076      0.000
    L25                0.480      0.002    232.680      0.000
    L26                0.455      0.002    218.677      0.000
    L28                0.395      0.002    186.389      0.000
    L29                0.524      0.002    257.861      0.000
    L30                0.450      0.002    214.708      0.000
    L31                0.399      0.002    175.585      0.000
    L32                0.435      0.003    166.076      0.000
    L33                0.422      0.002    186.095      0.000
    L34                0.417      0.002    184.309      0.000
    L36                0.457      0.002    212.495      0.000
    L37                0.424      0.002    198.095      0.000
    L38                0.410      0.002    190.551      0.000
    L42                0.411      0.002    167.920      0.000
    L43                0.471      0.002    201.438      0.000
    L44                0.361      0.002    149.260      0.000
    MT1                0.473      0.002    190.097      0.000
    MT2                0.221      0.004     57.097      0.000
    MT5                0.441      0.002    197.262      0.000
    MT7                0.316      0.002    127.292      0.000
    MT10               0.421      0.002    195.557      0.000
    MT13               0.369      0.002    154.612      0.000
    MT17               0.277      0.003    105.168      0.000
    MT19               0.327      0.003    120.984      0.000
    MT24               0.358      0.003    117.275      0.000

 MT       BY
    MT1                0.339      0.004     93.120      0.000
    MT2                0.349      0.005     66.693      0.000
    MT5                0.286      0.004     80.891      0.000
    MT7                0.257      0.004     67.648      0.000
    MT10               0.193      0.004     54.698      0.000
    MT13               0.248      0.004     66.962      0.000
    MT17               0.271      0.004     67.733      0.000
    MT19               0.373      0.004     94.230      0.000
    MT24               0.435      0.004    100.523      0.000
    CN21               0.237      0.004     62.348      0.000
    CN33               0.210      0.004     52.036      0.000
    CH39               0.203      0.004     54.754      0.000

 CN       BY
    CN1                0.324      0.007     45.294      0.000
    CN8                0.202      0.005     38.126      0.000
    CN13               0.293      0.006     48.499      0.000
    CN20               0.322      0.006     51.408      0.000
    CN22               0.238      0.005     45.525      0.000

 CH       BY
    CH7                0.134      0.004     31.444      0.000
    CH8                0.097      0.004     22.304      0.000
    CH17               0.120      0.004     32.906      0.000
    CH19               0.114      0.004     27.920      0.000
    CH23               0.226      0.004     57.165      0.000
    CH24               0.115      0.004     26.141      0.000
    CH27               0.191      0.004     46.301      0.000
    CH29               0.134      0.004     32.928      0.000
    CH30               0.214      0.004     55.086      0.000
    CH31               0.288      0.004     67.580      0.000
    CH33               0.251      0.004     64.626      0.000
    CH34               0.257      0.004     63.618      0.000
    CH36               0.261      0.004     65.129      0.000
    CH37               0.296      0.005     64.282      0.000
    CH38               0.243      0.004     56.525      0.000
    CH39               0.249      0.004     58.340      0.000
    CH40               0.210      0.004     47.840      0.000

 L        BY
    L2                 0.122      0.003     36.249      0.000
    L5                 0.101      0.003     30.511      0.000
    L7                 0.389      0.006     67.096      0.000
    L10                0.351      0.003    102.611      0.000
    L12                0.214      0.003     64.869      0.000
    L14                0.246      0.003     75.037      0.000
    L15                0.472      0.003    136.200      0.000
    L17                0.397      0.004    102.445      0.000
    L20                0.292      0.003     91.736      0.000
    L23                0.196      0.003     57.504      0.000
    L25                0.167      0.003     49.347      0.000
    L26                0.309      0.003     94.242      0.000
    L28                0.193      0.003     56.015      0.000
    L29                0.186      0.003     56.046      0.000
    L30                0.204      0.003     60.785      0.000
    L31                0.129      0.004     36.737      0.000
    L33                0.029      0.004      8.228      0.000
    L34                0.124      0.003     35.517      0.000
    L36                0.179      0.003     53.156      0.000
    L37                0.251      0.003     74.327      0.000
    L38                0.292      0.003     87.813      0.000
    L43                0.081      0.004     22.233      0.000
    L44                0.159      0.004     44.134      0.000
    CN13               0.195      0.003     56.165      0.000
    CN33              -0.152      0.004    -37.484      0.000
    MT1               -0.155      0.004    -41.645      0.000

 GERAL    WITH
    MT                 0.000      0.000    999.000    999.000
    CN                 0.000      0.000    999.000    999.000
    CH                 0.000      0.000    999.000    999.000
    L                  0.000      0.000    999.000    999.000

 MT       WITH
    CN                 0.000      0.000    999.000    999.000
    CH                 0.000      0.000    999.000    999.000
    L                  0.000      0.000    999.000    999.000

 CN       WITH
    CH                 0.000      0.000    999.000    999.000
    L                  0.000      0.000    999.000    999.000

 CH       WITH
    L                  0.000      0.000    999.000    999.000

 Thresholds
    CH2$1             -0.224      0.002    -95.148      0.000
    CH6$1              0.082      0.002     35.038      0.000
    CH7$1              0.575      0.002    231.826      0.000
    CH8$1              0.557      0.002    225.288      0.000
    CH9$1             -0.564      0.002   -227.835      0.000
    CH12$1             0.116      0.002     49.663      0.000
    CH14$1            -0.043      0.002    -18.494      0.000
    CH15$1             0.059      0.002     25.442      0.000
    CH16$1            -0.250      0.002   -105.808      0.000
    CH17$1             0.210      0.002     89.316      0.000
    CH19$1             0.256      0.002    108.423      0.000
    CH23$1             0.315      0.002    132.642      0.000
    CH24$1             0.545      0.002    221.092      0.000
    CH27$1             0.241      0.002    101.930      0.000
    CH29$1             0.065      0.002     27.703      0.000
    CH30$1             0.205      0.002     86.944      0.000
    CH31$1             0.532      0.002    216.448      0.000
    CH33$1             0.192      0.002     81.670      0.000
    CH34$1            -0.184      0.002    -78.170      0.000
    CH36$1             0.303      0.002    127.734      0.000
    CH37$1             0.791      0.003    301.779      0.000
    CH38$1             0.482      0.002    197.755      0.000
    CH39$1             0.455      0.002    187.640      0.000
    CH40$1             0.652      0.003    258.207      0.000
    CN1$1             -1.224      0.003   -395.272      0.000
    CN2$1              0.257      0.002    108.757      0.000
    CN4$1             -0.381      0.002   -158.882      0.000
    CN5$1             -0.215      0.002    -91.156      0.000
    CN6$1             -0.207      0.002    -87.844      0.000
    CN8$1             -0.134      0.002    -57.281      0.000
    CN10$1             0.573      0.002    230.918      0.000
    CN11$1             0.041      0.002     17.663      0.000
    CN13$1            -0.683      0.003   -268.402      0.000
    CN16$1             0.099      0.002     42.148      0.000
    CN19$1             0.408      0.002    169.521      0.000
    CN20$1            -0.419      0.002   -173.928      0.000
    CN21$1             0.472      0.002    193.927      0.000
    CN22$1            -0.235      0.002    -99.716      0.000
    CN33$1             0.816      0.003    308.881      0.000
    CN37$1             0.515      0.002    210.201      0.000
    L2$1              -0.388      0.002   -161.822      0.000
    L5$1              -0.121      0.002    -51.637      0.000
    L7$1              -1.562      0.004   -418.651      0.000
    L8$1               0.535      0.002    217.463      0.000
    L9$1               0.449      0.002    185.445      0.000
    L10$1             -0.582      0.002   -234.240      0.000
    L12$1             -0.328      0.002   -137.895      0.000
    L14$1             -0.104      0.002    -44.405      0.000
    L15$1             -0.753      0.003   -290.551      0.000
    L17$1             -0.829      0.003   -312.799      0.000
    L19$1              0.233      0.002     98.675      0.000
    L20$1             -0.309      0.002   -129.962      0.000
    L22$1              0.488      0.002    200.072      0.000
    L23$1             -0.066      0.002    -28.362      0.000
    L25$1              0.050      0.002     21.597      0.000
    L26$1             -0.193      0.002    -82.161      0.000
    L28$1             -0.234      0.002    -99.121      0.000
    L29$1              0.176      0.002     75.008      0.000
    L30$1             -0.019      0.002     -8.065      0.000
    L31$1              0.198      0.002     84.177      0.000
    L32$1              0.693      0.003    271.831      0.000
    L33$1              0.258      0.002    109.184      0.000
    L34$1              0.217      0.002     92.242      0.000
    L36$1              0.134      0.002     57.196      0.000
    L37$1             -0.168      0.002    -71.603      0.000
    L38$1             -0.056      0.002    -24.011      0.000
    L42$1              0.489      0.002    200.351      0.000
    L43$1              0.466      0.002    191.745      0.000
    L44$1              0.360      0.002    150.576      0.000
    MT1$1              0.615      0.003    245.673      0.000
    MT2$1              1.278      0.003    401.964      0.000
    MT5$1              0.249      0.002    105.292      0.000
    MT7$1              0.412      0.002    171.019      0.000
    MT10$1            -0.043      0.002    -18.292      0.000
    MT13$1             0.353      0.002    147.831      0.000
    MT17$1             0.566      0.002    228.432      0.000
    MT19$1             0.645      0.003    255.963      0.000
    MT24$1             0.934      0.003    340.144      0.000

 Variances
    GERAL              1.000      0.000    999.000    999.000
    MT                 1.000      0.000    999.000    999.000
    CN                 1.000      0.000    999.000    999.000
    CH                 1.000      0.000    999.000    999.000
    L                  1.000      0.000    999.000    999.000


R-SQUARE

    Observed                                        Two-Tailed   Residual
    Variable        Estimate       S.E.  Est./S.E.    P-Value    Variance

    CH2                0.232      0.002    121.208      0.000      0.768
    CH6                0.251      0.002    119.179      0.000      0.749
    CH7                0.256      0.002    105.567      0.000      0.744
    CH8                0.196      0.002     90.712      0.000      0.804
    CH9                0.217      0.002    112.385      0.000      0.783
    CH12               0.241      0.002    118.658      0.000      0.759
    CH14               0.285      0.002    136.282      0.000      0.715
    CH15               0.359      0.002    161.237      0.000      0.641
    CH16               0.272      0.002    139.092      0.000      0.728
    CH17               0.464      0.002    200.360      0.000      0.536
    CH19               0.228      0.002    109.229      0.000      0.772
    CH23               0.329      0.003    131.368      0.000      0.671
    CH24               0.163      0.002     80.332      0.000      0.837
    CH27               0.223      0.002    100.526      0.000      0.777
    CH29               0.210      0.002    106.265      0.000      0.790
    CH30               0.357      0.002    148.033      0.000      0.643
    CH31               0.283      0.003     95.831      0.000      0.717
    CH33               0.368      0.002    148.066      0.000      0.632
    CH34               0.312      0.002    136.284      0.000      0.688
    CH36               0.313      0.003    119.833      0.000      0.687
    CH37               0.255      0.003     77.514      0.000      0.745
    CH38               0.204      0.003     79.514      0.000      0.796
    CH39               0.308      0.003    101.574      0.000      0.692
    CH40               0.219      0.003     83.337      0.000      0.781
    CN1                0.308      0.005     60.953      0.000      0.692
    CN2                0.418      0.002    175.222      0.000      0.582
    CN4                0.166      0.002     96.930      0.000      0.834
    CN5                0.214      0.002    114.370      0.000      0.786
    CN6                0.158      0.002     93.406      0.000      0.842
    CN8                0.231      0.003     85.742      0.000      0.769
    CN10               0.205      0.002     91.201      0.000      0.795
    CN11               0.307      0.002    143.057      0.000      0.693
    CN13               0.397      0.004     93.604      0.000      0.603
    CN16               0.244      0.002    119.610      0.000      0.756
    CN19               0.240      0.002    108.864      0.000      0.760
    CN20               0.241      0.004     57.142      0.000      0.759
    CN21               0.173      0.002     74.746      0.000      0.827
    CN22               0.414      0.003    132.428      0.000      0.586
    CN33               0.232      0.003     74.445      0.000      0.768
    CN37               0.177      0.002     86.488      0.000      0.823
    L2                 0.299      0.002    145.904      0.000      0.701
    L5                 0.295      0.002    143.055      0.000      0.705
    L7                 0.269      0.005     57.871      0.000      0.731
    L8                 0.182      0.002     88.017      0.000      0.818
    L9                 0.214      0.002     98.858      0.000      0.786
    L10                0.370      0.003    135.111      0.000      0.630
    L12                0.303      0.002    136.914      0.000      0.697
    L14                0.304      0.002    130.773      0.000      0.696
    L15                0.511      0.003    154.215      0.000      0.489
    L17                0.279      0.003     86.280      0.000      0.721
    L19                0.222      0.002    108.614      0.000      0.778
    L20                0.407      0.002    166.931      0.000      0.593
    L22                0.294      0.002    120.519      0.000      0.706
    L23                0.195      0.002     97.395      0.000      0.805
    L25                0.259      0.002    121.548      0.000      0.741
    L26                0.303      0.002    123.201      0.000      0.697
    L28                0.193      0.002     97.829      0.000      0.807
    L29                0.309      0.002    135.647      0.000      0.691
    L30                0.244      0.002    114.585      0.000      0.756
    L31                0.176      0.002     92.525      0.000      0.824
    L32                0.190      0.002     83.038      0.000      0.810
    L33                0.179      0.002     94.098      0.000      0.821
    L34                0.189      0.002     97.320      0.000      0.811
    L36                0.241      0.002    114.270      0.000      0.759
    L37                0.243      0.002    108.692      0.000      0.757
    L38                0.253      0.002    107.902      0.000      0.747
    L42                0.169      0.002     83.960      0.000      0.831
    L43                0.228      0.002    103.629      0.000      0.772
    L44                0.155      0.002     80.501      0.000      0.845
    MT1                0.363      0.003    107.740      0.000      0.637
    MT2                0.170      0.004     41.297      0.000      0.830
    MT5                0.276      0.002    112.438      0.000      0.724
    MT7                0.166      0.002     71.076      0.000      0.834
    MT10               0.214      0.002    108.984      0.000      0.786
    MT13               0.198      0.002     84.724      0.000      0.802
    MT17               0.150      0.002     60.242      0.000      0.850
    MT19               0.246      0.003     75.682      0.000      0.754
    MT24               0.318      0.004     74.815      0.000      0.682


QUALITY OF NUMERICAL RESULTS

     Condition Number for the Information Matrix              0.565E-07
       (ratio of smallest to largest eigenvalue)


MODEL MODIFICATION INDICES

NOTE:  Modification indices for direct effects of observed dependent variables
regressed on covariates and residual covariances among observed dependent
variables may not be included.  To include these, request MODINDICES (ALL).

Minimum M.I. value for printing the modification index  3000.000

                            M.I.     E.P.C.  Std E.P.C.  StdYX E.P.C.

BY Statements

MT       BY CN2          3166.511     0.483      0.164        0.164
MT       BY CN19         ********     0.976      0.331        0.331
CH       BY CH7           999.000     0.000      0.000        0.000
L        BY CN10         3539.705    -1.369     -0.167       -0.167
L        BY CN19         3872.344    -1.385     -0.169       -0.169

ON/BY Statements

MT       ON L        /
L        BY MT           9154.762    -0.932     -0.334       -0.334
CN       ON L        /
L        BY CN           4657.207     0.973      0.366        0.366
L        ON MT       /
MT       BY L            9154.762    -0.120     -0.334       -0.334
L        ON CN       /
CN       BY L            4657.207     0.138      0.366        0.366

WITH Statements

CH       WITH GERAL       999.000     0.000      0.000        0.000
L        WITH GERAL       999.000     0.000      0.000        0.000
L        WITH MT         9154.762    -0.014     -0.334       -0.334
L        WITH CN         4657.207     0.014      0.366        0.366


     Beginning Time:  21:13:53
        Ending Time:  21:35:34
       Elapsed Time:  00:21:41



MUTHEN & MUTHEN
3463 Stoner Ave.
Los Angeles, CA  90066

Tel: (310) 391-9971
Fax: (310) 391-8971
Web: www.StatModel.com
Support: Support@StatModel.com

Copyright (c) 1998-2008 Muthen & Muthen
