Mplus VERSION 5.2
MUTHEN & MUTHEN
06/13/2013   7:41 PM

INPUT INSTRUCTIONS

  TITLE:        ENEM 2009
  DATA:        FILE IS DATA.txt;
  VARIABLE:        NAMES ARE cn1-cn45 ch1-ch45 l1-l10 l12-l45 mt1-mt45;
                  CATEGORICAL ARE ch2 ch6-ch9 ch12 ch14-ch17 ch19 ch23 ch24 ch27
           ch29-ch31 ch33 ch34 ch36-ch40;
              USEVARIABLES ARE ch2 ch6-ch9 ch12 ch14-ch17 ch19 ch23 ch24 ch27
           ch29-ch31 ch33 ch34 ch36-ch40;
  MODEL:
           CH BY ch2 ch6-ch9 ch12 ch14-ch17 ch19 ch23 ch24 ch27
           ch29-ch31 ch33 ch34 ch36-ch40;


  OUTPUT: STANDARDIZED;










INPUT READING TERMINATED NORMALLY



ENEM 2009

SUMMARY OF ANALYSIS

Number of groups                                                 1
Number of observations                                      288117

Number of dependent variables                                   24
Number of independent variables                                  0
Number of continuous latent variables                            1

Observed dependent variables

  Binary and ordered categorical (ordinal)
   CH2         CH6         CH7         CH8         CH9         CH12
   CH14        CH15        CH16        CH17        CH19        CH23
   CH24        CH27        CH29        CH30        CH31        CH33
   CH34        CH36        CH37        CH38        CH39        CH40

Continuous latent variables
   CH


Estimator                                                    WLSMV
Maximum number of iterations                                  1000
Convergence criterion                                    0.500D-04
Maximum number of steepest descent iterations                   20
Parameterization                                             DELTA

Input data file(s)
  DATA.txt

Input data format  FREE


SUMMARY OF CATEGORICAL DATA PROPORTIONS

    CH2
      Category 1    0.411
      Category 2    0.589
    CH6
      Category 1    0.533
      Category 2    0.467
    CH7
      Category 1    0.717
      Category 2    0.283
    CH8
      Category 1    0.711
      Category 2    0.289
    CH9
      Category 1    0.286
      Category 2    0.714
    CH12
      Category 1    0.546
      Category 2    0.454
    CH14
      Category 1    0.483
      Category 2    0.517
    CH15
      Category 1    0.524
      Category 2    0.476
    CH16
      Category 1    0.401
      Category 2    0.599
    CH17
      Category 1    0.583
      Category 2    0.417
    CH19
      Category 1    0.601
      Category 2    0.399
    CH23
      Category 1    0.624
      Category 2    0.376
    CH24
      Category 1    0.707
      Category 2    0.293
    CH27
      Category 1    0.595
      Category 2    0.405
    CH29
      Category 1    0.526
      Category 2    0.474
    CH30
      Category 1    0.581
      Category 2    0.419
    CH31
      Category 1    0.703
      Category 2    0.297
    CH33
      Category 1    0.576
      Category 2    0.424
    CH34
      Category 1    0.427
      Category 2    0.573
    CH36
      Category 1    0.619
      Category 2    0.381
    CH37
      Category 1    0.785
      Category 2    0.215
    CH38
      Category 1    0.685
      Category 2    0.315
    CH39
      Category 1    0.675
      Category 2    0.325
    CH40
      Category 1    0.743
      Category 2    0.257



THE MODEL ESTIMATION TERMINATED NORMALLY



TESTS OF MODEL FIT

Chi-Square Test of Model Fit

          Value                          21496.971*
          Degrees of Freedom                   248**
          P-Value                           0.0000

*   The chi-square value for MLM, MLMV, MLR, ULSMV, WLSM and WLSMV cannot be used
    for chi-square difference tests.  MLM, MLR and WLSM chi-square difference
    testing is described in the Mplus Technical Appendices at www.statmodel.com.
    See chi-square difference testing in the index of the Mplus User's Guide.

**  The degrees of freedom for MLMV, ULSMV and WLSMV are estimated according to
    a formula given in the Mplus Technical Appendices at www.statmodel.com.
    See degrees of freedom in the index of the Mplus User's Guide.

Chi-Square Test of Model Fit for the Baseline Model

          Value                         990270.448
          Degrees of Freedom                   120
          P-Value                           0.0000

CFI/TLI

          CFI                                0.979
          TLI                                0.990

Number of Free Parameters                       48

RMSEA (Root Mean Square Error Of Approximation)

          Estimate                           0.017

WRMR (Weighted Root Mean Square Residual)

          Value                              7.314



MODEL RESULTS

                                                    Two-Tailed
                    Estimate       S.E.  Est./S.E.    P-Value

 CH       BY
    CH2                1.000      0.000    999.000    999.000
    CH6                1.028      0.006    161.449      0.000
    CH7                1.051      0.007    157.314      0.000
    CH8                0.939      0.007    142.479      0.000
    CH9                0.952      0.006    156.394      0.000
    CH12               1.011      0.006    162.489      0.000
    CH14               1.100      0.006    172.887      0.000
    CH15               1.233      0.007    185.624      0.000
    CH16               1.104      0.006    177.839      0.000
    CH17               1.442      0.007    199.897      0.000
    CH19               1.011      0.006    158.445      0.000
    CH23               1.173      0.007    175.971      0.000
    CH24               0.880      0.007    135.234      0.000
    CH27               0.998      0.006    157.959      0.000
    CH29               0.971      0.006    156.952      0.000
    CH30               1.257      0.007    184.967      0.000
    CH31               1.050      0.007    155.526      0.000
    CH33               1.241      0.007    185.129      0.000
    CH34               1.172      0.006    184.584      0.000
    CH36               1.137      0.007    171.662      0.000
    CH37               0.985      0.007    136.063      0.000
    CH38               0.904      0.006    139.405      0.000
    CH39               1.039      0.007    156.698      0.000
    CH40               0.935      0.007    138.491      0.000

 Thresholds
    CH2$1             -0.224      0.002    -95.148      0.000
    CH6$1              0.082      0.002     35.038      0.000
    CH7$1              0.575      0.002    231.826      0.000
    CH8$1              0.557      0.002    225.288      0.000
    CH9$1             -0.564      0.002   -227.835      0.000
    CH12$1             0.116      0.002     49.663      0.000
    CH14$1            -0.043      0.002    -18.494      0.000
    CH15$1             0.059      0.002     25.442      0.000
    CH16$1            -0.250      0.002   -105.808      0.000
    CH17$1             0.210      0.002     89.316      0.000
    CH19$1             0.256      0.002    108.423      0.000
    CH23$1             0.315      0.002    132.642      0.000
    CH24$1             0.545      0.002    221.092      0.000
    CH27$1             0.241      0.002    101.930      0.000
    CH29$1             0.065      0.002     27.703      0.000
    CH30$1             0.205      0.002     86.944      0.000
    CH31$1             0.532      0.002    216.448      0.000
    CH33$1             0.192      0.002     81.670      0.000
    CH34$1            -0.184      0.002    -78.170      0.000
    CH36$1             0.303      0.002    127.734      0.000
    CH37$1             0.791      0.003    301.780      0.000
    CH38$1             0.482      0.002    197.755      0.000
    CH39$1             0.455      0.002    187.640      0.000
    CH40$1             0.652      0.003    258.207      0.000

 Variances
    CH                 0.227      0.002    113.772      0.000


IRT PARAMETERIZATION IN TWO-PARAMETER PROBIT METRIC
WHERE THE PROBIT IS DISCRIMINATION*(THETA - DIFFICULTY)

 Item Discriminations

 CH       BY
    CH2                0.542      0.003    175.938      0.000
    CH6                0.561      0.003    167.760      0.000
    CH7                0.578      0.004    152.117      0.000
    CH8                0.500      0.004    141.445      0.000
    CH9                0.509      0.003    163.203      0.000
    CH12               0.549      0.003    169.145      0.000
    CH14               0.615      0.003    183.060      0.000
    CH15               0.726      0.004    194.228      0.000
    CH16               0.618      0.003    193.322      0.000
    CH17               0.945      0.005    199.450      0.000
    CH19               0.549      0.003    162.495      0.000
    CH23               0.674      0.004    177.218      0.000
    CH24               0.462      0.003    136.118      0.000
    CH27               0.540      0.003    162.166      0.000
    CH29               0.522      0.003    164.203      0.000
    CH30               0.747      0.004    190.110      0.000
    CH31               0.577      0.004    151.892      0.000
    CH33               0.732      0.004    191.348      0.000
    CH34               0.673      0.003    201.241      0.000
    CH36               0.644      0.004    174.339      0.000
    CH37               0.531      0.004    127.831      0.000
    CH38               0.477      0.003    139.210      0.000
    CH39               0.569      0.004    155.183      0.000
    CH40               0.498      0.004    134.033      0.000

 Item Difficulties
    CH2$1             -0.471      0.005    -85.795      0.000
    CH6$1              0.167      0.005     34.679      0.000
    CH7$1              1.149      0.008    151.264      0.000
    CH8$1              1.245      0.009    137.507      0.000
    CH9$1             -1.244      0.008   -146.419      0.000
    CH12$1             0.241      0.005     48.774      0.000
    CH14$1            -0.082      0.004    -18.381      0.000
    CH15$1             0.101      0.004     25.447      0.000
    CH16$1            -0.475      0.005    -95.538      0.000
    CH17$1             0.306      0.003     88.187      0.000
    CH19$1             0.532      0.005     97.115      0.000
    CH23$1             0.564      0.005    119.776      0.000
    CH24$1             1.300      0.010    130.464      0.000
    CH27$1             0.506      0.005     92.363      0.000
    CH29$1             0.140      0.005     27.584      0.000
    CH30$1             0.342      0.004     84.448      0.000
    CH31$1             1.065      0.007    147.729      0.000
    CH33$1             0.325      0.004     79.793      0.000
    CH34$1            -0.329      0.004    -73.897      0.000
    CH36$1             0.560      0.005    115.032      0.000
    CH37$1             1.685      0.012    142.441      0.000
    CH38$1             1.119      0.009    128.859      0.000
    CH39$1             0.920      0.007    139.179      0.000
    CH40$1             1.463      0.011    139.058      0.000

 Variances
    CH                 1.000      0.000      0.000      1.000


STANDARDIZED MODEL RESULTS


STDYX Standardization

                                                    Two-Tailed
                    Estimate       S.E.  Est./S.E.    P-Value

 CH       BY
    CH2                0.476      0.002    227.544      0.000
    CH6                0.489      0.002    220.578      0.000
    CH7                0.501      0.002    203.010      0.000
    CH8                0.447      0.003    176.793      0.000
    CH9                0.453      0.002    205.414      0.000
    CH12               0.481      0.002    220.167      0.000
    CH14               0.524      0.002    252.307      0.000
    CH15               0.587      0.002    296.562      0.000
    CH16               0.526      0.002    267.156      0.000
    CH17               0.687      0.002    377.458      0.000
    CH19               0.481      0.002    211.485      0.000
    CH23               0.559      0.002    257.639      0.000
    CH24               0.419      0.003    165.146      0.000
    CH27               0.475      0.002    209.434      0.000
    CH29               0.463      0.002    208.893      0.000
    CH30               0.598      0.002    296.156      0.000
    CH31               0.500      0.002    202.516      0.000
    CH33               0.591      0.002    293.986      0.000
    CH34               0.558      0.002    292.340      0.000
    CH36               0.541      0.002    246.636      0.000
    CH37               0.469      0.003    163.929      0.000
    CH38               0.430      0.003    170.879      0.000
    CH39               0.495      0.002    205.448      0.000
    CH40               0.445      0.003    167.219      0.000

 Thresholds
    CH2$1             -0.224      0.002    -95.148      0.000
    CH6$1              0.082      0.002     35.038      0.000
    CH7$1              0.575      0.002    231.826      0.000
    CH8$1              0.557      0.002    225.288      0.000
    CH9$1             -0.564      0.002   -227.835      0.000
    CH12$1             0.116      0.002     49.663      0.000
    CH14$1            -0.043      0.002    -18.494      0.000
    CH15$1             0.059      0.002     25.442      0.000
    CH16$1            -0.250      0.002   -105.808      0.000
    CH17$1             0.210      0.002     89.316      0.000
    CH19$1             0.256      0.002    108.423      0.000
    CH23$1             0.315      0.002    132.642      0.000
    CH24$1             0.545      0.002    221.092      0.000
    CH27$1             0.241      0.002    101.930      0.000
    CH29$1             0.065      0.002     27.703      0.000
    CH30$1             0.205      0.002     86.944      0.000
    CH31$1             0.532      0.002    216.448      0.000
    CH33$1             0.192      0.002     81.670      0.000
    CH34$1            -0.184      0.002    -78.170      0.000
    CH36$1             0.303      0.002    127.734      0.000
    CH37$1             0.791      0.003    301.780      0.000
    CH38$1             0.482      0.002    197.755      0.000
    CH39$1             0.455      0.002    187.640      0.000
    CH40$1             0.652      0.003    258.207      0.000

 Variances
    CH                 1.000      0.000    999.000    999.000


STDY Standardization

                                                    Two-Tailed
                    Estimate       S.E.  Est./S.E.    P-Value

 CH       BY
    CH2                0.476      0.002    227.544      0.000
    CH6                0.489      0.002    220.578      0.000
    CH7                0.501      0.002    203.010      0.000
    CH8                0.447      0.003    176.793      0.000
    CH9                0.453      0.002    205.414      0.000
    CH12               0.481      0.002    220.167      0.000
    CH14               0.524      0.002    252.307      0.000
    CH15               0.587      0.002    296.562      0.000
    CH16               0.526      0.002    267.156      0.000
    CH17               0.687      0.002    377.458      0.000
    CH19               0.481      0.002    211.485      0.000
    CH23               0.559      0.002    257.639      0.000
    CH24               0.419      0.003    165.146      0.000
    CH27               0.475      0.002    209.434      0.000
    CH29               0.463      0.002    208.893      0.000
    CH30               0.598      0.002    296.156      0.000
    CH31               0.500      0.002    202.516      0.000
    CH33               0.591      0.002    293.986      0.000
    CH34               0.558      0.002    292.340      0.000
    CH36               0.541      0.002    246.636      0.000
    CH37               0.469      0.003    163.929      0.000
    CH38               0.430      0.003    170.879      0.000
    CH39               0.495      0.002    205.448      0.000
    CH40               0.445      0.003    167.219      0.000

 Thresholds
    CH2$1             -0.224      0.002    -95.148      0.000
    CH6$1              0.082      0.002     35.038      0.000
    CH7$1              0.575      0.002    231.826      0.000
    CH8$1              0.557      0.002    225.288      0.000
    CH9$1             -0.564      0.002   -227.835      0.000
    CH12$1             0.116      0.002     49.663      0.000
    CH14$1            -0.043      0.002    -18.494      0.000
    CH15$1             0.059      0.002     25.442      0.000
    CH16$1            -0.250      0.002   -105.808      0.000
    CH17$1             0.210      0.002     89.316      0.000
    CH19$1             0.256      0.002    108.423      0.000
    CH23$1             0.315      0.002    132.642      0.000
    CH24$1             0.545      0.002    221.092      0.000
    CH27$1             0.241      0.002    101.930      0.000
    CH29$1             0.065      0.002     27.703      0.000
    CH30$1             0.205      0.002     86.944      0.000
    CH31$1             0.532      0.002    216.448      0.000
    CH33$1             0.192      0.002     81.670      0.000
    CH34$1            -0.184      0.002    -78.170      0.000
    CH36$1             0.303      0.002    127.734      0.000
    CH37$1             0.791      0.003    301.780      0.000
    CH38$1             0.482      0.002    197.755      0.000
    CH39$1             0.455      0.002    187.640      0.000
    CH40$1             0.652      0.003    258.207      0.000

 Variances
    CH                 1.000      0.000    999.000    999.000


STD Standardization

                                                    Two-Tailed
                    Estimate       S.E.  Est./S.E.    P-Value

 CH       BY
    CH2                0.476      0.002    227.544      0.000
    CH6                0.489      0.002    220.578      0.000
    CH7                0.501      0.002    203.010      0.000
    CH8                0.447      0.003    176.793      0.000
    CH9                0.453      0.002    205.414      0.000
    CH12               0.481      0.002    220.167      0.000
    CH14               0.524      0.002    252.307      0.000
    CH15               0.587      0.002    296.562      0.000
    CH16               0.526      0.002    267.156      0.000
    CH17               0.687      0.002    377.458      0.000
    CH19               0.481      0.002    211.485      0.000
    CH23               0.559      0.002    257.639      0.000
    CH24               0.419      0.003    165.146      0.000
    CH27               0.475      0.002    209.434      0.000
    CH29               0.463      0.002    208.893      0.000
    CH30               0.598      0.002    296.156      0.000
    CH31               0.500      0.002    202.516      0.000
    CH33               0.591      0.002    293.986      0.000
    CH34               0.558      0.002    292.340      0.000
    CH36               0.541      0.002    246.636      0.000
    CH37               0.469      0.003    163.929      0.000
    CH38               0.430      0.003    170.879      0.000
    CH39               0.495      0.002    205.448      0.000
    CH40               0.445      0.003    167.219      0.000

 Thresholds
    CH2$1             -0.224      0.002    -95.148      0.000
    CH6$1              0.082      0.002     35.038      0.000
    CH7$1              0.575      0.002    231.826      0.000
    CH8$1              0.557      0.002    225.288      0.000
    CH9$1             -0.564      0.002   -227.835      0.000
    CH12$1             0.116      0.002     49.663      0.000
    CH14$1            -0.043      0.002    -18.494      0.000
    CH15$1             0.059      0.002     25.442      0.000
    CH16$1            -0.250      0.002   -105.808      0.000
    CH17$1             0.210      0.002     89.316      0.000
    CH19$1             0.256      0.002    108.423      0.000
    CH23$1             0.315      0.002    132.642      0.000
    CH24$1             0.545      0.002    221.092      0.000
    CH27$1             0.241      0.002    101.930      0.000
    CH29$1             0.065      0.002     27.703      0.000
    CH30$1             0.205      0.002     86.944      0.000
    CH31$1             0.532      0.002    216.448      0.000
    CH33$1             0.192      0.002     81.670      0.000
    CH34$1            -0.184      0.002    -78.170      0.000
    CH36$1             0.303      0.002    127.734      0.000
    CH37$1             0.791      0.003    301.780      0.000
    CH38$1             0.482      0.002    197.755      0.000
    CH39$1             0.455      0.002    187.640      0.000
    CH40$1             0.652      0.003    258.207      0.000

 Variances
    CH                 1.000      0.000    999.000    999.000


R-SQUARE

    Observed                                        Two-Tailed   Residual
    Variable        Estimate       S.E.  Est./S.E.    P-Value    Variance

    CH2                0.227      0.002    113.772      0.000      0.773
    CH6                0.239      0.002    110.289      0.000      0.761
    CH7                0.251      0.002    101.505      0.000      0.749
    CH8                0.200      0.002     88.397      0.000      0.800
    CH9                0.205      0.002    102.707      0.000      0.795
    CH12               0.232      0.002    110.084      0.000      0.768
    CH14               0.274      0.002    126.154      0.000      0.726
    CH15               0.345      0.002    148.281      0.000      0.655
    CH16               0.276      0.002    133.578      0.000      0.724
    CH17               0.472      0.002    188.729      0.000      0.528
    CH19               0.232      0.002    105.743      0.000      0.768
    CH23               0.312      0.002    128.819      0.000      0.688
    CH24               0.176      0.002     82.573      0.000      0.824
    CH27               0.226      0.002    104.717      0.000      0.774
    CH29               0.214      0.002    104.447      0.000      0.786
    CH30               0.358      0.002    148.078      0.000      0.642
    CH31               0.250      0.002    101.258      0.000      0.750
    CH33               0.349      0.002    146.993      0.000      0.651
    CH34               0.312      0.002    146.170      0.000      0.688
    CH36               0.293      0.002    123.318      0.000      0.707
    CH37               0.220      0.003     81.964      0.000      0.780
    CH38               0.185      0.002     85.440      0.000      0.815
    CH39               0.245      0.002    102.724      0.000      0.755
    CH40               0.198      0.002     83.610      0.000      0.802


QUALITY OF NUMERICAL RESULTS

     Condition Number for the Information Matrix              0.128E-03
       (ratio of smallest to largest eigenvalue)


     Beginning Time:  19:41:53
        Ending Time:  19:43:23
       Elapsed Time:  00:01:30



MUTHEN & MUTHEN
3463 Stoner Ave.
Los Angeles, CA  90066

Tel: (310) 391-9971
Fax: (310) 391-8971
Web: www.StatModel.com
Support: Support@StatModel.com

Copyright (c) 1998-2008 Muthen & Muthen
