Mplus VERSION 5.2
MUTHEN & MUTHEN
06/13/2013   7:07 PM

INPUT INSTRUCTIONS

  TITLE:        ENEM 2011
  DATA:        FILE IS DATA.txt;
  VARIABLE:        NAMES ARE cn1-cn45 ch1-ch15 l1-l10 l12-l45 mt1-mt45;
                  CATEGORICAL ARE cn1 cn2 cn4-cn6 cn8 cn10 cn11
              cn13 cn16 cn19-cn22 cn33 cn37;
              USEVARIABLES ARE cn1 cn2 cn4-cn6 cn8 cn10 cn11
              cn13 cn16 cn19-cn22 cn33 cn37;
  MODEL:
            CN BY cn1 cn2 cn4-cn6 cn8 cn10 cn11
              cn13 cn16 cn19-cn22 cn33 cn37;


  OUTPUT: STANDARDIZED;










INPUT READING TERMINATED NORMALLY



ENEM 2011

SUMMARY OF ANALYSIS

Number of groups                                                 1
Number of observations                                      288117

Number of dependent variables                                   16
Number of independent variables                                  0
Number of continuous latent variables                            1

Observed dependent variables

  Binary and ordered categorical (ordinal)
   CN1         CN2         CN4         CN5         CN6         CN8
   CN10        CN11        CN13        CN16        CN19        CN20
   CN21        CN22        CN33        CN37

Continuous latent variables
   CN


Estimator                                                    WLSMV
Maximum number of iterations                                  1000
Convergence criterion                                    0.500D-04
Maximum number of steepest descent iterations                   20
Parameterization                                             DELTA

Input data file(s)
  DATA.txt

Input data format  FREE


SUMMARY OF CATEGORICAL DATA PROPORTIONS

    CN1
      Category 1    0.111
      Category 2    0.889
    CN2
      Category 1    0.601
      Category 2    0.399
    CN4
      Category 1    0.352
      Category 2    0.648
    CN5
      Category 1    0.415
      Category 2    0.585
    CN6
      Category 1    0.418
      Category 2    0.582
    CN8
      Category 1    0.447
      Category 2    0.553
    CN10
      Category 1    0.717
      Category 2    0.283
    CN11
      Category 1    0.516
      Category 2    0.484
    CN13
      Category 1    0.247
      Category 2    0.753
    CN16
      Category 1    0.539
      Category 2    0.461
    CN19
      Category 1    0.658
      Category 2    0.342
    CN20
      Category 1    0.337
      Category 2    0.663
    CN21
      Category 1    0.681
      Category 2    0.319
    CN22
      Category 1    0.407
      Category 2    0.593
    CN33
      Category 1    0.793
      Category 2    0.207
    CN37
      Category 1    0.697
      Category 2    0.303



THE MODEL ESTIMATION TERMINATED NORMALLY



TESTS OF MODEL FIT

Chi-Square Test of Model Fit

          Value                          12947.313*
          Degrees of Freedom                   102**
          P-Value                           0.0000

*   The chi-square value for MLM, MLMV, MLR, ULSMV, WLSM and WLSMV cannot be used
    for chi-square difference tests.  MLM, MLR and WLSM chi-square difference
    testing is described in the Mplus Technical Appendices at www.statmodel.com.
    See chi-square difference testing in the index of the Mplus User's Guide.

**  The degrees of freedom for MLMV, ULSMV and WLSMV are estimated according to
    a formula given in the Mplus Technical Appendices at www.statmodel.com.
    See degrees of freedom in the index of the Mplus User's Guide.

Chi-Square Test of Model Fit for the Baseline Model

          Value                         507578.424
          Degrees of Freedom                    78
          P-Value                           0.0000

CFI/TLI

          CFI                                0.975
          TLI                                0.981

Number of Free Parameters                       32

RMSEA (Root Mean Square Error Of Approximation)

          Estimate                           0.021

WRMR (Weighted Root Mean Square Residual)

          Value                              8.663



MODEL RESULTS

                                                    Two-Tailed
                    Estimate       S.E.  Est./S.E.    P-Value

 CN       BY
    CN1                1.000      0.000    999.000    999.000
    CN2                1.386      0.009    150.111      0.000
    CN4                0.858      0.007    123.270      0.000
    CN5                0.923      0.007    128.902      0.000
    CN6                0.857      0.007    123.102      0.000
    CN8                0.964      0.007    132.643      0.000
    CN10               0.939      0.008    118.361      0.000
    CN11               1.204      0.008    144.452      0.000
    CN13               1.127      0.008    142.881      0.000
    CN16               1.004      0.008    132.910      0.000
    CN19               1.053      0.008    130.749      0.000
    CN20               0.863      0.007    122.758      0.000
    CN21               0.745      0.007    103.622      0.000
    CN22               1.264      0.008    149.651      0.000
    CN33               0.820      0.008    100.935      0.000
    CN37               0.890      0.008    117.227      0.000

 Thresholds
    CN1$1             -1.224      0.003   -395.271      0.000
    CN2$1              0.257      0.002    108.757      0.000
    CN4$1             -0.381      0.002   -158.882      0.000
    CN5$1             -0.215      0.002    -91.156      0.000
    CN6$1             -0.207      0.002    -87.844      0.000
    CN8$1             -0.134      0.002    -57.281      0.000
    CN10$1             0.573      0.002    230.918      0.000
    CN11$1             0.041      0.002     17.663      0.000
    CN13$1            -0.683      0.003   -268.402      0.000
    CN16$1             0.099      0.002     42.148      0.000
    CN19$1             0.408      0.002    169.521      0.000
    CN20$1            -0.419      0.002   -173.928      0.000
    CN21$1             0.472      0.002    193.927      0.000
    CN22$1            -0.235      0.002    -99.716      0.000
    CN33$1             0.816      0.003    308.882      0.000
    CN37$1             0.515      0.002    210.201      0.000

 Variances
    CN                 0.239      0.003     85.135      0.000


IRT PARAMETERIZATION IN TWO-PARAMETER PROBIT METRIC
WHERE THE PROBIT IS DISCRIMINATION*(THETA - DIFFICULTY)

 Item Discriminations

 CN       BY
    CN1                0.560      0.004    129.644      0.000
    CN2                0.920      0.005    172.761      0.000
    CN4                0.462      0.003    143.410      0.000
    CN5                0.505      0.003    152.613      0.000
    CN6                0.461      0.003    144.020      0.000
    CN8                0.534      0.003    156.776      0.000
    CN10               0.516      0.004    131.882      0.000
    CN11               0.727      0.004    176.401      0.000
    CN13               0.659      0.004    167.068      0.000
    CN16               0.563      0.004    157.914      0.000
    CN19               0.600      0.004    151.257      0.000
    CN20               0.465      0.003    139.235      0.000
    CN21               0.391      0.003    114.320      0.000
    CN22               0.784      0.004    184.318      0.000
    CN33               0.437      0.004    106.815      0.000
    CN37               0.483      0.004    131.501      0.000

 Item Difficulties
    CN1$1             -2.505      0.017   -149.540      0.000
    CN2$1              0.380      0.004    104.024      0.000
    CN4$1             -0.909      0.008   -114.080      0.000
    CN5$1             -0.476      0.006    -80.839      0.000
    CN6$1             -0.494      0.006    -77.142      0.000
    CN8$1             -0.285      0.005    -54.573      0.000
    CN10$1             1.248      0.009    134.291      0.000
    CN11$1             0.070      0.004     17.671      0.000
    CN13$1            -1.240      0.007   -170.494      0.000
    CN16$1             0.201      0.005     41.440      0.000
    CN19$1             0.793      0.006    130.684      0.000
    CN20$1            -0.995      0.008   -118.629      0.000
    CN21$1             1.295      0.012    108.725      0.000
    CN22$1            -0.381      0.004    -92.608      0.000
    CN33$1             2.035      0.017    116.457      0.000
    CN37$1             1.185      0.009    127.214      0.000

 Variances
    CN                 1.000      0.000      0.000      1.000


STANDARDIZED MODEL RESULTS


STDYX Standardization

                                                    Two-Tailed
                    Estimate       S.E.  Est./S.E.    P-Value

 CN       BY
    CN1                0.488      0.003    170.270      0.000
    CN2                0.677      0.002    318.877      0.000
    CN4                0.419      0.002    173.994      0.000
    CN5                0.451      0.002    191.538      0.000
    CN6                0.419      0.002    174.662      0.000
    CN8                0.471      0.002    201.448      0.000
    CN10               0.459      0.003    167.006      0.000
    CN11               0.588      0.002    269.581      0.000
    CN13               0.550      0.002    239.693      0.000
    CN16               0.490      0.002    207.924      0.000
    CN19               0.515      0.003    205.731      0.000
    CN20               0.422      0.002    169.341      0.000
    CN21               0.364      0.003    131.789      0.000
    CN22               0.617      0.002    297.728      0.000
    CN33               0.401      0.003    127.249      0.000
    CN37               0.435      0.003    162.129      0.000

 Thresholds
    CN1$1             -1.224      0.003   -395.271      0.000
    CN2$1              0.257      0.002    108.757      0.000
    CN4$1             -0.381      0.002   -158.882      0.000
    CN5$1             -0.215      0.002    -91.156      0.000
    CN6$1             -0.207      0.002    -87.844      0.000
    CN8$1             -0.134      0.002    -57.281      0.000
    CN10$1             0.573      0.002    230.918      0.000
    CN11$1             0.041      0.002     17.663      0.000
    CN13$1            -0.683      0.003   -268.402      0.000
    CN16$1             0.099      0.002     42.148      0.000
    CN19$1             0.408      0.002    169.521      0.000
    CN20$1            -0.419      0.002   -173.928      0.000
    CN21$1             0.472      0.002    193.927      0.000
    CN22$1            -0.235      0.002    -99.716      0.000
    CN33$1             0.816      0.003    308.882      0.000
    CN37$1             0.515      0.002    210.201      0.000

 Variances
    CN                 1.000      0.000    999.000    999.000


STDY Standardization

                                                    Two-Tailed
                    Estimate       S.E.  Est./S.E.    P-Value

 CN       BY
    CN1                0.488      0.003    170.270      0.000
    CN2                0.677      0.002    318.877      0.000
    CN4                0.419      0.002    173.994      0.000
    CN5                0.451      0.002    191.538      0.000
    CN6                0.419      0.002    174.662      0.000
    CN8                0.471      0.002    201.448      0.000
    CN10               0.459      0.003    167.006      0.000
    CN11               0.588      0.002    269.581      0.000
    CN13               0.550      0.002    239.693      0.000
    CN16               0.490      0.002    207.924      0.000
    CN19               0.515      0.003    205.731      0.000
    CN20               0.422      0.002    169.341      0.000
    CN21               0.364      0.003    131.789      0.000
    CN22               0.617      0.002    297.728      0.000
    CN33               0.401      0.003    127.249      0.000
    CN37               0.435      0.003    162.129      0.000

 Thresholds
    CN1$1             -1.224      0.003   -395.271      0.000
    CN2$1              0.257      0.002    108.757      0.000
    CN4$1             -0.381      0.002   -158.882      0.000
    CN5$1             -0.215      0.002    -91.156      0.000
    CN6$1             -0.207      0.002    -87.844      0.000
    CN8$1             -0.134      0.002    -57.281      0.000
    CN10$1             0.573      0.002    230.918      0.000
    CN11$1             0.041      0.002     17.663      0.000
    CN13$1            -0.683      0.003   -268.402      0.000
    CN16$1             0.099      0.002     42.148      0.000
    CN19$1             0.408      0.002    169.521      0.000
    CN20$1            -0.419      0.002   -173.928      0.000
    CN21$1             0.472      0.002    193.927      0.000
    CN22$1            -0.235      0.002    -99.716      0.000
    CN33$1             0.816      0.003    308.882      0.000
    CN37$1             0.515      0.002    210.201      0.000

 Variances
    CN                 1.000      0.000    999.000    999.000


STD Standardization

                                                    Two-Tailed
                    Estimate       S.E.  Est./S.E.    P-Value

 CN       BY
    CN1                0.488      0.003    170.270      0.000
    CN2                0.677      0.002    318.877      0.000
    CN4                0.419      0.002    173.994      0.000
    CN5                0.451      0.002    191.538      0.000
    CN6                0.419      0.002    174.662      0.000
    CN8                0.471      0.002    201.448      0.000
    CN10               0.459      0.003    167.006      0.000
    CN11               0.588      0.002    269.581      0.000
    CN13               0.550      0.002    239.693      0.000
    CN16               0.490      0.002    207.924      0.000
    CN19               0.515      0.003    205.731      0.000
    CN20               0.422      0.002    169.341      0.000
    CN21               0.364      0.003    131.789      0.000
    CN22               0.617      0.002    297.728      0.000
    CN33               0.401      0.003    127.249      0.000
    CN37               0.435      0.003    162.129      0.000

 Thresholds
    CN1$1             -1.224      0.003   -395.271      0.000
    CN2$1              0.257      0.002    108.757      0.000
    CN4$1             -0.381      0.002   -158.882      0.000
    CN5$1             -0.215      0.002    -91.156      0.000
    CN6$1             -0.207      0.002    -87.844      0.000
    CN8$1             -0.134      0.002    -57.281      0.000
    CN10$1             0.573      0.002    230.918      0.000
    CN11$1             0.041      0.002     17.663      0.000
    CN13$1            -0.683      0.003   -268.402      0.000
    CN16$1             0.099      0.002     42.148      0.000
    CN19$1             0.408      0.002    169.521      0.000
    CN20$1            -0.419      0.002   -173.928      0.000
    CN21$1             0.472      0.002    193.927      0.000
    CN22$1            -0.235      0.002    -99.716      0.000
    CN33$1             0.816      0.003    308.882      0.000
    CN37$1             0.515      0.002    210.201      0.000

 Variances
    CN                 1.000      0.000    999.000    999.000


R-SQUARE

    Observed                                        Two-Tailed   Residual
    Variable        Estimate       S.E.  Est./S.E.    P-Value    Variance

    CN1                0.239      0.003     85.135      0.000      0.761
    CN2                0.458      0.003    159.438      0.000      0.542
    CN4                0.176      0.002     86.997      0.000      0.824
    CN5                0.203      0.002     95.769      0.000      0.797
    CN6                0.175      0.002     87.331      0.000      0.825
    CN8                0.222      0.002    100.724      0.000      0.778
    CN10               0.210      0.003     83.503      0.000      0.790
    CN11               0.346      0.003    134.791      0.000      0.654
    CN13               0.303      0.003    119.847      0.000      0.697
    CN16               0.241      0.002    103.962      0.000      0.759
    CN19               0.265      0.003    102.866      0.000      0.735
    CN20               0.178      0.002     84.671      0.000      0.822
    CN21               0.133      0.002     65.895      0.000      0.867
    CN22               0.381      0.003    148.864      0.000      0.619
    CN33               0.161      0.003     63.624      0.000      0.839
    CN37               0.189      0.002     81.065      0.000      0.811


QUALITY OF NUMERICAL RESULTS

     Condition Number for the Information Matrix              0.258E-03
       (ratio of smallest to largest eigenvalue)


     Beginning Time:  19:07:09
        Ending Time:  19:07:57
       Elapsed Time:  00:00:48



MUTHEN & MUTHEN
3463 Stoner Ave.
Los Angeles, CA  90066

Tel: (310) 391-9971
Fax: (310) 391-8971
Web: www.StatModel.com
Support: Support@StatModel.com

Copyright (c) 1998-2008 Muthen & Muthen
