TITLE:	ENEM 2011
DATA:	FILE IS DATA.txt;
VARIABLE:	NAMES ARE cn1-cn45 ch1-ch15 l1-l10 l12-l45 mt1-mt45;
        	CATEGORICAL ARE cn1 cn2 cn4-cn6 cn8 cn10 cn11
            cn13 cn16 cn19-cn22 cn33 cn37;
            USEVARIABLES ARE cn1 cn2 cn4-cn6 cn8 cn10 cn11
            cn13 cn16 cn19-cn22 cn33 cn37;
MODEL:
          CN BY cn1 cn2 cn4-cn6 cn8 cn10 cn11
            cn13 cn16 cn19-cn22 cn33 cn37;
          

OUTPUT: STANDARDIZED;







