Mplus VERSION 5.2
MUTHEN & MUTHEN
06/13/2013   7:12 PM

INPUT INSTRUCTIONS

  TITLE:        ENEM 2011
  DATA:        FILE IS DATA.txt;
  VARIABLE:        NAMES ARE cn1-cn45 ch1-ch45 l1-l10 l12-l45 mt1-mt45;
                  CATEGORICAL ARE l1-l10 l12-l45;
              USEVARIABLES ARE l1-l10 l12-l45;
  MODEL:
            L BY l1-l10 l12-l45;


  OUTPUT: STANDARDIZED;










INPUT READING TERMINATED NORMALLY



ENEM 2011

SUMMARY OF ANALYSIS

Number of groups                                                 1
Number of observations                                      288117

Number of dependent variables                                   44
Number of independent variables                                  0
Number of continuous latent variables                            1

Observed dependent variables

  Binary and ordered categorical (ordinal)
   L1          L2          L3          L4          L5          L6
   L7          L8          L9          L10         L12         L13
   L14         L15         L16         L17         L18         L19
   L20         L21         L22         L23         L24         L25
   L26         L27         L28         L29         L30         L31
   L32         L33         L34         L35         L36         L37
   L38         L39         L40         L41         L42         L43
   L44         L45

Continuous latent variables
   L


Estimator                                                    WLSMV
Maximum number of iterations                                  1000
Convergence criterion                                    0.500D-04
Maximum number of steepest descent iterations                   20
Parameterization                                             DELTA

Input data file(s)
  DATA.txt

Input data format  FREE


SUMMARY OF CATEGORICAL DATA PROPORTIONS

    L1
      Category 1    0.389
      Category 2    0.611
    L2
      Category 1    0.349
      Category 2    0.651
    L3
      Category 1    0.595
      Category 2    0.405
    L4
      Category 1    0.549
      Category 2    0.451
    L5
      Category 1    0.452
      Category 2    0.548
    L6
      Category 1    0.626
      Category 2    0.374
    L7
      Category 1    0.059
      Category 2    0.941
    L8
      Category 1    0.704
      Category 2    0.296
    L9
      Category 1    0.673
      Category 2    0.327
    L10
      Category 1    0.280
      Category 2    0.720
    L12
      Category 1    0.371
      Category 2    0.629
    L13
      Category 1    0.230
      Category 2    0.770
    L14
      Category 1    0.459
      Category 2    0.541
    L15
      Category 1    0.226
      Category 2    0.774
    L16
      Category 1    0.801
      Category 2    0.199
    L17
      Category 1    0.203
      Category 2    0.797
    L18
      Category 1    0.657
      Category 2    0.343
    L19
      Category 1    0.592
      Category 2    0.408
    L20
      Category 1    0.379
      Category 2    0.621
    L21
      Category 1    0.757
      Category 2    0.243
    L22
      Category 1    0.687
      Category 2    0.313
    L23
      Category 1    0.474
      Category 2    0.526
    L24
      Category 1    0.396
      Category 2    0.604
    L25
      Category 1    0.520
      Category 2    0.480
    L26
      Category 1    0.423
      Category 2    0.577
    L27
      Category 1    0.541
      Category 2    0.459
    L28
      Category 1    0.408
      Category 2    0.592
    L29
      Category 1    0.570
      Category 2    0.430
    L30
      Category 1    0.492
      Category 2    0.508
    L31
      Category 1    0.578
      Category 2    0.422
    L32
      Category 1    0.756
      Category 2    0.244
    L33
      Category 1    0.602
      Category 2    0.398
    L34
      Category 1    0.586
      Category 2    0.414
    L35
      Category 1    0.589
      Category 2    0.411
    L36
      Category 1    0.553
      Category 2    0.447
    L37
      Category 1    0.433
      Category 2    0.567
    L38
      Category 1    0.478
      Category 2    0.522
    L39
      Category 1    0.830
      Category 2    0.170
    L40
      Category 1    0.720
      Category 2    0.280
    L41
      Category 1    0.757
      Category 2    0.243
    L42
      Category 1    0.687
      Category 2    0.313
    L43
      Category 1    0.679
      Category 2    0.321
    L44
      Category 1    0.641
      Category 2    0.359
    L45
      Category 1    0.809
      Category 2    0.191



THE MODEL ESTIMATION TERMINATED NORMALLY



TESTS OF MODEL FIT

Chi-Square Test of Model Fit

          Value                          77196.932*
          Degrees of Freedom                   870**
          P-Value                           0.0000

*   The chi-square value for MLM, MLMV, MLR, ULSMV, WLSM and WLSMV cannot be used
    for chi-square difference tests.  MLM, MLR and WLSM chi-square difference
    testing is described in the Mplus Technical Appendices at www.statmodel.com.
    See chi-square difference testing in the index of the Mplus User's Guide.

**  The degrees of freedom for MLMV, ULSMV and WLSMV are estimated according to
    a formula given in the Mplus Technical Appendices at www.statmodel.com.
    See degrees of freedom in the index of the Mplus User's Guide.

Chi-Square Test of Model Fit for the Baseline Model

          Value                         **********
          Degrees of Freedom                   428
          P-Value                           0.0000

CFI/TLI

          CFI                                0.956
          TLI                                0.978

Number of Free Parameters                       88

RMSEA (Root Mean Square Error Of Approximation)

          Estimate                           0.017

WRMR (Weighted Root Mean Square Residual)

          Value                              8.067



MODEL RESULTS

                                                    Two-Tailed
                    Estimate       S.E.  Est./S.E.    P-Value

 L        BY
    L1                 1.000      0.000    999.000    999.000
    L2                 1.436      0.010    143.541      0.000
    L3                 0.780      0.008     97.178      0.000
    L4                 0.239      0.007     34.786      0.000
    L5                 1.419      0.010    140.848      0.000
    L6                 0.766      0.008     93.569      0.000
    L7                 1.220      0.011    109.949      0.000
    L8                 1.064      0.009    115.072      0.000
    L9                 1.171      0.010    122.554      0.000
    L10                1.544      0.011    145.287      0.000
    L12                1.461      0.010    143.881      0.000
    L13                0.966      0.009    110.729      0.000
    L14                1.451      0.010    141.262      0.000
    L15                1.737      0.011    151.258      0.000
    L16                0.719      0.009     79.802      0.000
    L17                1.194      0.010    124.372      0.000
    L18                0.899      0.009    105.608      0.000
    L19                1.234      0.010    129.245      0.000
    L20                1.670      0.011    149.888      0.000
    L21                0.999      0.009    106.025      0.000
    L22                1.389      0.010    132.471      0.000
    L23                1.163      0.009    127.523      0.000
    L24                1.016      0.008    119.921      0.000
    L25                1.384      0.010    137.220      0.000
    L26                1.405      0.010    140.758      0.000
    L27                0.380      0.007     54.129      0.000
    L28                1.182      0.009    129.629      0.000
    L29                1.504      0.011    142.196      0.000
    L30                1.322      0.010    136.575      0.000
    L31                1.145      0.009    124.358      0.000
    L32                1.065      0.010    109.439      0.000
    L33                1.105      0.009    121.104      0.000
    L34                1.164      0.009    125.477      0.000
    L35                0.956      0.008    112.556      0.000
    L36                1.293      0.010    134.418      0.000
    L37                1.286      0.010    134.186      0.000
    L38                1.293      0.010    135.090      0.000
    L39                0.915      0.010     91.199      0.000
    L40                0.811      0.009     93.403      0.000
    L41                0.452      0.008     55.453      0.000
    L42                1.132      0.010    118.409      0.000
    L43                1.306      0.010    129.668      0.000
    L44                1.082      0.009    117.607      0.000
    L45                0.619      0.009     69.137      0.000

 Thresholds
    L1$1              -0.281      0.002   -118.520      0.000
    L2$1              -0.388      0.002   -161.822      0.000
    L3$1               0.240      0.002    101.685      0.000
    L4$1               0.124      0.002     52.981      0.000
    L5$1              -0.121      0.002    -51.637      0.000
    L6$1               0.321      0.002    134.928      0.000
    L7$1              -1.562      0.004   -418.651      0.000
    L8$1               0.535      0.002    217.463      0.000
    L9$1               0.449      0.002    185.445      0.000
    L10$1             -0.582      0.002   -234.240      0.000
    L12$1             -0.328      0.002   -137.895      0.000
    L13$1             -0.739      0.003   -286.048      0.000
    L14$1             -0.104      0.002    -44.405      0.000
    L15$1             -0.753      0.003   -290.552      0.000
    L16$1              0.844      0.003    316.926      0.000
    L17$1             -0.829      0.003   -312.799      0.000
    L18$1              0.404      0.002    168.064      0.000
    L19$1              0.233      0.002     98.675      0.000
    L20$1             -0.309      0.002   -129.962      0.000
    L21$1              0.697      0.003    272.942      0.000
    L22$1              0.488      0.002    200.072      0.000
    L23$1             -0.066      0.002    -28.362      0.000
    L24$1             -0.265      0.002   -112.013      0.000
    L25$1              0.050      0.002     21.597      0.000
    L26$1             -0.193      0.002    -82.161      0.000
    L27$1              0.103      0.002     44.141      0.000
    L28$1             -0.234      0.002    -99.121      0.000
    L29$1              0.176      0.002     75.008      0.000
    L30$1             -0.019      0.002     -8.065      0.000
    L31$1              0.198      0.002     84.177      0.000
    L32$1              0.693      0.003    271.831      0.000
    L33$1              0.258      0.002    109.184      0.000
    L34$1              0.217      0.002     92.242      0.000
    L35$1              0.224      0.002     95.141      0.000
    L36$1              0.134      0.002     57.196      0.000
    L37$1             -0.168      0.002    -71.603      0.000
    L38$1             -0.056      0.002    -24.011      0.000
    L39$1              0.956      0.003    345.490      0.000
    L40$1              0.583      0.002    234.537      0.000
    L41$1              0.695      0.003    272.437      0.000
    L42$1              0.489      0.002    200.351      0.000
    L43$1              0.466      0.002    191.745      0.000
    L44$1              0.360      0.002    150.576      0.000
    L45$1              0.873      0.003    324.554      0.000

 Variances
    L                  0.141      0.002     81.478      0.000


IRT PARAMETERIZATION IN TWO-PARAMETER PROBIT METRIC
WHERE THE PROBIT IS DISCRIMINATION*(THETA - DIFFICULTY)

 Item Discriminations

 L        BY
    L1                 0.405      0.003    140.001      0.000
    L2                 0.640      0.003    192.610      0.000
    L3                 0.306      0.003    109.064      0.000
    L4                 0.090      0.003     35.285      0.000
    L5                 0.629      0.003    188.639      0.000
    L6                 0.300      0.003    104.211      0.000
    L7                 0.515      0.005    112.187      0.000
    L8                 0.436      0.003    132.699      0.000
    L9                 0.490      0.003    145.652      0.000
    L10                0.711      0.004    196.095      0.000
    L12                0.656      0.003    194.590      0.000
    L13                0.389      0.003    126.419      0.000
    L14                0.649      0.003    187.343      0.000
    L15                0.859      0.004    206.845      0.000
    L16                0.280      0.003     84.253      0.000
    L17                0.501      0.003    146.740      0.000
    L18                0.358      0.003    121.659      0.000
    L19                0.523      0.003    161.344      0.000
    L20                0.805      0.004    212.994      0.000
    L21                0.405      0.003    116.470      0.000
    L22                0.611      0.004    160.729      0.000
    L23                0.485      0.003    159.942      0.000
    L24                0.413      0.003    142.086      0.000
    L25                0.608      0.003    181.409      0.000
    L26                0.621      0.003    186.600      0.000
    L27                0.144      0.003     55.689      0.000
    L28                0.495      0.003    166.111      0.000
    L29                0.684      0.004    187.478      0.000
    L30                0.571      0.003    177.914      0.000
    L31                0.476      0.003    152.967      0.000
    L32                0.436      0.004    122.765      0.000
    L33                0.456      0.003    146.416      0.000
    L34                0.485      0.003    154.785      0.000
    L35                0.384      0.003    131.944      0.000
    L36                0.555      0.003    170.900      0.000
    L37                0.551      0.003    173.888      0.000
    L38                0.555      0.003    175.526      0.000
    L39                0.366      0.004     95.670      0.000
    L40                0.319      0.003    102.754      0.000
    L41                0.172      0.003     56.997      0.000
    L42                0.469      0.003    139.265      0.000
    L43                0.563      0.004    157.072      0.000
    L44                0.444      0.003    140.273      0.000
    L45                0.239      0.003     71.457      0.000

 Item Difficulties
    L1$1              -0.748      0.008    -94.453      0.000
    L2$1              -0.721      0.005   -134.143      0.000
    L3$1               0.820      0.011     77.217      0.000
    L4$1               1.384      0.047     29.477      0.000
    L5$1              -0.227      0.005    -50.185      0.000
    L6$1               1.116      0.013     86.931      0.000
    L7$1              -3.411      0.026   -128.885      0.000
    L8$1               1.340      0.011    126.186      0.000
    L9$1               1.022      0.008    128.666      0.000
    L10$1             -1.004      0.006   -174.705      0.000
    L12$1             -0.599      0.005   -120.114      0.000
    L13$1             -2.037      0.016   -126.373      0.000
    L14$1             -0.191      0.004    -43.530      0.000
    L15$1             -1.156      0.005   -211.690      0.000
    L16$1              3.131      0.036     86.501      0.000
    L17$1             -1.851      0.012   -152.649      0.000
    L18$1              1.199      0.011    104.888      0.000
    L19$1              0.502      0.006     89.183      0.000
    L20$1             -0.493      0.004   -118.291      0.000
    L21$1              1.858      0.015    120.004      0.000
    L22$1              0.936      0.006    147.489      0.000
    L23$1             -0.152      0.005    -27.991      0.000
    L24$1             -0.694      0.008    -91.719      0.000
    L25$1              0.097      0.004     21.587      0.000
    L26$1             -0.366      0.005    -77.355      0.000
    L27$1              0.725      0.021     34.897      0.000
    L28$1             -0.527      0.006    -87.642      0.000
    L29$1              0.312      0.004     72.942      0.000
    L30$1             -0.038      0.005     -8.052      0.000
    L31$1              0.461      0.006     77.011      0.000
    L32$1              1.734      0.014    127.113      0.000
    L33$1              0.622      0.007     93.248      0.000
    L34$1              0.497      0.006     83.025      0.000
    L35$1              0.625      0.008     80.399      0.000
    L36$1              0.276      0.005     55.431      0.000
    L37$1             -0.348      0.005    -67.526      0.000
    L38$1             -0.116      0.005    -23.809      0.000
    L39$1              2.784      0.027    102.248      0.000
    L40$1              1.915      0.019    101.052      0.000
    L41$1              4.102      0.072     57.155      0.000
    L42$1              1.151      0.009    128.909      0.000
    L43$1              0.950      0.007    140.009      0.000
    L44$1              0.887      0.008    111.687      0.000
    L45$1              3.756      0.051     73.076      0.000

 Variances
    L                  1.000      0.000      0.000      1.000


STANDARDIZED MODEL RESULTS


STDYX Standardization

                                                    Two-Tailed
                    Estimate       S.E.  Est./S.E.    P-Value

 L        BY
    L1                 0.375      0.002    162.956      0.000
    L2                 0.539      0.002    271.433      0.000
    L3                 0.293      0.002    119.280      0.000
    L4                 0.090      0.003     35.571      0.000
    L5                 0.532      0.002    263.286      0.000
    L6                 0.288      0.003    113.603      0.000
    L7                 0.458      0.003    141.938      0.000
    L8                 0.399      0.003    157.886      0.000
    L9                 0.440      0.002    180.555      0.000
    L10                0.580      0.002    295.263      0.000
    L12                0.548      0.002    278.255      0.000
    L13                0.363      0.002    145.547      0.000
    L14                0.545      0.002    266.354      0.000
    L15                0.652      0.002    359.647      0.000
    L16                0.270      0.003     90.862      0.000
    L17                0.448      0.002    183.609      0.000
    L18                0.337      0.002    137.275      0.000
    L19                0.463      0.002    205.415      0.000
    L20                0.627      0.002    350.911      0.000
    L21                0.375      0.003    135.539      0.000
    L22                0.521      0.002    220.694      0.000
    L23                0.436      0.002    197.571      0.000
    L24                0.381      0.002    166.284      0.000
    L25                0.519      0.002    248.441      0.000
    L26                0.527      0.002    258.451      0.000
    L27                0.142      0.003     56.843      0.000
    L28                0.444      0.002    206.852      0.000
    L29                0.565      0.002    275.175      0.000
    L30                0.496      0.002    235.993      0.000
    L31                0.430      0.002    187.583      0.000
    L32                0.400      0.003    146.135      0.000
    L33                0.415      0.002    176.811      0.000
    L34                0.437      0.002    191.263      0.000
    L35                0.359      0.002    151.443      0.000
    L36                0.485      0.002    223.598      0.000
    L37                0.483      0.002    226.680      0.000
    L38                0.485      0.002    229.653      0.000
    L39                0.343      0.003    108.462      0.000
    L40                0.304      0.003    113.237      0.000
    L41                0.170      0.003     58.684      0.000
    L42                0.425      0.002    169.917      0.000
    L43                0.490      0.002    206.787      0.000
    L44                0.406      0.002    167.969      0.000
    L45                0.232      0.003     75.533      0.000

 Thresholds
    L1$1              -0.281      0.002   -118.520      0.000
    L2$1              -0.388      0.002   -161.822      0.000
    L3$1               0.240      0.002    101.685      0.000
    L4$1               0.124      0.002     52.981      0.000
    L5$1              -0.121      0.002    -51.637      0.000
    L6$1               0.321      0.002    134.928      0.000
    L7$1              -1.562      0.004   -418.651      0.000
    L8$1               0.535      0.002    217.463      0.000
    L9$1               0.449      0.002    185.445      0.000
    L10$1             -0.582      0.002   -234.240      0.000
    L12$1             -0.328      0.002   -137.895      0.000
    L13$1             -0.739      0.003   -286.048      0.000
    L14$1             -0.104      0.002    -44.405      0.000
    L15$1             -0.753      0.003   -290.552      0.000
    L16$1              0.844      0.003    316.926      0.000
    L17$1             -0.829      0.003   -312.799      0.000
    L18$1              0.404      0.002    168.064      0.000
    L19$1              0.233      0.002     98.675      0.000
    L20$1             -0.309      0.002   -129.962      0.000
    L21$1              0.697      0.003    272.942      0.000
    L22$1              0.488      0.002    200.072      0.000
    L23$1             -0.066      0.002    -28.362      0.000
    L24$1             -0.265      0.002   -112.013      0.000
    L25$1              0.050      0.002     21.597      0.000
    L26$1             -0.193      0.002    -82.161      0.000
    L27$1              0.103      0.002     44.141      0.000
    L28$1             -0.234      0.002    -99.121      0.000
    L29$1              0.176      0.002     75.008      0.000
    L30$1             -0.019      0.002     -8.065      0.000
    L31$1              0.198      0.002     84.177      0.000
    L32$1              0.693      0.003    271.831      0.000
    L33$1              0.258      0.002    109.184      0.000
    L34$1              0.217      0.002     92.242      0.000
    L35$1              0.224      0.002     95.141      0.000
    L36$1              0.134      0.002     57.196      0.000
    L37$1             -0.168      0.002    -71.603      0.000
    L38$1             -0.056      0.002    -24.011      0.000
    L39$1              0.956      0.003    345.490      0.000
    L40$1              0.583      0.002    234.537      0.000
    L41$1              0.695      0.003    272.437      0.000
    L42$1              0.489      0.002    200.351      0.000
    L43$1              0.466      0.002    191.745      0.000
    L44$1              0.360      0.002    150.576      0.000
    L45$1              0.873      0.003    324.554      0.000

 Variances
    L                  1.000      0.000    999.000    999.000


STDY Standardization

                                                    Two-Tailed
                    Estimate       S.E.  Est./S.E.    P-Value

 L        BY
    L1                 0.375      0.002    162.956      0.000
    L2                 0.539      0.002    271.433      0.000
    L3                 0.293      0.002    119.280      0.000
    L4                 0.090      0.003     35.571      0.000
    L5                 0.532      0.002    263.286      0.000
    L6                 0.288      0.003    113.603      0.000
    L7                 0.458      0.003    141.938      0.000
    L8                 0.399      0.003    157.886      0.000
    L9                 0.440      0.002    180.555      0.000
    L10                0.580      0.002    295.263      0.000
    L12                0.548      0.002    278.255      0.000
    L13                0.363      0.002    145.547      0.000
    L14                0.545      0.002    266.354      0.000
    L15                0.652      0.002    359.647      0.000
    L16                0.270      0.003     90.862      0.000
    L17                0.448      0.002    183.609      0.000
    L18                0.337      0.002    137.275      0.000
    L19                0.463      0.002    205.415      0.000
    L20                0.627      0.002    350.911      0.000
    L21                0.375      0.003    135.539      0.000
    L22                0.521      0.002    220.694      0.000
    L23                0.436      0.002    197.571      0.000
    L24                0.381      0.002    166.284      0.000
    L25                0.519      0.002    248.441      0.000
    L26                0.527      0.002    258.451      0.000
    L27                0.142      0.003     56.843      0.000
    L28                0.444      0.002    206.852      0.000
    L29                0.565      0.002    275.175      0.000
    L30                0.496      0.002    235.993      0.000
    L31                0.430      0.002    187.583      0.000
    L32                0.400      0.003    146.135      0.000
    L33                0.415      0.002    176.811      0.000
    L34                0.437      0.002    191.263      0.000
    L35                0.359      0.002    151.443      0.000
    L36                0.485      0.002    223.598      0.000
    L37                0.483      0.002    226.680      0.000
    L38                0.485      0.002    229.653      0.000
    L39                0.343      0.003    108.462      0.000
    L40                0.304      0.003    113.237      0.000
    L41                0.170      0.003     58.684      0.000
    L42                0.425      0.002    169.917      0.000
    L43                0.490      0.002    206.787      0.000
    L44                0.406      0.002    167.969      0.000
    L45                0.232      0.003     75.533      0.000

 Thresholds
    L1$1              -0.281      0.002   -118.520      0.000
    L2$1              -0.388      0.002   -161.822      0.000
    L3$1               0.240      0.002    101.685      0.000
    L4$1               0.124      0.002     52.981      0.000
    L5$1              -0.121      0.002    -51.637      0.000
    L6$1               0.321      0.002    134.928      0.000
    L7$1              -1.562      0.004   -418.651      0.000
    L8$1               0.535      0.002    217.463      0.000
    L9$1               0.449      0.002    185.445      0.000
    L10$1             -0.582      0.002   -234.240      0.000
    L12$1             -0.328      0.002   -137.895      0.000
    L13$1             -0.739      0.003   -286.048      0.000
    L14$1             -0.104      0.002    -44.405      0.000
    L15$1             -0.753      0.003   -290.552      0.000
    L16$1              0.844      0.003    316.926      0.000
    L17$1             -0.829      0.003   -312.799      0.000
    L18$1              0.404      0.002    168.064      0.000
    L19$1              0.233      0.002     98.675      0.000
    L20$1             -0.309      0.002   -129.962      0.000
    L21$1              0.697      0.003    272.942      0.000
    L22$1              0.488      0.002    200.072      0.000
    L23$1             -0.066      0.002    -28.362      0.000
    L24$1             -0.265      0.002   -112.013      0.000
    L25$1              0.050      0.002     21.597      0.000
    L26$1             -0.193      0.002    -82.161      0.000
    L27$1              0.103      0.002     44.141      0.000
    L28$1             -0.234      0.002    -99.121      0.000
    L29$1              0.176      0.002     75.008      0.000
    L30$1             -0.019      0.002     -8.065      0.000
    L31$1              0.198      0.002     84.177      0.000
    L32$1              0.693      0.003    271.831      0.000
    L33$1              0.258      0.002    109.184      0.000
    L34$1              0.217      0.002     92.242      0.000
    L35$1              0.224      0.002     95.141      0.000
    L36$1              0.134      0.002     57.196      0.000
    L37$1             -0.168      0.002    -71.603      0.000
    L38$1             -0.056      0.002    -24.011      0.000
    L39$1              0.956      0.003    345.490      0.000
    L40$1              0.583      0.002    234.537      0.000
    L41$1              0.695      0.003    272.437      0.000
    L42$1              0.489      0.002    200.351      0.000
    L43$1              0.466      0.002    191.745      0.000
    L44$1              0.360      0.002    150.576      0.000
    L45$1              0.873      0.003    324.554      0.000

 Variances
    L                  1.000      0.000    999.000    999.000


STD Standardization

                                                    Two-Tailed
                    Estimate       S.E.  Est./S.E.    P-Value

 L        BY
    L1                 0.375      0.002    162.956      0.000
    L2                 0.539      0.002    271.433      0.000
    L3                 0.293      0.002    119.280      0.000
    L4                 0.090      0.003     35.571      0.000
    L5                 0.532      0.002    263.286      0.000
    L6                 0.288      0.003    113.603      0.000
    L7                 0.458      0.003    141.938      0.000
    L8                 0.399      0.003    157.886      0.000
    L9                 0.440      0.002    180.555      0.000
    L10                0.580      0.002    295.263      0.000
    L12                0.548      0.002    278.255      0.000
    L13                0.363      0.002    145.547      0.000
    L14                0.545      0.002    266.354      0.000
    L15                0.652      0.002    359.647      0.000
    L16                0.270      0.003     90.862      0.000
    L17                0.448      0.002    183.609      0.000
    L18                0.337      0.002    137.275      0.000
    L19                0.463      0.002    205.415      0.000
    L20                0.627      0.002    350.911      0.000
    L21                0.375      0.003    135.539      0.000
    L22                0.521      0.002    220.694      0.000
    L23                0.436      0.002    197.571      0.000
    L24                0.381      0.002    166.284      0.000
    L25                0.519      0.002    248.441      0.000
    L26                0.527      0.002    258.451      0.000
    L27                0.142      0.003     56.843      0.000
    L28                0.444      0.002    206.852      0.000
    L29                0.565      0.002    275.175      0.000
    L30                0.496      0.002    235.993      0.000
    L31                0.430      0.002    187.583      0.000
    L32                0.400      0.003    146.135      0.000
    L33                0.415      0.002    176.811      0.000
    L34                0.437      0.002    191.263      0.000
    L35                0.359      0.002    151.443      0.000
    L36                0.485      0.002    223.598      0.000
    L37                0.483      0.002    226.680      0.000
    L38                0.485      0.002    229.653      0.000
    L39                0.343      0.003    108.462      0.000
    L40                0.304      0.003    113.237      0.000
    L41                0.170      0.003     58.684      0.000
    L42                0.425      0.002    169.917      0.000
    L43                0.490      0.002    206.787      0.000
    L44                0.406      0.002    167.969      0.000
    L45                0.232      0.003     75.533      0.000

 Thresholds
    L1$1              -0.281      0.002   -118.520      0.000
    L2$1              -0.388      0.002   -161.822      0.000
    L3$1               0.240      0.002    101.685      0.000
    L4$1               0.124      0.002     52.981      0.000
    L5$1              -0.121      0.002    -51.637      0.000
    L6$1               0.321      0.002    134.928      0.000
    L7$1              -1.562      0.004   -418.651      0.000
    L8$1               0.535      0.002    217.463      0.000
    L9$1               0.449      0.002    185.445      0.000
    L10$1             -0.582      0.002   -234.240      0.000
    L12$1             -0.328      0.002   -137.895      0.000
    L13$1             -0.739      0.003   -286.048      0.000
    L14$1             -0.104      0.002    -44.405      0.000
    L15$1             -0.753      0.003   -290.552      0.000
    L16$1              0.844      0.003    316.926      0.000
    L17$1             -0.829      0.003   -312.799      0.000
    L18$1              0.404      0.002    168.064      0.000
    L19$1              0.233      0.002     98.675      0.000
    L20$1             -0.309      0.002   -129.962      0.000
    L21$1              0.697      0.003    272.942      0.000
    L22$1              0.488      0.002    200.072      0.000
    L23$1             -0.066      0.002    -28.362      0.000
    L24$1             -0.265      0.002   -112.013      0.000
    L25$1              0.050      0.002     21.597      0.000
    L26$1             -0.193      0.002    -82.161      0.000
    L27$1              0.103      0.002     44.141      0.000
    L28$1             -0.234      0.002    -99.121      0.000
    L29$1              0.176      0.002     75.008      0.000
    L30$1             -0.019      0.002     -8.065      0.000
    L31$1              0.198      0.002     84.177      0.000
    L32$1              0.693      0.003    271.831      0.000
    L33$1              0.258      0.002    109.184      0.000
    L34$1              0.217      0.002     92.242      0.000
    L35$1              0.224      0.002     95.141      0.000
    L36$1              0.134      0.002     57.196      0.000
    L37$1             -0.168      0.002    -71.603      0.000
    L38$1             -0.056      0.002    -24.011      0.000
    L39$1              0.956      0.003    345.490      0.000
    L40$1              0.583      0.002    234.537      0.000
    L41$1              0.695      0.003    272.437      0.000
    L42$1              0.489      0.002    200.351      0.000
    L43$1              0.466      0.002    191.745      0.000
    L44$1              0.360      0.002    150.576      0.000
    L45$1              0.873      0.003    324.554      0.000

 Variances
    L                  1.000      0.000    999.000    999.000


R-SQUARE

    Observed                                        Two-Tailed   Residual
    Variable        Estimate       S.E.  Est./S.E.    P-Value    Variance

    L1                 0.141      0.002     81.478      0.000      0.859
    L2                 0.290      0.002    135.717      0.000      0.710
    L3                 0.086      0.001     59.640      0.000      0.914
    L4                 0.008      0.000     17.785      0.000      0.992
    L5                 0.284      0.002    131.643      0.000      0.716
    L6                 0.083      0.001     56.802      0.000      0.917
    L7                 0.210      0.003     70.969      0.000      0.790
    L8                 0.160      0.002     78.943      0.000      0.840
    L9                 0.193      0.002     90.277      0.000      0.807
    L10                0.336      0.002    147.632      0.000      0.664
    L12                0.301      0.002    139.127      0.000      0.699
    L13                0.131      0.002     72.774      0.000      0.869
    L14                0.297      0.002    133.177      0.000      0.703
    L15                0.425      0.002    179.823      0.000      0.575
    L16                0.073      0.002     45.431      0.000      0.927
    L17                0.201      0.002     91.804      0.000      0.799
    L18                0.114      0.002     68.637      0.000      0.886
    L19                0.215      0.002    102.707      0.000      0.785
    L20                0.393      0.002    175.456      0.000      0.607
    L21                0.141      0.002     67.769      0.000      0.859
    L22                0.272      0.002    110.347      0.000      0.728
    L23                0.190      0.002     98.785      0.000      0.810
    L24                0.146      0.002     83.142      0.000      0.854
    L25                0.270      0.002    124.221      0.000      0.730
    L26                0.278      0.002    129.225      0.000      0.722
    L27                0.020      0.001     28.422      0.000      0.980
    L28                0.197      0.002    103.426      0.000      0.803
    L29                0.319      0.002    137.588      0.000      0.681
    L30                0.246      0.002    117.997      0.000      0.754
    L31                0.185      0.002     93.791      0.000      0.815
    L32                0.160      0.002     73.067      0.000      0.840
    L33                0.172      0.002     88.405      0.000      0.828
    L34                0.191      0.002     95.632      0.000      0.809
    L35                0.129      0.002     75.721      0.000      0.871
    L36                0.236      0.002    111.799      0.000      0.764
    L37                0.233      0.002    113.340      0.000      0.767
    L38                0.236      0.002    114.826      0.000      0.764
    L39                0.118      0.002     54.231      0.000      0.882
    L40                0.093      0.002     56.619      0.000      0.907
    L41                0.029      0.001     29.342      0.000      0.971
    L42                0.180      0.002     84.959      0.000      0.820
    L43                0.240      0.002    103.394      0.000      0.760
    L44                0.165      0.002     83.984      0.000      0.835
    L45                0.054      0.001     37.767      0.000      0.946


QUALITY OF NUMERICAL RESULTS

     Condition Number for the Information Matrix              0.112E-04
       (ratio of smallest to largest eigenvalue)


     Beginning Time:  19:12:49
        Ending Time:  19:17:28
       Elapsed Time:  00:04:39



MUTHEN & MUTHEN
3463 Stoner Ave.
Los Angeles, CA  90066

Tel: (310) 391-9971
Fax: (310) 391-8971
Web: www.StatModel.com
Support: Support@StatModel.com

Copyright (c) 1998-2008 Muthen & Muthen
