TITLE:	ENEM 2011
DATA:	FILE IS DATA.txt;
VARIABLE:	NAMES ARE cn1-cn45 ch1-ch45 l1-l10 l12-l45 mt1-mt45;
        	CATEGORICAL ARE l2 l5 l7 l8-l10 l12 l14 l15 l17 l19 l20 l22
           l23 l25 l26 l28-l34 l36-l38 l42-l44;
            USEVARIABLES ARE l2 l5 l7 l8-l10 l12 l14 l15 l17 l19 l20 l22
           l23 l25 l26 l28-l34 l36-l38 l42-l44;
MODEL:
          L BY l2 l5 l7 l8-l10 l12 l14 l15 l17 l19 l20 l22
           l23 l25 l26 l28-l34 l36-l38 l42-l44;
          

OUTPUT: STANDARDIZED;







