TITLE:	ENEM 2009
DATA:	FILE IS DATA.txt;
VARIABLE:	NAMES ARE cn1-cn45 ch1-ch45 l1-l10 l12-l45 mt1-mt45;
        	CATEGORICAL ARE mt1 mt2 mt5 mt7 mt10 mt13 mt17 mt19 mt24;
            USEVARIABLES ARE mt1 mt2 mt5 mt7 mt10 mt13 mt17 mt19 mt24;
MODEL:
          MT BY mt1 mt2 mt5 mt7 mt10 mt13 mt17 mt19 mt24;
          

OUTPUT: STANDARDIZED;







