Mplus VERSION 5.2
MUTHEN & MUTHEN
06/13/2013   4:01 PM

INPUT INSTRUCTIONS

  TITLE:        ENEM 2009
  DATA:        FILE IS DATA.txt;
  VARIABLE:        NAMES ARE cn1-cn45 ch1-ch45 l1-l10 l12-l45 mt1-mt45;
                  CATEGORICAL ARE mt1 mt2 mt5 mt7 mt10 mt13 mt17 mt19 mt24;
              USEVARIABLES ARE mt1 mt2 mt5 mt7 mt10 mt13 mt17 mt19 mt24;
  MODEL:
            MT BY mt1 mt2 mt5 mt7 mt10 mt13 mt17 mt19 mt24;


  OUTPUT: STANDARDIZED;










INPUT READING TERMINATED NORMALLY



ENEM 2009

SUMMARY OF ANALYSIS

Number of groups                                                 1
Number of observations                                      288117

Number of dependent variables                                    9
Number of independent variables                                  0
Number of continuous latent variables                            1

Observed dependent variables

  Binary and ordered categorical (ordinal)
   MT1         MT2         MT5         MT7         MT10        MT13
   MT17        MT19        MT24

Continuous latent variables
   MT


Estimator                                                    WLSMV
Maximum number of iterations                                  1000
Convergence criterion                                    0.500D-04
Maximum number of steepest descent iterations                   20
Parameterization                                             DELTA

Input data file(s)
  DATA.txt

Input data format  FREE


SUMMARY OF CATEGORICAL DATA PROPORTIONS

    MT1
      Category 1    0.731
      Category 2    0.269
    MT2
      Category 1    0.899
      Category 2    0.101
    MT5
      Category 1    0.598
      Category 2    0.402
    MT7
      Category 1    0.660
      Category 2    0.340
    MT10
      Category 1    0.483
      Category 2    0.517
    MT13
      Category 1    0.638
      Category 2    0.362
    MT17
      Category 1    0.714
      Category 2    0.286
    MT19
      Category 1    0.741
      Category 2    0.259
    MT24
      Category 1    0.825
      Category 2    0.175



THE MODEL ESTIMATION TERMINATED NORMALLY



TESTS OF MODEL FIT

Chi-Square Test of Model Fit

          Value                           2232.301*
          Degrees of Freedom                    27**
          P-Value                           0.0000

*   The chi-square value for MLM, MLMV, MLR, ULSMV, WLSM and WLSMV cannot be used
    for chi-square difference tests.  MLM, MLR and WLSM chi-square difference
    testing is described in the Mplus Technical Appendices at www.statmodel.com.
    See chi-square difference testing in the index of the Mplus User's Guide.

**  The degrees of freedom for MLMV, ULSMV and WLSMV are estimated according to
    a formula given in the Mplus Technical Appendices at www.statmodel.com.
    See degrees of freedom in the index of the Mplus User's Guide.

Chi-Square Test of Model Fit for the Baseline Model

          Value                         125130.751
          Degrees of Freedom                    25
          P-Value                           0.0000

CFI/TLI

          CFI                                0.982
          TLI                                0.984

Number of Free Parameters                       18

RMSEA (Root Mean Square Error Of Approximation)

          Estimate                           0.017

WRMR (Weighted Root Mean Square Residual)

          Value                              6.038



MODEL RESULTS

                                                    Two-Tailed
                    Estimate       S.E.  Est./S.E.    P-Value

 MT       BY
    MT1                1.000      0.000    999.000    999.000
    MT2                0.648      0.008     76.624      0.000
    MT5                0.923      0.007    139.787      0.000
    MT7                0.711      0.006    113.888      0.000
    MT10               0.776      0.006    128.811      0.000
    MT13               0.793      0.006    124.638      0.000
    MT17               0.680      0.006    106.158      0.000
    MT19               0.812      0.007    120.784      0.000
    MT24               0.914      0.008    119.606      0.000

 Thresholds
    MT1$1              0.615      0.003    245.673      0.000
    MT2$1              1.278      0.003    401.962      0.000
    MT5$1              0.249      0.002    105.292      0.000
    MT7$1              0.412      0.002    171.019      0.000
    MT10$1            -0.043      0.002    -18.292      0.000
    MT13$1             0.353      0.002    147.831      0.000
    MT17$1             0.566      0.002    228.432      0.000
    MT19$1             0.645      0.003    255.963      0.000
    MT24$1             0.934      0.003    340.148      0.000

 Variances
    MT                 0.341      0.003     97.745      0.000


IRT PARAMETERIZATION IN TWO-PARAMETER PROBIT METRIC
WHERE THE PROBIT IS DISCRIMINATION*(THETA - DIFFICULTY)

 Item Discriminations

 MT       BY
    MT1                0.720      0.006    128.746      0.000
    MT2                0.409      0.006     70.098      0.000
    MT5                0.641      0.004    142.566      0.000
    MT7                0.457      0.004    114.512      0.000
    MT10               0.509      0.004    135.302      0.000
    MT13               0.523      0.004    125.690      0.000
    MT17               0.433      0.004    104.939      0.000
    MT19               0.539      0.005    115.667      0.000
    MT24               0.632      0.006    105.946      0.000

 Item Difficulties
    MT1$1              1.052      0.007    155.946      0.000
    MT2$1              3.374      0.042     79.617      0.000
    MT5$1              0.461      0.005     95.592      0.000
    MT7$1              0.991      0.009    108.458      0.000
    MT10$1            -0.094      0.005    -18.069      0.000
    MT13$1             0.762      0.007    110.469      0.000
    MT17$1             1.424      0.013    109.514      0.000
    MT19$1             1.359      0.010    129.903      0.000
    MT24$1             1.748      0.013    135.893      0.000

 Variances
    MT                 1.000      0.000      0.000      1.000


STANDARDIZED MODEL RESULTS


STDYX Standardization

                                                    Two-Tailed
                    Estimate       S.E.  Est./S.E.    P-Value

 MT       BY
    MT1                0.584      0.003    195.490      0.000
    MT2                0.379      0.005     81.831      0.000
    MT5                0.540      0.003    201.121      0.000
    MT7                0.415      0.003    138.399      0.000
    MT10               0.453      0.003    170.297      0.000
    MT13               0.464      0.003    160.099      0.000
    MT17               0.397      0.003    124.594      0.000
    MT19               0.475      0.003    149.290      0.000
    MT24               0.534      0.004    148.272      0.000

 Thresholds
    MT1$1              0.615      0.003    245.673      0.000
    MT2$1              1.278      0.003    401.962      0.000
    MT5$1              0.249      0.002    105.292      0.000
    MT7$1              0.412      0.002    171.019      0.000
    MT10$1            -0.043      0.002    -18.292      0.000
    MT13$1             0.353      0.002    147.831      0.000
    MT17$1             0.566      0.002    228.432      0.000
    MT19$1             0.645      0.003    255.963      0.000
    MT24$1             0.934      0.003    340.148      0.000

 Variances
    MT                 1.000      0.000    999.000    999.000


STDY Standardization

                                                    Two-Tailed
                    Estimate       S.E.  Est./S.E.    P-Value

 MT       BY
    MT1                0.584      0.003    195.490      0.000
    MT2                0.379      0.005     81.831      0.000
    MT5                0.540      0.003    201.121      0.000
    MT7                0.415      0.003    138.399      0.000
    MT10               0.453      0.003    170.297      0.000
    MT13               0.464      0.003    160.099      0.000
    MT17               0.397      0.003    124.594      0.000
    MT19               0.475      0.003    149.290      0.000
    MT24               0.534      0.004    148.272      0.000

 Thresholds
    MT1$1              0.615      0.003    245.673      0.000
    MT2$1              1.278      0.003    401.962      0.000
    MT5$1              0.249      0.002    105.292      0.000
    MT7$1              0.412      0.002    171.019      0.000
    MT10$1            -0.043      0.002    -18.292      0.000
    MT13$1             0.353      0.002    147.831      0.000
    MT17$1             0.566      0.002    228.432      0.000
    MT19$1             0.645      0.003    255.963      0.000
    MT24$1             0.934      0.003    340.148      0.000

 Variances
    MT                 1.000      0.000    999.000    999.000


STD Standardization

                                                    Two-Tailed
                    Estimate       S.E.  Est./S.E.    P-Value

 MT       BY
    MT1                0.584      0.003    195.490      0.000
    MT2                0.379      0.005     81.831      0.000
    MT5                0.540      0.003    201.121      0.000
    MT7                0.415      0.003    138.399      0.000
    MT10               0.453      0.003    170.297      0.000
    MT13               0.464      0.003    160.099      0.000
    MT17               0.397      0.003    124.594      0.000
    MT19               0.475      0.003    149.290      0.000
    MT24               0.534      0.004    148.272      0.000

 Thresholds
    MT1$1              0.615      0.003    245.673      0.000
    MT2$1              1.278      0.003    401.962      0.000
    MT5$1              0.249      0.002    105.292      0.000
    MT7$1              0.412      0.002    171.019      0.000
    MT10$1            -0.043      0.002    -18.292      0.000
    MT13$1             0.353      0.002    147.831      0.000
    MT17$1             0.566      0.002    228.432      0.000
    MT19$1             0.645      0.003    255.963      0.000
    MT24$1             0.934      0.003    340.148      0.000

 Variances
    MT                 1.000      0.000    999.000    999.000


R-SQUARE

    Observed                                        Two-Tailed   Residual
    Variable        Estimate       S.E.  Est./S.E.    P-Value    Variance

    MT1                0.341      0.003     97.745      0.000      0.659
    MT2                0.143      0.004     40.916      0.000      0.857
    MT5                0.291      0.003    100.560      0.000      0.709
    MT7                0.173      0.002     69.199      0.000      0.827
    MT10               0.205      0.002     85.149      0.000      0.795
    MT13               0.215      0.003     80.050      0.000      0.785
    MT17               0.158      0.003     62.297      0.000      0.842
    MT19               0.225      0.003     74.645      0.000      0.775
    MT24               0.285      0.004     74.136      0.000      0.715


QUALITY OF NUMERICAL RESULTS

     Condition Number for the Information Matrix              0.454E-02
       (ratio of smallest to largest eigenvalue)


     Beginning Time:  16:01:15
        Ending Time:  16:01:38
       Elapsed Time:  00:00:23



MUTHEN & MUTHEN
3463 Stoner Ave.
Los Angeles, CA  90066

Tel: (310) 391-9971
Fax: (310) 391-8971
Web: www.StatModel.com
Support: Support@StatModel.com

Copyright (c) 1998-2008 Muthen & Muthen
