Mplus VERSION 5.2
MUTHEN & MUTHEN
06/13/2013   3:50 PM

INPUT INSTRUCTIONS

  TITLE:        ENEM 2009
  DATA:        FILE IS DATA.txt;
  VARIABLE:        NAMES ARE cn1-cn45 ch1-ch45 l1-l10 l12-l45 mt1-mt45;
                  CATEGORICAL ARE mt1-mt45;
              USEVARIABLES ARE mt1-mt45;
  MODEL:
            MT BY mt1-mt45;


  OUTPUT: STANDARDIZED;










INPUT READING TERMINATED NORMALLY



ENEM 2009

SUMMARY OF ANALYSIS

Number of groups                                                 1
Number of observations                                      288117

Number of dependent variables                                   45
Number of independent variables                                  0
Number of continuous latent variables                            1

Observed dependent variables

  Binary and ordered categorical (ordinal)
   MT1         MT2         MT3         MT4         MT5         MT6
   MT7         MT8         MT9         MT10        MT11        MT12
   MT13        MT14        MT15        MT16        MT17        MT18
   MT19        MT20        MT21        MT22        MT23        MT24
   MT25        MT26        MT27        MT28        MT29        MT30
   MT31        MT32        MT33        MT34        MT35        MT36
   MT37        MT38        MT39        MT40        MT41        MT42
   MT43        MT44        MT45

Continuous latent variables
   MT


Estimator                                                    WLSMV
Maximum number of iterations                                  1000
Convergence criterion                                    0.500D-04
Maximum number of steepest descent iterations                   20
Parameterization                                             DELTA

Input data file(s)
  DATA.txt

Input data format  FREE


SUMMARY OF CATEGORICAL DATA PROPORTIONS

    MT1
      Category 1    0.731
      Category 2    0.269
    MT2
      Category 1    0.899
      Category 2    0.101
    MT3
      Category 1    0.725
      Category 2    0.275
    MT4
      Category 1    0.861
      Category 2    0.139
    MT5
      Category 1    0.598
      Category 2    0.402
    MT6
      Category 1    0.767
      Category 2    0.233
    MT7
      Category 1    0.660
      Category 2    0.340
    MT8
      Category 1    0.828
      Category 2    0.172
    MT9
      Category 1    0.744
      Category 2    0.256
    MT10
      Category 1    0.483
      Category 2    0.517
    MT11
      Category 1    0.887
      Category 2    0.113
    MT12
      Category 1    0.689
      Category 2    0.311
    MT13
      Category 1    0.638
      Category 2    0.362
    MT14
      Category 1    0.325
      Category 2    0.675
    MT15
      Category 1    0.770
      Category 2    0.230
    MT16
      Category 1    0.726
      Category 2    0.274
    MT17
      Category 1    0.714
      Category 2    0.286
    MT18
      Category 1    0.880
      Category 2    0.120
    MT19
      Category 1    0.741
      Category 2    0.259
    MT20
      Category 1    0.746
      Category 2    0.254
    MT21
      Category 1    0.766
      Category 2    0.234
    MT22
      Category 1    0.836
      Category 2    0.164
    MT23
      Category 1    0.795
      Category 2    0.205
    MT24
      Category 1    0.825
      Category 2    0.175
    MT25
      Category 1    0.765
      Category 2    0.235
    MT26
      Category 1    0.731
      Category 2    0.269
    MT27
      Category 1    0.759
      Category 2    0.241
    MT28
      Category 1    0.750
      Category 2    0.250
    MT29
      Category 1    0.740
      Category 2    0.260
    MT30
      Category 1    0.743
      Category 2    0.257
    MT31
      Category 1    0.775
      Category 2    0.225
    MT32
      Category 1    0.775
      Category 2    0.225
    MT33
      Category 1    0.892
      Category 2    0.108
    MT34
      Category 1    0.756
      Category 2    0.244
    MT35
      Category 1    0.768
      Category 2    0.232
    MT36
      Category 1    0.683
      Category 2    0.317
    MT37
      Category 1    0.765
      Category 2    0.235
    MT38
      Category 1    0.826
      Category 2    0.174
    MT39
      Category 1    0.718
      Category 2    0.282
    MT40
      Category 1    0.771
      Category 2    0.229
    MT41
      Category 1    0.782
      Category 2    0.218
    MT42
      Category 1    0.856
      Category 2    0.144
    MT43
      Category 1    0.764
      Category 2    0.236
    MT44
      Category 1    0.756
      Category 2    0.244
    MT45
      Category 1    0.775
      Category 2    0.225



THE MODEL ESTIMATION TERMINATED NORMALLY



TESTS OF MODEL FIT

Chi-Square Test of Model Fit

          Value                          68970.449*
          Degrees of Freedom                   905**
          P-Value                           0.0000

*   The chi-square value for MLM, MLMV, MLR, ULSMV, WLSM and WLSMV cannot be used
    for chi-square difference tests.  MLM, MLR and WLSM chi-square difference
    testing is described in the Mplus Technical Appendices at www.statmodel.com.
    See chi-square difference testing in the index of the Mplus User's Guide.

**  The degrees of freedom for MLMV, ULSMV and WLSMV are estimated according to
    a formula given in the Mplus Technical Appendices at www.statmodel.com.
    See degrees of freedom in the index of the Mplus User's Guide.

Chi-Square Test of Model Fit for the Baseline Model

          Value                         369258.114
          Degrees of Freedom                   655
          P-Value                           0.0000

CFI/TLI

          CFI                                0.815
          TLI                                0.866

Number of Free Parameters                       90

RMSEA (Root Mean Square Error Of Approximation)

          Estimate                           0.016

WRMR (Weighted Root Mean Square Residual)

          Value                              7.920



MODEL RESULTS

                                                    Two-Tailed
                    Estimate       S.E.  Est./S.E.    P-Value

 MT       BY
    MT1                1.000      0.000    999.000    999.000
    MT2                0.726      0.008     88.057      0.000
    MT3                0.284      0.006     50.662      0.000
    MT4                0.506      0.007     68.297      0.000
    MT5                0.874      0.005    163.713      0.000
    MT6                0.522      0.006     87.475      0.000
    MT7                0.686      0.005    127.845      0.000
    MT8                0.308      0.006     47.898      0.000
    MT9                0.162      0.006     28.532      0.000
    MT10               0.734      0.005    149.304      0.000
    MT11               0.134      0.008     16.812      0.000
    MT12               0.251      0.005     47.075      0.000
    MT13               0.755      0.005    141.076      0.000
    MT14               0.659      0.005    135.888      0.000
    MT15               0.624      0.006    103.592      0.000
    MT16               0.323      0.006     57.664      0.000
    MT17               0.689      0.006    121.509      0.000
    MT18               0.478      0.008     63.041      0.000
    MT19               0.836      0.006    143.500      0.000
    MT20               0.259      0.006     45.901      0.000
    MT21               0.374      0.006     63.513      0.000
    MT22               0.113      0.006     17.491      0.000
    MT23               0.333      0.006     53.363      0.000
    MT24               0.984      0.007    144.031      0.000
    MT25               0.208      0.006     36.107      0.000
    MT26               0.502      0.006     88.170      0.000
    MT27               0.338      0.006     57.735      0.000
    MT28               0.551      0.006     94.550      0.000
    MT29               0.663      0.006    114.353      0.000
    MT30               0.279      0.006     49.123      0.000
    MT31               0.177      0.006     29.981      0.000
    MT32               0.157      0.006     27.042      0.000
    MT33               0.477      0.008     59.135      0.000
    MT34               0.547      0.006     93.844      0.000
    MT35               0.053      0.006      9.325      0.000
    MT36              -0.064      0.005    -12.480      0.000
    MT37               0.051      0.006      9.145      0.000
    MT38               0.145      0.006     23.263      0.000
    MT39               0.010      0.005      1.844      0.065
    MT40               0.203      0.006     34.643      0.000
    MT41               0.006      0.006      1.138      0.255
    MT42               0.093      0.006     14.896      0.000
    MT43               0.146      0.006     25.180      0.000
    MT44              -0.118      0.005    -23.381      0.000
    MT45               0.088      0.006     15.051      0.000

 Thresholds
    MT1$1              0.615      0.003    245.673      0.000
    MT2$1              1.278      0.003    401.962      0.000
    MT3$1              0.597      0.002    239.539      0.000
    MT4$1              1.084      0.003    372.621      0.000
    MT5$1              0.249      0.002    105.292      0.000
    MT6$1              0.728      0.003    282.833      0.000
    MT7$1              0.412      0.002    171.019      0.000
    MT8$1              0.945      0.003    342.896      0.000
    MT9$1              0.654      0.003    259.083      0.000
    MT10$1            -0.043      0.002    -18.292      0.000
    MT11$1             1.209      0.003    393.307      0.000
    MT12$1             0.493      0.002    201.814      0.000
    MT13$1             0.353      0.002    147.831      0.000
    MT14$1            -0.452      0.002   -186.644      0.000
    MT15$1             0.738      0.003    285.939      0.000
    MT16$1             0.601      0.002    240.937      0.000
    MT17$1             0.566      0.002    228.432      0.000
    MT18$1             1.177      0.003    388.485      0.000
    MT19$1             0.645      0.003    255.963      0.000
    MT20$1             0.661      0.003    261.349      0.000
    MT21$1             0.727      0.003    282.490      0.000
    MT22$1             0.977      0.003    350.346      0.000
    MT23$1             0.823      0.003    311.068      0.000
    MT24$1             0.934      0.003    340.148      0.000
    MT25$1             0.722      0.003    280.846      0.000
    MT26$1             0.615      0.003    245.629      0.000
    MT27$1             0.705      0.003    275.438      0.000
    MT28$1             0.675      0.003    265.866      0.000
    MT29$1             0.644      0.003    255.553      0.000
    MT30$1             0.652      0.003    258.172      0.000
    MT31$1             0.756      0.003    291.264      0.000
    MT32$1             0.756      0.003    291.391      0.000
    MT33$1             1.235      0.003    396.769      0.000
    MT34$1             0.693      0.003    271.564      0.000
    MT35$1             0.733      0.003    284.457      0.000
    MT36$1             0.476      0.002    195.755      0.000
    MT37$1             0.723      0.003    281.327      0.000
    MT38$1             0.937      0.003    340.915      0.000
    MT39$1             0.577      0.002    232.530      0.000
    MT40$1             0.744      0.003    287.595      0.000
    MT41$1             0.778      0.003    297.982      0.000
    MT42$1             1.062      0.003    368.415      0.000
    MT43$1             0.719      0.003    280.000      0.000
    MT44$1             0.693      0.003    271.625      0.000
    MT45$1             0.756      0.003    291.538      0.000

 Variances
    MT                 0.338      0.003    113.256      0.000


IRT PARAMETERIZATION IN TWO-PARAMETER PROBIT METRIC
WHERE THE PROBIT IS DISCRIMINATION*(THETA - DIFFICULTY)

 Item Discriminations

 MT       BY
    MT1                0.715      0.005    149.932      0.000
    MT2                0.466      0.006     76.782      0.000
    MT3                0.167      0.003     49.990      0.000
    MT4                0.308      0.005     63.799      0.000
    MT5                0.590      0.004    165.087      0.000
    MT6                0.318      0.004     82.925      0.000
    MT7                0.435      0.003    125.209      0.000
    MT8                0.182      0.004     47.067      0.000
    MT9                0.095      0.003     28.338      0.000
    MT10               0.472      0.003    154.816      0.000
    MT11               0.078      0.005     16.680      0.000
    MT12               0.147      0.003     47.078      0.000
    MT13               0.489      0.004    138.761      0.000
    MT14               0.415      0.003    141.765      0.000
    MT15               0.389      0.004     97.881      0.000
    MT16               0.191      0.003     56.753      0.000
    MT17               0.437      0.004    116.789      0.000
    MT18               0.289      0.005     59.554      0.000
    MT19               0.556      0.004    132.128      0.000
    MT20               0.152      0.003     45.585      0.000
    MT21               0.223      0.004     62.005      0.000
    MT22               0.066      0.004     17.418      0.000
    MT23               0.197      0.004     52.273      0.000
    MT24               0.698      0.006    118.667      0.000
    MT25               0.122      0.003     35.944      0.000
    MT26               0.305      0.004     86.341      0.000
    MT27               0.200      0.004     56.608      0.000
    MT28               0.338      0.004     90.067      0.000
    MT29               0.418      0.004    109.230      0.000
    MT30               0.164      0.003     48.680      0.000
    MT31               0.103      0.003     29.808      0.000
    MT32               0.092      0.003     26.926      0.000
    MT33               0.289      0.005     55.476      0.000
    MT34               0.335      0.004     90.327      0.000
    MT35               0.031      0.003      9.320      0.000
    MT36              -0.037      0.003    -12.477      0.000
    MT37               0.030      0.003      9.140      0.000
    MT38               0.085      0.004     23.169      0.000
    MT39               0.006      0.003      1.844      0.065
    MT40               0.119      0.003     34.392      0.000
    MT41               0.004      0.003      1.138      0.255
    MT42               0.054      0.004     14.881      0.000
    MT43               0.085      0.003     25.071      0.000
    MT44              -0.069      0.003    -23.317      0.000
    MT45               0.051      0.003     15.020      0.000

 Item Difficulties
    MT1$1              1.057      0.006    173.382      0.000
    MT2$1              3.027      0.033     90.507      0.000
    MT3$1              3.620      0.072     50.215      0.000
    MT4$1              3.685      0.054     68.542      0.000
    MT5$1              0.489      0.005     98.421      0.000
    MT6$1              2.400      0.028     87.127      0.000
    MT7$1              1.032      0.009    114.186      0.000
    MT8$1              5.280      0.110     48.028      0.000
    MT9$1              6.952      0.245     28.403      0.000
    MT10$1            -0.100      0.006    -18.064      0.000
    MT11$1            15.553      0.928     16.761      0.000
    MT12$1             3.379      0.072     46.689      0.000
    MT13$1             0.804      0.007    115.026      0.000
    MT14$1            -1.180      0.010   -118.892      0.000
    MT15$1             2.035      0.019    105.013      0.000
    MT16$1             3.202      0.056     57.110      0.000
    MT17$1             1.412      0.012    119.852      0.000
    MT18$1             4.235      0.067     63.447      0.000
    MT19$1             1.328      0.009    146.505      0.000
    MT20$1             4.393      0.096     45.831      0.000
    MT21$1             3.339      0.053     63.353      0.000
    MT22$1            14.838      0.850     17.466      0.000
    MT23$1             4.250      0.080     53.431      0.000
    MT24$1             1.632      0.010    159.281      0.000
    MT25$1             5.969      0.165     36.127      0.000
    MT26$1             2.107      0.024     87.971      0.000
    MT27$1             3.585      0.062     57.515      0.000
    MT28$1             2.109      0.022     94.273      0.000
    MT29$1             1.671      0.015    115.184      0.000
    MT30$1             4.017      0.082     48.998      0.000
    MT31$1             7.349      0.245     29.942      0.000
    MT32$1             8.262      0.306     27.015      0.000
    MT33$1             4.453      0.075     59.261      0.000
    MT34$1             2.177      0.023     94.276      0.000
    MT35$1            23.824      2.555      9.323      0.000
    MT36$1           -12.835      1.030    -12.465      0.000
    MT37$1            24.446      2.674      9.142      0.000
    MT38$1            11.104      0.477     23.264      0.000
    MT39$1           100.599     54.549      1.844      0.065
    MT40$1             6.288      0.182     34.588      0.000
    MT41$1           206.395    181.309      1.138      0.255
    MT42$1            19.671      1.320     14.906      0.000
    MT43$1             8.480      0.337     25.135      0.000
    MT44$1           -10.066      0.432    -23.315      0.000
    MT45$1            14.769      0.982     15.036      0.000

 Variances
    MT                 1.000      0.000      0.000      1.000


STANDARDIZED MODEL RESULTS


STDYX Standardization

                                                    Two-Tailed
                    Estimate       S.E.  Est./S.E.    P-Value

 MT       BY
    MT1                0.581      0.003    226.512      0.000
    MT2                0.422      0.005     93.422      0.000
    MT3                0.165      0.003     51.388      0.000
    MT4                0.294      0.004     69.840      0.000
    MT5                0.508      0.002    222.494      0.000
    MT6                0.303      0.003     91.333      0.000
    MT7                0.399      0.003    148.906      0.000
    MT8                0.179      0.004     48.626      0.000
    MT9                0.094      0.003     28.591      0.000
    MT10               0.427      0.002    189.340      0.000
    MT11               0.078      0.005     16.781      0.000
    MT12               0.146      0.003     48.101      0.000
    MT13               0.439      0.003    171.880      0.000
    MT14               0.383      0.002    166.178      0.000
    MT15               0.363      0.003    112.702      0.000
    MT16               0.188      0.003     58.826      0.000
    MT17               0.400      0.003    139.088      0.000
    MT18               0.278      0.004     64.536      0.000
    MT19               0.486      0.003    172.955      0.000
    MT20               0.151      0.003     46.642      0.000
    MT21               0.218      0.003     65.090      0.000
    MT22               0.066      0.004     17.494      0.000
    MT23               0.194      0.004     54.311      0.000
    MT24               0.572      0.003    176.415      0.000
    MT25               0.121      0.003     36.477      0.000
    MT26               0.292      0.003     94.375      0.000
    MT27               0.197      0.003     58.882      0.000
    MT28               0.320      0.003    100.350      0.000
    MT29               0.385      0.003    128.288      0.000
    MT30               0.162      0.003     49.996      0.000
    MT31               0.103      0.003     30.126      0.000
    MT32               0.091      0.003     27.154      0.000
    MT33               0.277      0.005     60.099      0.000
    MT34               0.318      0.003    100.494      0.000
    MT35               0.031      0.003      9.329      0.000
    MT36              -0.037      0.003    -12.494      0.000
    MT37               0.030      0.003      9.148      0.000
    MT38               0.084      0.004     23.335      0.000
    MT39               0.006      0.003      1.844      0.065
    MT40               0.118      0.003     34.879      0.000
    MT41               0.004      0.003      1.138      0.255
    MT42               0.054      0.004     14.924      0.000
    MT43               0.085      0.003     25.252      0.000
    MT44              -0.069      0.003    -23.428      0.000
    MT45               0.051      0.003     15.060      0.000

 Thresholds
    MT1$1              0.615      0.003    245.673      0.000
    MT2$1              1.278      0.003    401.962      0.000
    MT3$1              0.597      0.002    239.539      0.000
    MT4$1              1.084      0.003    372.621      0.000
    MT5$1              0.249      0.002    105.292      0.000
    MT6$1              0.728      0.003    282.833      0.000
    MT7$1              0.412      0.002    171.019      0.000
    MT8$1              0.945      0.003    342.896      0.000
    MT9$1              0.654      0.003    259.083      0.000
    MT10$1            -0.043      0.002    -18.292      0.000
    MT11$1             1.209      0.003    393.307      0.000
    MT12$1             0.493      0.002    201.814      0.000
    MT13$1             0.353      0.002    147.831      0.000
    MT14$1            -0.452      0.002   -186.644      0.000
    MT15$1             0.738      0.003    285.939      0.000
    MT16$1             0.601      0.002    240.937      0.000
    MT17$1             0.566      0.002    228.432      0.000
    MT18$1             1.177      0.003    388.485      0.000
    MT19$1             0.645      0.003    255.963      0.000
    MT20$1             0.661      0.003    261.349      0.000
    MT21$1             0.727      0.003    282.490      0.000
    MT22$1             0.977      0.003    350.346      0.000
    MT23$1             0.823      0.003    311.068      0.000
    MT24$1             0.934      0.003    340.148      0.000
    MT25$1             0.722      0.003    280.846      0.000
    MT26$1             0.615      0.003    245.629      0.000
    MT27$1             0.705      0.003    275.438      0.000
    MT28$1             0.675      0.003    265.866      0.000
    MT29$1             0.644      0.003    255.553      0.000
    MT30$1             0.652      0.003    258.172      0.000
    MT31$1             0.756      0.003    291.264      0.000
    MT32$1             0.756      0.003    291.391      0.000
    MT33$1             1.235      0.003    396.769      0.000
    MT34$1             0.693      0.003    271.564      0.000
    MT35$1             0.733      0.003    284.457      0.000
    MT36$1             0.476      0.002    195.755      0.000
    MT37$1             0.723      0.003    281.327      0.000
    MT38$1             0.937      0.003    340.915      0.000
    MT39$1             0.577      0.002    232.530      0.000
    MT40$1             0.744      0.003    287.595      0.000
    MT41$1             0.778      0.003    297.982      0.000
    MT42$1             1.062      0.003    368.415      0.000
    MT43$1             0.719      0.003    280.000      0.000
    MT44$1             0.693      0.003    271.625      0.000
    MT45$1             0.756      0.003    291.538      0.000

 Variances
    MT                 1.000      0.000    999.000    999.000


STDY Standardization

                                                    Two-Tailed
                    Estimate       S.E.  Est./S.E.    P-Value

 MT       BY
    MT1                0.581      0.003    226.512      0.000
    MT2                0.422      0.005     93.422      0.000
    MT3                0.165      0.003     51.388      0.000
    MT4                0.294      0.004     69.840      0.000
    MT5                0.508      0.002    222.494      0.000
    MT6                0.303      0.003     91.333      0.000
    MT7                0.399      0.003    148.906      0.000
    MT8                0.179      0.004     48.626      0.000
    MT9                0.094      0.003     28.591      0.000
    MT10               0.427      0.002    189.340      0.000
    MT11               0.078      0.005     16.781      0.000
    MT12               0.146      0.003     48.101      0.000
    MT13               0.439      0.003    171.880      0.000
    MT14               0.383      0.002    166.178      0.000
    MT15               0.363      0.003    112.702      0.000
    MT16               0.188      0.003     58.826      0.000
    MT17               0.400      0.003    139.088      0.000
    MT18               0.278      0.004     64.536      0.000
    MT19               0.486      0.003    172.955      0.000
    MT20               0.151      0.003     46.642      0.000
    MT21               0.218      0.003     65.090      0.000
    MT22               0.066      0.004     17.494      0.000
    MT23               0.194      0.004     54.311      0.000
    MT24               0.572      0.003    176.415      0.000
    MT25               0.121      0.003     36.477      0.000
    MT26               0.292      0.003     94.375      0.000
    MT27               0.197      0.003     58.882      0.000
    MT28               0.320      0.003    100.350      0.000
    MT29               0.385      0.003    128.288      0.000
    MT30               0.162      0.003     49.996      0.000
    MT31               0.103      0.003     30.126      0.000
    MT32               0.091      0.003     27.154      0.000
    MT33               0.277      0.005     60.099      0.000
    MT34               0.318      0.003    100.494      0.000
    MT35               0.031      0.003      9.329      0.000
    MT36              -0.037      0.003    -12.494      0.000
    MT37               0.030      0.003      9.148      0.000
    MT38               0.084      0.004     23.335      0.000
    MT39               0.006      0.003      1.844      0.065
    MT40               0.118      0.003     34.879      0.000
    MT41               0.004      0.003      1.138      0.255
    MT42               0.054      0.004     14.924      0.000
    MT43               0.085      0.003     25.252      0.000
    MT44              -0.069      0.003    -23.428      0.000
    MT45               0.051      0.003     15.060      0.000

 Thresholds
    MT1$1              0.615      0.003    245.673      0.000
    MT2$1              1.278      0.003    401.962      0.000
    MT3$1              0.597      0.002    239.539      0.000
    MT4$1              1.084      0.003    372.621      0.000
    MT5$1              0.249      0.002    105.292      0.000
    MT6$1              0.728      0.003    282.833      0.000
    MT7$1              0.412      0.002    171.019      0.000
    MT8$1              0.945      0.003    342.896      0.000
    MT9$1              0.654      0.003    259.083      0.000
    MT10$1            -0.043      0.002    -18.292      0.000
    MT11$1             1.209      0.003    393.307      0.000
    MT12$1             0.493      0.002    201.814      0.000
    MT13$1             0.353      0.002    147.831      0.000
    MT14$1            -0.452      0.002   -186.644      0.000
    MT15$1             0.738      0.003    285.939      0.000
    MT16$1             0.601      0.002    240.937      0.000
    MT17$1             0.566      0.002    228.432      0.000
    MT18$1             1.177      0.003    388.485      0.000
    MT19$1             0.645      0.003    255.963      0.000
    MT20$1             0.661      0.003    261.349      0.000
    MT21$1             0.727      0.003    282.490      0.000
    MT22$1             0.977      0.003    350.346      0.000
    MT23$1             0.823      0.003    311.068      0.000
    MT24$1             0.934      0.003    340.148      0.000
    MT25$1             0.722      0.003    280.846      0.000
    MT26$1             0.615      0.003    245.629      0.000
    MT27$1             0.705      0.003    275.438      0.000
    MT28$1             0.675      0.003    265.866      0.000
    MT29$1             0.644      0.003    255.553      0.000
    MT30$1             0.652      0.003    258.172      0.000
    MT31$1             0.756      0.003    291.264      0.000
    MT32$1             0.756      0.003    291.391      0.000
    MT33$1             1.235      0.003    396.769      0.000
    MT34$1             0.693      0.003    271.564      0.000
    MT35$1             0.733      0.003    284.457      0.000
    MT36$1             0.476      0.002    195.755      0.000
    MT37$1             0.723      0.003    281.327      0.000
    MT38$1             0.937      0.003    340.915      0.000
    MT39$1             0.577      0.002    232.530      0.000
    MT40$1             0.744      0.003    287.595      0.000
    MT41$1             0.778      0.003    297.982      0.000
    MT42$1             1.062      0.003    368.415      0.000
    MT43$1             0.719      0.003    280.000      0.000
    MT44$1             0.693      0.003    271.625      0.000
    MT45$1             0.756      0.003    291.538      0.000

 Variances
    MT                 1.000      0.000    999.000    999.000


STD Standardization

                                                    Two-Tailed
                    Estimate       S.E.  Est./S.E.    P-Value

 MT       BY
    MT1                0.581      0.003    226.512      0.000
    MT2                0.422      0.005     93.422      0.000
    MT3                0.165      0.003     51.388      0.000
    MT4                0.294      0.004     69.840      0.000
    MT5                0.508      0.002    222.494      0.000
    MT6                0.303      0.003     91.333      0.000
    MT7                0.399      0.003    148.906      0.000
    MT8                0.179      0.004     48.626      0.000
    MT9                0.094      0.003     28.591      0.000
    MT10               0.427      0.002    189.340      0.000
    MT11               0.078      0.005     16.781      0.000
    MT12               0.146      0.003     48.101      0.000
    MT13               0.439      0.003    171.880      0.000
    MT14               0.383      0.002    166.178      0.000
    MT15               0.363      0.003    112.702      0.000
    MT16               0.188      0.003     58.826      0.000
    MT17               0.400      0.003    139.088      0.000
    MT18               0.278      0.004     64.536      0.000
    MT19               0.486      0.003    172.955      0.000
    MT20               0.151      0.003     46.642      0.000
    MT21               0.218      0.003     65.090      0.000
    MT22               0.066      0.004     17.494      0.000
    MT23               0.194      0.004     54.311      0.000
    MT24               0.572      0.003    176.415      0.000
    MT25               0.121      0.003     36.477      0.000
    MT26               0.292      0.003     94.375      0.000
    MT27               0.197      0.003     58.882      0.000
    MT28               0.320      0.003    100.350      0.000
    MT29               0.385      0.003    128.288      0.000
    MT30               0.162      0.003     49.996      0.000
    MT31               0.103      0.003     30.126      0.000
    MT32               0.091      0.003     27.154      0.000
    MT33               0.277      0.005     60.099      0.000
    MT34               0.318      0.003    100.494      0.000
    MT35               0.031      0.003      9.329      0.000
    MT36              -0.037      0.003    -12.494      0.000
    MT37               0.030      0.003      9.148      0.000
    MT38               0.084      0.004     23.335      0.000
    MT39               0.006      0.003      1.844      0.065
    MT40               0.118      0.003     34.879      0.000
    MT41               0.004      0.003      1.138      0.255
    MT42               0.054      0.004     14.924      0.000
    MT43               0.085      0.003     25.252      0.000
    MT44              -0.069      0.003    -23.428      0.000
    MT45               0.051      0.003     15.060      0.000

 Thresholds
    MT1$1              0.615      0.003    245.673      0.000
    MT2$1              1.278      0.003    401.962      0.000
    MT3$1              0.597      0.002    239.539      0.000
    MT4$1              1.084      0.003    372.621      0.000
    MT5$1              0.249      0.002    105.292      0.000
    MT6$1              0.728      0.003    282.833      0.000
    MT7$1              0.412      0.002    171.019      0.000
    MT8$1              0.945      0.003    342.896      0.000
    MT9$1              0.654      0.003    259.083      0.000
    MT10$1            -0.043      0.002    -18.292      0.000
    MT11$1             1.209      0.003    393.307      0.000
    MT12$1             0.493      0.002    201.814      0.000
    MT13$1             0.353      0.002    147.831      0.000
    MT14$1            -0.452      0.002   -186.644      0.000
    MT15$1             0.738      0.003    285.939      0.000
    MT16$1             0.601      0.002    240.937      0.000
    MT17$1             0.566      0.002    228.432      0.000
    MT18$1             1.177      0.003    388.485      0.000
    MT19$1             0.645      0.003    255.963      0.000
    MT20$1             0.661      0.003    261.349      0.000
    MT21$1             0.727      0.003    282.490      0.000
    MT22$1             0.977      0.003    350.346      0.000
    MT23$1             0.823      0.003    311.068      0.000
    MT24$1             0.934      0.003    340.148      0.000
    MT25$1             0.722      0.003    280.846      0.000
    MT26$1             0.615      0.003    245.629      0.000
    MT27$1             0.705      0.003    275.438      0.000
    MT28$1             0.675      0.003    265.866      0.000
    MT29$1             0.644      0.003    255.553      0.000
    MT30$1             0.652      0.003    258.172      0.000
    MT31$1             0.756      0.003    291.264      0.000
    MT32$1             0.756      0.003    291.391      0.000
    MT33$1             1.235      0.003    396.769      0.000
    MT34$1             0.693      0.003    271.564      0.000
    MT35$1             0.733      0.003    284.457      0.000
    MT36$1             0.476      0.002    195.755      0.000
    MT37$1             0.723      0.003    281.327      0.000
    MT38$1             0.937      0.003    340.915      0.000
    MT39$1             0.577      0.002    232.530      0.000
    MT40$1             0.744      0.003    287.595      0.000
    MT41$1             0.778      0.003    297.982      0.000
    MT42$1             1.062      0.003    368.415      0.000
    MT43$1             0.719      0.003    280.000      0.000
    MT44$1             0.693      0.003    271.625      0.000
    MT45$1             0.756      0.003    291.538      0.000

 Variances
    MT                 1.000      0.000    999.000    999.000


R-SQUARE

    Observed                                        Two-Tailed   Residual
    Variable        Estimate       S.E.  Est./S.E.    P-Value    Variance

    MT1                0.338      0.003    113.256      0.000      0.662
    MT2                0.178      0.004     46.711      0.000      0.822
    MT3                0.027      0.001     25.694      0.000      0.973
    MT4                0.086      0.002     34.920      0.000      0.914
    MT5                0.258      0.002    111.247      0.000      0.742
    MT6                0.092      0.002     45.666      0.000      0.908
    MT7                0.159      0.002     74.453      0.000      0.841
    MT8                0.032      0.001     24.313      0.000      0.968
    MT9                0.009      0.001     14.296      0.000      0.991
    MT10               0.182      0.002     94.670      0.000      0.818
    MT11               0.006      0.001      8.391      0.000      0.994
    MT12               0.021      0.001     24.050      0.000      0.979
    MT13               0.193      0.002     85.940      0.000      0.807
    MT14               0.147      0.002     83.089      0.000      0.853
    MT15               0.132      0.002     56.351      0.000      0.868
    MT16               0.035      0.001     29.413      0.000      0.965
    MT17               0.160      0.002     69.544      0.000      0.840
    MT18               0.077      0.002     32.268      0.000      0.923
    MT19               0.236      0.003     86.478      0.000      0.764
    MT20               0.023      0.001     23.321      0.000      0.977
    MT21               0.047      0.001     32.545      0.000      0.953
    MT22               0.004      0.000      8.747      0.000      0.996
    MT23               0.038      0.001     27.156      0.000      0.962
    MT24               0.327      0.004     88.207      0.000      0.673
    MT25               0.015      0.001     18.239      0.000      0.985
    MT26               0.085      0.002     47.188      0.000      0.915
    MT27               0.039      0.001     29.441      0.000      0.961
    MT28               0.102      0.002     50.175      0.000      0.898
    MT29               0.149      0.002     64.144      0.000      0.851
    MT30               0.026      0.001     24.998      0.000      0.974
    MT31               0.011      0.001     15.063      0.000      0.989
    MT32               0.008      0.001     13.577      0.000      0.992
    MT33               0.077      0.003     30.049      0.000      0.923
    MT34               0.101      0.002     50.247      0.000      0.899
    MT35               0.001      0.000      4.664      0.000      0.999
    MT36               0.001      0.000      6.247      0.000      0.999
    MT37               0.001      0.000      4.574      0.000      0.999
    MT38               0.007      0.001     11.668      0.000      0.993
    MT39               0.000      0.000      0.922      0.356      1.000
    MT40               0.014      0.001     17.440      0.000      0.986
    MT41               0.000      0.000      0.569      0.569      1.000
    MT42               0.003      0.000      7.462      0.000      0.997
    MT43               0.007      0.001     12.626      0.000      0.993
    MT44               0.005      0.000     11.714      0.000      0.995
    MT45               0.003      0.000      7.530      0.000      0.997


QUALITY OF NUMERICAL RESULTS

     Condition Number for the Information Matrix              0.183E-02
       (ratio of smallest to largest eigenvalue)


     Beginning Time:  15:50:58
        Ending Time:  15:55:28
       Elapsed Time:  00:04:30



MUTHEN & MUTHEN
3463 Stoner Ave.
Los Angeles, CA  90066

Tel: (310) 391-9971
Fax: (310) 391-8971
Web: www.StatModel.com
Support: Support@StatModel.com

Copyright (c) 1998-2008 Muthen & Muthen
